IDENT,LATITUDE,LONGITUDE
ADUSU,49.95611111111111,6.196111111111112
AFI03,50.90775,4.217880555555555
AFI11,50.716388888888886,4.219655555555556
AKOVI,50.74722222222222,3.718611111111111
ANT04,51.19291944444444,4.578480555555555
ANT06,51.19410833333333,4.631430555555555
ANT15,50.95408888888889,4.344838888888889
ANT18,50.93845833333334,4.215313888888889
ANT40,51.18363611111111,4.5779805555555555
ANT46,51.16101111111111,4.5849
ANT60,51.18018333333333,4.6306666666666665
ANT66,51.15276388888889,4.619580555555555
ARCKY,50.299166666666665,6.1322222222222225
ARDEN,49.86194444444445,4.857777777777778
BABIX,51.41305555555556,4.905277777777778
BARTU,51.003055555555555,4.171666666666667
BATTY,50.649166666666666,5.848888888888888
BBE02,50.74221388888889,4.720566666666667
BBE05,50.69629444444445,4.677308333333333
BBE08,50.69957222222222,4.578272222222222
BBE10,50.744619444444446,4.749494444444444
BBE11,50.57593055555556,4.719
BBE14,50.73956944444444,4.742622222222222
BBE15,50.776377777777775,4.791658333333333
BBE19,50.641555555555556,4.7367944444444445
BBE20,50.42826111111111,4.679141666666666
BBE22,50.7191,4.715697222222222
BBE35,50.77000555555556,4.783158333333334
BBE50,50.82299722222222,4.846813888888889
BBE60,50.77311944444445,4.813447222222222
BBE84,50.79561666666667,4.816811111111111
BBE99,50.8232,4.9498194444444445
BBL00,51.292966666666665,5.7175
BBL02,51.17930833333333,5.517366666666667
BBL03,51.15810555555556,5.448330555555556
BBL06,51.21242222222222,5.3222805555555555
BBL09,51.06061388888889,5.3042
BBL10,51.12415277777778,5.212086111111111
BBL12,51.286725,5.724897222222222
BBL14,51.19768611111111,5.619213888888889
BBL15,51.15221666666667,5.438925
BBL18,51.296175,5.033275
BBL20,51.18056388888889,5.416013888888889
BBL24,51.209158333333335,5.552413888888889
BBL25,51.3447,4.8642055555555554
BBL26,51.18000277777778,5.487880555555556
BBL34,51.151894444444444,5.364608333333333
BBL35,51.15419722222222,5.377325
BBL37,51.16054722222222,5.444905555555556
BBL40,51.20981666666667,5.551636111111111
BBL43,51.10938055555555,5.376188888888889
BBL44,51.182430555555555,5.4844888888888885
BBL46,51.10916944444445,5.248938888888889
BBL52,51.201680555555555,5.528177777777778
BBL60,51.23063333333333,5.593061111111111
BBL66,51.22857222222222,5.595480555555556
BBL70,51.22412777777778,5.772561111111111
BBL74,51.20178888888889,5.644902777777778
BBL77,51.241030555555554,5.613772222222222
BBL89,51.206180555555555,5.289980555555555
BBL91,51.23342777777778,5.250127777777778
BBL92,51.24041944444444,5.226061111111111
BBL95,51.31006388888889,4.9850055555555555
BBL97,51.238275,5.6170277777777775
BBL98,51.216388888888886,5.239525
BBL99,51.178491666666666,5.489430555555556
BELOB,50.70944444444444,3.2144444444444447
BETEX,49.81583333333333,6.425277777777778
BFS05,50.221180555555556,4.778955555555555
BFS08,50.15745277777778,4.814180555555556
BFS09,50.232013888888886,4.263680555555555
BFS11,50.10301388888889,4.839872222222223
BFS12,50.192661111111114,4.955033333333334
BFS16,50.212808333333335,5.065922222222222
BFS17,50.228475,5.093886111111111
BFS19,50.23643055555556,4.6043416666666666
BFS21,50.24729722222222,4.682822222222223
BFS23,50.13419722222222,4.4546222222222225
BFS25,50.13316944444445,4.217766666666667
BFS26,50.23388611111111,4.6024722222222225
BFS51,50.24868611111111,4.690302777777777
BFS60,50.2705,4.802108333333333
BFS71,50.210975,5.091708333333333
BFS76,50.28980277777778,4.901580555555555
BFS80,50.12837777777778,4.762855555555555
BFS81,50.252719444444445,4.728913888888889
BFS84,50.248869444444445,4.703655555555556
BFS85,50.225658333333335,4.499255555555555
BFS86,50.21506111111111,4.3967777777777775
BFS87,50.05895833333334,4.316247222222223
BFS88,50.259766666666664,4.989402777777778
BFS89,50.08047222222222,4.355738888888889
BFS90,50.08253611111111,4.288372222222222
BFS91,50.09191388888889,4.309755555555555
BFS95,50.265547222222224,4.846788888888889
BFS96,50.27232222222222,4.908222222222222
BFS97,50.172127777777774,5.080675
BFS98,50.18035555555556,5.030430555555555
BFS99,50.20083611111111,4.904747222222222
BROGY,51.1825,5.448888888888889
BUB03,50.88729166666667,4.476627777777778
BUB07,50.92031111111111,4.355961111111111
BUB08,50.9272,4.6642
BUB12,50.95341388888889,4.7855
BUB13,50.82422777777778,4.219063888888889
BUB22,50.69753611111111,4.427113888888889
BUB24,50.79691666666667,4.239386111111111
BUB27,50.814375,5.234533333333333
BUB28,50.918569444444444,4.373630555555556
BUB36,50.49908333333333,5.2363888888888885
BUB43,51.029627777777776,4.707747222222222
BUB47,50.937275,4.593158333333333
BUB48,50.95013888888889,4.639252777777778
BUB50,50.87532222222222,4.427513888888889
BUB52,50.793997222222224,4.096658333333333
BUB54,50.98410833333333,4.761416666666666
BUB58,50.823769444444444,4.081075
BUB72,50.66478611111111,5.155516666666666
BUB78,50.91375,4.362586111111111
BUB84,50.922180555555556,4.064794444444445
BUB88,50.854930555555555,4.344080555555555
BULAM,51.3525,2.750277777777778
BULUX,50.592777777777776,5.251388888888889
BUPAL,50.723055555555554,4.601111111111111
CIV12,50.62368055555555,4.125394444444445
CIV41,50.57836388888889,3.857213888888889
CIV61,50.591683333333336,3.9810833333333333
CIV62,50.59894444444444,3.978486111111111
COA1,51.37083333333333,3.3669444444444445
DEMUL,49.963055555555556,5.978611111111111
DENOV,50.63666666666667,6.207777777777777
DENOX,50.879444444444445,4.027777777777778
DENUT,51.236111111111114,3.6575
DI114,51.2894,4.152519444444445
DIBLI,51.411944444444444,2.2625
DIK21,49.52333333333333,6.358611111111111
DIK31,50.68783888888889,4.7697722222222225
DINAN,49.831944444444446,5.331388888888889
DINKI,50.63916666666667,5.906111111111111
DITEL,50.344722222222224,6.3966666666666665
ELSIK,51.195,4.998611111111111
ERIGO,50.838055555555556,5.506111111111111
FAMEN,49.975,4.566666666666666
FERDI,50.9125,3.6369444444444445
FLO33,50.912275,4.253822222222222
GELPA,50.283055555555556,6.288333333333333
GESLO,50.079166666666666,6.005
GILOM,50.75194444444445,4.774166666666667
GOLEX,50.945277777777775,3.6158333333333332
GOPAS,49.966388888888886,6.0697222222222225
GSY01,50.44985555555556,4.4161
GSY05,50.533322222222225,4.685530555555555
GSY06,50.413025,4.298694444444444
GSY07,50.524141666666665,4.587180555555555
GSY10,50.5274,4.690022222222222
GSY11,50.534169444444444,4.7139
GSY23,50.471355555555554,4.494797222222222
GSY25,50.47803611111111,4.3165611111111115
GSY26,50.46814444444445,4.3129
GSY27,50.474383333333336,4.504091666666667
GSY28,50.46531111111111,4.338602777777778
GSY46,50.47322222222222,4.341536111111111
GSY56,50.42127222222222,4.2392
GSY60,50.42946666666667,4.289722222222222
GSY61,50.40831111111111,4.302247222222222
GSY67,50.446505555555554,4.2331055555555555
GSY72,50.50796388888889,4.701938888888889
GSY74,50.46276666666667,4.233208333333334
GSY75,50.496230555555556,4.707183333333333
GSY77,50.482191666666665,4.618530555555555
GSY79,50.49043611111111,4.735891666666666
GSY87,50.515208333333334,4.647083333333334
GSY88,50.51974722222222,4.643619444444445
HORNE,50.61015,4.130452777777778
HUL03,50.798627777777774,4.627980555555555
HUL05,50.988886111111114,4.535141666666666
HUL06,50.848952777777775,4.627913888888889
HUL07,51.02101944444444,4.548975
HUL10,50.70685,4.374555555555555
HUL12,51.10293611111111,4.584330555555556
HUL14,50.93104722222222,4.510291666666666
HUL25,50.72983055555556,4.556894444444445
HUL30,50.95675555555555,4.521330555555555
HUL56,50.79919722222222,4.634797222222222
HUL91,51.05475,4.563516666666667
IBX07,50.797383333333336,4.451247222222222
IBX12,50.71715833333333,4.416230555555556
ILG55,50.71704722222222,5.574902777777778
ILG85,50.75163333333333,5.631688888888889
KERKY,50.926944444444445,3.9924999999999997
KOGES,50.57,6.200555555555556
KOMOB,50.14388888888889,5.373611111111111
LAREP,50.44277777777778,5.7941666666666665
LERVO,50.83305555555555,4.158611111111111
LGE01,50.66500555555555,5.5470500000000005
LGE02,50.69526944444444,5.514622222222222
LGE03,50.48309722222222,5.288513888888889
LGE04,50.510155555555556,5.2392
LGE06,50.54508888888889,5.2952
LGE07,50.6148,5.4075
LGE09,50.75293333333333,5.6294361111111115
LGE11,50.712580555555554,5.563197222222223
LGE30,50.77744166666667,5.579325
LGE35,50.77093611111111,5.595872222222222
LGE43,50.60350833333333,5.390588888888889
LIMGO,49.63722222222222,6.281666666666666
LUMEN,51.269444444444446,3.4066666666666667
MADUX,51.22666666666667,2.4074999999999998
MAKIK,49.97,6.167222222222223
MAS09,50.93221944444444,5.735833333333334
MMD29,49.543055555555554,5.824166666666667
MOKOM,49.978611111111114,6.166388888888889
NB083,51.1921,4.3881194444444445
NB089,51.18653333333334,4.345922222222222
NIK17,51.100519444444444,4.621847222222222
NIK18,50.86607222222222,4.216919444444445
NIVOR,50.693888888888885,4.2908333333333335
NTM01,50.30587777777778,6.298883333333333
NUDRI,49.89333333333333,6.241388888888888
ONW25,51.13568055555555,4.380475
ONW75,51.181,4.6428
PELIX,50.496944444444445,5.7625
PINUS,50.76305555555555,5.8625
PUTTY,51.365833333333335,4.3375
R1822,50.647952777777775,5.460855555555556
R1823,51.173808333333334,5.484941666666667
R1824,50.46467222222222,4.469402777777778
R1825,50.88733055555556,4.491577777777778
R1826,50.898941666666666,4.5233
R1827,50.911541666666665,4.499386111111111
R1828,51.18770555555555,4.473177777777778
R1829,50.246113888888885,4.669255555555555
R2394,50.91101111111111,4.501238888888889
R2782,50.62863888888889,5.430227777777778
R2783,50.64608611111111,5.453619444444445
R2904,51.17540555555556,5.483186111111111
R2937,50.57872777777778,3.8561
REMBA,50.66222222222222,4.914166666666667
RITAX,50.077777777777776,5.8069444444444445
ROBON,50.07833333333333,6.118055555555555
RODRI,50.876666666666665,3.8627777777777776
RUPIN,51.46055555555556,4.540555555555556
SISGA,50.61805555555556,4.056666666666667
SOGRI,50.80638888888889,5.045277777777778
SONDI,51.190555555555555,4.838333333333333
SOPOK,50.25277777777778,5.773888888888889
SORAT,51.215833333333336,5.596666666666667
SPI28,50.72152222222222,4.599202777777778
SPI29,50.267627777777776,6.274841666666667
SPI30,50.69166944444444,5.175375
SPI46,50.55526111111111,5.521663888888889
TALUD,49.60111111111111,5.420555555555556
TERLA,50.6825,5.665555555555556
TILVI,49.608333333333334,5.5841666666666665
WOODY,51.40555555555556,4.366388888888889
