IDENT,LATITUDE,LONGITUDE
AMKAL,14.875833333333333,-5.222777777777778
AMLAN,13.763333333333334,-10.171666666666667
AMSEN,22.0,-6.117222222222222
AMTAK,14.73611111111111,-10.998055555555556
AMTES,20.083333333333332,2.3666666666666667
APERO,16.25,2.272222222222222
BIDOK,12.833055555555555,-9.262777777777778
BIDOM,17.295,3.515277777777778
BIGET,14.693055555555556,-8.839444444444444
BIMAN,16.09027777777778,-9.441666666666666
BKO03,12.518497222222223,-7.973172222222222
BKO04,12.50928888888889,-7.987402777777778
BKO05,12.598561111111112,-7.849319444444444
BKO06,12.490875,-8.01586111111111
BKO08,12.466930555555555,-8.052852777777778
BKO18,12.640827777777778,-7.639225
BKO28,12.32086111111111,-8.134141666666666
BKO31,12.55531388888889,-7.916236111111111
BKO33,12.573719444444444,-7.887763888888889
DEKAT,12.665697222222223,-7.745336111111111
DENIS,13.197777777777778,-9.123055555555556
DEPOX,15.733611111111111,-8.168055555555556
DERON,15.45138888888889,0.6186111111111111
EBSUD,11.501944444444444,-5.248333333333333
EDAMO,10.794444444444444,-6.876388888888889
EDUBA,18.5,2.3272222222222223
ENINO,13.078611111111112,-10.431111111111111
ENOLU,13.17361111111111,-6.724722222222223
EPITI,12.485,-5.375277777777778
EREMO,16.25,-8.207222222222223
ETRUL,15.8425,-0.9811111111111112
GARAN,13.783888888888889,-8.4525
GASMI,14.065833333333334,-4.98
GASON,16.25,3.151388888888889
GATAM,12.426527777777778,-8.115527777777778
GATIL,13.447777777777778,-12.2425
ILDAD,17.214444444444446,0.21583333333333332
INAMA,19.133333333333333,4.166666666666667
INEPA,16.25,2.038611111111111
IPOBA,22.476666666666667,-1.0483333333333333
KOSIL,14.640277777777778,-7.0
KOSOM,14.934722222222222,-3.1222222222222222
LITIL,15.311111111111112,-6.698055555555555
LUKNA,17.73472222222222,-1.8883333333333332
MELAP,12.694722222222222,-6.575277777777778
MESUL,14.748611111111112,-11.938611111111111
MEVAL,15.297777777777778,-0.3908333333333333
MINVO,12.056666666666667,-6.6625
MIPNA,15.410555555555556,-9.1475
NAMAX,16.25,3.496111111111111
NAPTU,12.516388888888889,-6.5675
ONUSI,12.930555555555555,-4.275
OPARA,14.673055555555555,-8.088333333333333
OPULU,16.40972222222222,-3.3872222222222224
PILTI,15.285,-2.303888888888889
PITMA,12.818888888888889,-5.388055555555556
POTAL,11.394722222222223,-7.235555555555556
POTOL,21.344444444444445,-3.8708333333333336
RIPUL,13.718055555555555,-5.664444444444444
SEPAT,14.208055555555555,-6.008055555555556
SOLMA,19.384166666666665,-4.813888888888889
SONKO,15.086666666666666,-2.7683333333333335
TAVIL,18.145555555555557,-1.4288888888888889
TISEN,24.184722222222224,-6.154444444444445
TOBAS,14.030833333333334,-9.998055555555556
UBATI,11.746944444444445,-9.022777777777778
UNOTA,15.849166666666667,0.2930555555555555
USRUT,23.666666666666668,-2.7333333333333334
VOLBU,14.401388888888889,-2.451388888888889
VOMEL,14.588888888888889,-5.561111111111111
XUMIL,18.567777777777778,-1.7441666666666666
