IDENT,LATITUDE,LONGITUDE
AMSIK,-1.2169444444444444,16.84888888888889
APIVA,-4.675833333333333,12.7725
ARAKI,-5.301944444444445,10.7325
BUMAK,-0.4502777777777778,16.69972222222222
DIMLA,-2.2344444444444442,13.851111111111111
EMSAT,1.3494444444444444,17.94
ENINA,-3.962222222222222,11.223888888888888
EPULO,-3.431388888888889,14.248611111111112
GARAL,-1.9644444444444444,16.127777777777776
INONI,-3.060277777777778,15.713333333333333
IPAMU,-2.698611111111111,13.3375
LISIT,-2.9811111111111113,15.358333333333333
MIKMA,-0.15888888888888889,14.659444444444444
MONAL,-3.6244444444444444,12.479166666666666
ONASA,-3.7263888888888888,11.126944444444444
OPGAM,2.368611111111111,17.670555555555556
PIPLO,2.27,18.116666666666667
POTAN,-3.1930555555555555,14.52361111111111
RAMIS,-5.033333333333333,11.97
SABSA,3.1241666666666665,18.050555555555555
SERAL,2.3491666666666666,17.75722222222222
TASIN,-3.620277777777778,11.307777777777778
TIVAL,-1.8283333333333334,14.905833333333334
UBOLI,-3.765833333333333,11.073055555555555
USKAV,2.2222222222222223,17.70916666666667
USMAK,-0.5508333333333333,16.661944444444444
VONTI,-1.8122222222222222,15.445555555555556
VORAX,-4.5377777777777775,13.577222222222222
