IDENT,LATITUDE,LONGITUDE
ABARB,-32.85166666666667,154.935
ABLOK,-12.718333333333334,143.44
ABTOD,-32.995,135.13333333333333
AD001,-34.96556666666667,138.50407777777778
AD005,-35.00895833333333,138.4565611111111
AD007,-34.87820555555555,138.6391638888889
AD008,-35.00749166666667,138.66906666666668
AD011,-35.03375,138.42938055555555
AD012,-35.1019,138.3545472222222
AD015,-35.060325,138.7957861111111
AD020,-35.12383333333333,138.38985833333334
AD025,-35.07525277777778,138.32442777777777
AD035,-34.912591666666664,138.5818277777778
AD042,-34.89852222222222,138.603875
AD055,-34.82909166666666,138.79257777777778
AD070,-34.87023611111111,138.4174361111111
AD075,-34.911725,138.82547222222223
AD088,-34.96839444444444,138.82748055555555
AD100,-34.83732777777778,138.37163611111112
AD102,-35.028130555555556,138.812275
AD110,-35.0226,138.70525555555557
AD118,-35.090316666666666,138.77399722222222
AD140,-35.15683888888889,138.6905
AD270,-34.92643611111111,138.32326111111112
AD290,-34.871025,138.34396388888888
AD304,-34.89216111111111,138.4479888888889
AD318,-34.81014166666667,138.40834722222223
AD330,-34.79325277777778,138.445375
AD470,-34.84871111111111,138.68827222222222
AD500,-34.98480833333333,138.61480833333334
AD700,-34.99993333333333,138.65097777777777
ADMAR,-30.323333333333334,151.91166666666666
AGAGO,-28.22,136.76
AGREK,-27.02166666666667,121.32333333333334
AGSEL,-19.925,109.68333333333334
AGTIK,-28.671666666666667,124.10333333333334
AGUST,-13.628333333333334,131.205
AKDAV,-33.03,136.20333333333335
AKLET,-27.153333333333332,145.715
AKUKO,-9.008333333333333,102.35166666666667
ALBEE,-19.378333333333334,146.14
ALEGO,-10.64,125.13333333333334
ALEXA,-9.3,126.95666666666666
ALICE,-12.355,130.635
ALLOC,-33.91,152.70333333333335
AMANA,-31.758333333333333,116.62833333333333
AMB01,-27.657741666666666,152.7212888888889
AMB03,-27.689894444444445,152.73164722222222
AMB04,-27.648616666666666,152.60377777777776
AMB05,-27.705969444444445,152.7368277777778
AMB06,-27.738119444444443,152.7471972222222
AMB08,-27.51942777777778,152.65507222222223
AMB09,-27.65206388888889,152.54749166666667
AMB11,-27.473580555555557,152.63221944444444
AMB15,-27.428841666666667,152.567125
AMB16,-27.791975,152.72496944444444
AMB25,-27.504144444444446,152.64745277777777
AMB28,-27.501133333333332,152.65561944444445
AMB31,-27.52142222222222,152.61450555555555
AMB32,-27.40758611111111,152.61544444444445
AMB35,-27.588191666666667,152.68938888888889
AMB51,-27.665111111111113,152.54914166666666
AMB55,-27.786341666666665,152.76275833333332
AMB59,-27.770269444444445,152.75756944444444
AMB60,-27.54998888888889,152.67031944444443
AMB66,-27.5392,152.67029722222222
AMB82,-27.579775,152.68774166666665
AMB83,-27.5954,152.69442222222222
AMB95,-27.543230555555557,152.73757777777777
AMB97,-27.51685,152.62170555555556
AMB98,-27.62638888888889,152.708475
AMB99,-27.49391111111111,152.68390555555555
AMITY,-27.428333333333335,153.50666666666666
ANDEE,-16.183333333333334,143.235
ANGAS,-25.133333333333333,132.44
ANITA,-32.64,135.74333333333334
ANKEL,-27.983333333333334,118.45333333333333
ANTLA,-40.0,147.18833333333333
ANZAC,-22.746666666666666,135.82333333333332
APAGI,-28.848333333333333,152.585
APAMO,-30.131666666666668,150.53333333333333
APOMA,-29.898333333333333,142.68166666666667
APPLE,-36.928333333333335,144.38666666666666
APUKA,-12.0,144.96166666666667
ARBEY,-37.16833333333334,144.73166666666665
ARENI,-26.93,132.59833333333333
ARIKI,-27.28823611111111,153.3257888888889
ARMOK,-21.168333333333333,116.54333333333334
ARNTU,-24.495,132.425
AROLI,-29.116666666666667,146.61666666666667
ARRAN,-35.83833333333333,147.64
AS002,-23.773216666666666,133.84878333333333
AS009,-23.87033611111111,134.018475
AS011,-23.666533333333334,133.74578333333332
AS015,-23.6452,133.65777777777777
AS021,-23.647291666666668,133.77162222222222
AS022,-23.811844444444443,133.9125
AS035,-23.635055555555557,133.66648333333333
AS036,-23.822997222222224,133.93490833333334
AS037,-23.911525,133.97905277777778
AS041,-23.827177777777777,133.9427861111111
AS044,-23.755225,133.80735555555555
AS045,-23.748616666666667,133.81202222222223
AS055,-23.66721111111111,134.1142
AS059,-23.702247222222223,133.6241361111111
AS075,-23.857480555555554,133.9951638888889
AS106,-23.70215,133.71278611111111
AS107,-23.886702777777778,134.1312888888889
AS111,-23.873469444444446,134.0581
AS116,-23.921980555555557,134.11224166666668
AS125,-23.954080555555556,134.08741388888888
AS128,-23.895547222222223,133.99799166666668
AS180,-23.892902777777778,133.86868611111112
AS195,-24.028713888888888,133.78474166666666
AS200,-23.77565,133.84703333333334
AS270,-23.770775,133.60651944444444
AS292,-23.67875,133.6353777777778
AS301,-23.689541666666667,133.72385277777778
AS310,-23.615288888888887,133.6855888888889
AS330,-23.70189166666667,133.832125
AS353,-23.542044444444443,133.86870277777777
AS360,-23.69287222222222,133.88770555555556
AS600,-23.74266111111111,133.78375
ATERA,-10.828333333333333,140.95833333333334
ATMAP,-12.0,118.255
AUSGA,-15.041666666666666,115.19
AV003,-38.000505555555556,144.47527222222223
AV004,-37.98437777777778,144.4807277777778
AV007,-38.16552222222222,144.46663055555555
AV008,-37.91986111111111,144.50253055555555
AV009,-37.90018055555556,144.48526388888888
AV013,-37.83359166666666,144.49221944444446
AV015,-37.92881111111111,144.53281388888888
AV019,-37.86096111111111,144.59568611111112
AV024,-37.939433333333334,144.55562777777777
AV035,-37.840358333333334,144.53428055555557
AV053,-37.961936111111115,144.47924722222223
AV089,-37.90226388888889,144.4886
AV145,-38.15564166666667,144.51909166666667
AV154,-38.16169722222222,144.497175
AV163,-38.098875,144.46220277777778
AV166,-38.1322,144.46441666666666
AYE07,-25.26171111111111,131.05834444444446
AYE08,-25.27441111111111,131.0703
AYE11,-25.228130555555556,131.10854722222223
AYE12,-25.254105555555554,131.0914388888889
BABEL,-41.71,146.67
BADGR,-37.718333333333334,145.46666666666667
BANAM,-31.22,135.73833333333334
BANDA,-30.8,152.57333333333332
BARIA,-17.213333333333335,146.36333333333334
BARTN,-35.06,149.065
BAXMN,-25.58,118.575
BEADS,-31.60333333333333,153.99333333333334
BEANI,-27.493333333333332,152.74833333333333
BEBIM,-10.645,93.835
BEEFA,-37.010555555555555,142.66
BEGMI,-9.833333333333334,140.41
BEJAY,-35.125,148.94833333333332
BEKKA,-37.80166666666667,144.50666666666666
BELEL,-26.468333333333334,117.99166666666666
BELKI,-11.686666666666667,128.46666666666667
BENJI,-16.768333333333334,145.75333333333333
BENKI,-14.0,147.00666666666666
BENZO,-40.0,145.88333333333333
BERNI,-28.838333333333335,153.465
BEVLY,-32.18,116.9
BEZZA,-30.858333333333334,131.80833333333334
BIDAG,-18.318333333333335,143.26333333333332
BIDAP,-24.401666666666667,123.245
BIDGI,-35.53,149.145
BIGAL,-34.76166666666667,138.18833333333333
BIGUP,-18.925,123.33
BIKER,-20.731666666666666,136.23333333333332
BIMBY,-29.78,118.24166666666666
BINTH,-24.645,114.735
BITAN,-19.368333333333332,108.67166666666667
BLACK,-34.776666666666664,139.41166666666666
BLAKA,-28.2,153.22166666666666
BN004,-27.306419444444444,153.17350555555555
BN005,-27.358519444444443,153.14361944444445
BN006,-27.29242222222222,153.0625638888889
BN009,-27.2557,153.0243
BN010,-27.514825,153.05400833333334
BN011,-27.18412222222222,153.10698333333335
BN012,-27.565627777777777,153.11955277777778
BN014,-27.599080555555556,153.1162611111111
BN019,-27.574405555555554,153.01988055555555
BN028,-27.222894444444446,153.26859166666668
BN029,-27.276125,153.22338611111113
BN034,-27.21716111111111,153.11282777777777
BN050,-27.291316666666667,153.1816611111111
BN054,-27.29509722222222,153.30871944444445
BN060,-27.4575,153.0872222222222
BN070,-27.29533888888889,153.243825
BN087,-27.588491666666666,153.0579611111111
BN100,-27.217141666666667,153.2246111111111
BN110,-27.201991666666668,153.2325138888889
BN195,-27.514580555555554,153.05375555555557
BN317,-27.209772222222224,153.030125
BNA03,-27.41053611111111,153.11364444444445
BNA19,-27.455233333333332,153.0881
BOBET,-29.013333333333332,124.70333333333333
BOGAL,-33.598333333333336,137.72666666666666
BOLTY,-37.825,144.94333333333333
BONES,-16.17871388888889,132.62806944444444
BONEY,-27.808333333333334,155.90833333333333
BOREE,-33.236666666666665,151.04333333333332
BOWLY,-20.72,145.88833333333332
BOXER,-22.105,146.31333333333333
BOYDI,-18.795,132.52166666666668
BOYSY,-33.401666666666664,150.55
BRIGG,-31.75,114.90833333333333
BROOK,-32.21333333333333,116.455
BUDGI,-23.77166666666667,150.505
BULGA,-32.788333333333334,150.96333333333334
BULLA,-37.07833333333333,146.34666666666666
BULOK,-17.596666666666668,144.37666666666667
BUNGO,-34.891666666666666,149.855
BUNGY,-37.485,138.33
BUNNY,-27.546666666666667,127.20333333333333
BURGU,-32.97,118.655
BUTPA,-8.546666666666667,129.665
CABIG,-33.84996666666667,145.47090277777778
CALAR,-29.0,136.83166666666668
CALIG,-31.033333333333335,116.445
CAMEL,-29.201666666666668,118.52666666666667
CANDY,-36.425,135.0
CANTY,-36.806666666666665,144.65166666666667
CAPET,-31.68,139.355
CAPRI,-22.266666666666666,150.19
CAR33,-16.56012777777778,145.53758888888888
CARBA,-16.473333333333333,144.96833333333333
CARBY,-19.84,145.29666666666665
CARTS,-29.688333333333333,136.24
CATEY,-19.473333333333333,146.05833333333334
CAWLY,-34.32666666666667,151.95833333333334
CB002,-35.314775,149.19583333333333
CB005,-35.16956111111111,149.23746666666668
CB007,-35.39823888888889,149.19583333333333
CB008,-35.414925,149.19431944444443
CB009,-35.431622222222224,149.19583333333333
CB010,-35.114447222222225,149.20292777777777
CB012,-35.481700000000004,149.19583333333333
CB014,-35.17627777777778,149.25826388888888
CB029,-35.15524722222222,149.32927222222222
CB031,-35.14791944444445,149.0734388888889
CB035,-35.22296111111111,149.19831944444445
CB049,-35.17588888888889,149.4271527777778
CB052,-35.47392222222222,149.2633277777778
CB055,-35.3732,149.19583333333333
CB058,-35.378191666666666,149.19435555555555
CB060,-35.47974444444444,149.2299138888889
CB062,-35.23518888888889,149.39154166666665
CB120,-35.48170277777778,149.1942527777778
CB129,-35.49671388888889,149.1942388888889
CB148,-35.52843611111111,149.19420833333334
CB159,-35.49585833333333,149.23736944444445
CB168,-35.531775,149.19583333333333
CB200,-35.11929722222222,149.24501666666666
CB260,-35.27538888888889,148.9922611111111
CB338,-35.11687777777778,149.16053055555557
CB600,-35.381613888888886,149.19583333333333
CB700,-35.16453055555556,149.20080277777777
CELIA,-24.371666666666666,127.32333333333334
CESCI,-19.371666666666666,124.86
CHAMP,-30.216666666666665,150.235
CHARL,-27.876666666666665,117.535
CHEWY,-28.968333333333334,155.315
CIN04,-17.611508333333333,123.9173
CIN06,-17.622925,123.95005555555555
CIN09,-17.53704722222222,123.70415277777778
CIN10,-17.64581388888889,124.01578055555555
CIN15,-17.736441666666668,123.9337
CIN17,-17.54848888888889,123.73684722222222
CIN20,-17.67728888888889,123.9998
CIN21,-17.744788888888888,123.74980833333333
CIN25,-17.645444444444443,123.66895833333334
CIN27,-17.562886111111112,123.66151111111111
CIN30,-17.51555,123.71438333333333
CIN31,-17.491769444444444,123.73144166666667
CIN66,-17.525816666666667,124.01348888888889
CIN85,-17.57115,123.95475
CIN88,-17.525530555555555,123.67126111111111
CIN93,-17.597333333333335,123.95595833333333
CIN96,-17.61183888888889,124.02458055555556
CLAMY,-35.85333333333333,131.5
CLARK,-42.473333333333336,147.01166666666666
CLEOS,-27.973333333333333,152.29333333333332
CLYDE,-28.5,135.835
COBEL,-35.16833333333334,128.0
COBES,-23.281666666666666,149.83
COBRA,-24.11,116.79666666666667
COBRN,-17.1685,145.641
COCKA,-23.041666666666668,149.64166666666668
CODIE,-16.545,145.59833333333333
COLDS,-37.711666666666666,145.35
COLLA,-12.345,134.41166666666666
COOBI,-23.588333333333335,120.29
COODA,-27.183333333333334,153.66166666666666
COOKY,-34.803333333333335,138.77333333333334
COOLA,-25.3,150.36833333333334
COOPS,-41.465,157.83333333333334
COORS,-29.0,145.55166666666668
COPDI,-29.555,117.94166666666666
CORAL,-26.548333333333332,153.32
CORKY,-32.498333333333335,150.91166666666666
CORNS,-35.05833333333333,138.37333333333333
CORRS,-37.925,145.61333333333334
CRAIG,-12.691666666666666,131.71333333333334
CRANE,-28.206666666666667,150.555
CRAVN,-32.126666666666665,151.76666666666668
CRENA,-37.27333333333333,140.08166666666668
CRICK,-34.49166666666667,125.0
CS002,-16.816780555555557,145.748125
CS006,-16.75033888888889,145.7565888888889
CS008,-16.717116666666666,145.76081944444445
CS011,-16.66728611111111,145.7671638888889
CS012,-16.723411111111112,145.78912222222223
CS013,-16.63257777777778,145.7517638888889
CS015,-16.607516666666665,145.81126944444443
CS018,-16.728655555555555,145.80260555555554
CS077,-16.73385,145.68595555555555
CS100,-16.69835,145.67041944444443
CS322,-16.63478611111111,145.60978333333333
CS329,-16.618905555555557,145.64215833333333
CS338,-16.607516666666665,145.67650833333335
CS352,-16.599013888888887,145.73934444444444
CS355,-16.599127777777777,145.752975
CSNB,-16.846944444444446,145.73555555555555
CULAB,-27.701666666666668,116.12666666666667
CULIN,-34.74,149.39
CURLY,-11.243333333333334,128.65666666666667
DADAR,-2.0,79.45166666666667
DALWU,-30.245,116.77833333333334
DANKS,-36.431666666666665,142.86833333333334
DANVA,-33.35666666666667,131.5
DAOVO,-2.8716666666666666,88.595
DAR02,-12.405066666666666,130.85035555555555
DAR06,-12.387716666666666,130.78455555555556
DAR11,-12.494408333333332,131.05170555555554
DAR12,-12.361666666666666,130.68587222222223
DAR19,-12.554072222222223,131.09518055555554
DAR20,-12.428408333333334,130.91387777777777
DAR51,-12.491222222222222,131.1263111111111
DAR60,-12.45775,130.975125
DAR72,-12.383011111111111,130.62970555555555
DAR88,-12.31551111111111,130.64816944444445
DAYBO,-27.121666666666666,152.885
DECEM,-16.768333333333334,112.20166666666667
DEENO,-21.585,131.215
DERWY,-34.98,138.12166666666667
DESET,-24.845,134.77
DIGLA,-21.305,133.19166666666666
DIPSO,-33.906666666666666,152.07166666666666
DN029,-12.360152777777778,130.785825
DN031,-12.440119444444445,130.9548027777778
DN241,-12.511058333333333,130.72233888888888
DN256,-12.461313888888888,130.70544166666667
DN274,-12.398497222222222,130.70325833333334
DN285,-12.360905555555556,130.7117638888889
DN297,-12.32255,130.72916666666666
DN300,-12.348138888888888,130.793175
DN320,-12.26258611111111,130.78317777777778
DN800,-12.379422222222223,130.77729166666666
DOLIB,-20.556666666666665,144.41666666666666
DOMOM,-16.436666666666667,115.13333333333334
DONDI,-19.816666666666666,121.34833333333333
DONNA,-33.82333333333333,155.18166666666667
DONNO,-27.651666666666667,152.54833333333335
DONYA,-11.515,129.90666666666667
DOPUK,-18.243333333333332,127.41833333333334
DOSAM,-16.903333333333332,133.2
DOSEL,-37.165,145.395
DOTAP,-20.155,136.72333333333333
DOTOD,-15.24,149.07
DOTOP,-32.105,119.08
DOUGY,-29.18166666666667,151.18666666666667
DOXIE,-31.138333333333332,148.10166666666666
DRADO,-12.665,130.86666666666667
DRE31,-16.501891666666666,145.68674444444446
DREWS,-16.116666666666667,145.32666666666665
DRINA,-35.42,139.235
DRUMO,-29.505,157.61166666666668
DUBAG,-15.546666666666667,85.0
DUKES,-36.08,140.25
DUKUB,-12.0,149.32666666666665
DUMAV,-13.94,135.595
DUNDA,-32.715,121.86666666666666
EAGLE,-25.745,151.49166666666667
EBONY,-36.181666666666665,147.07
ECKHO,-39.65833333333333,150.51833333333335
ECKKS,-35.28,149.195
EGATU,-12.0,116.09333333333333
EGAVI,-18.49,109.04
EGORE,-15.363333333333333,136.66833333333332
EKKEY,-32.46333333333333,145.28333333333333
EKOKU,-16.3,146.89833333333334
ELBIS,-9.088333333333333,127.72833333333334
ELENI,-27.71,152.495
ELLOW,-24.953333333333333,134.60833333333332
EMVAS,-11.47,100.495
ENDOR,-35.28666666666667,149.34666666666666
ENPIT,-23.366666666666667,126.48833333333333
ENTRA,-33.583333333333336,151.69666666666666
EPGUP,-10.65,99.55166666666666
ESKEL,-36.52333333333333,163.0
ESLNB,-38.11138888888889,147.15944444444443
EURAD,-27.626666666666665,114.59166666666667
EVONN,-34.195,152.03166666666667
EXROM,-39.406666666666666,146.09
EZDON,-25.0,120.49833333333333
FAGIN,-33.885,131.5
FALLS,-35.47666666666667,148.89166666666668
FARRA,-37.795,146.09166666666667
FILET,-33.54833333333333,128.0
FISHY,-17.685,145.80333333333334
FLAKE,-33.181666666666665,125.0
FLIKI,-40.0,146.39333333333335
FONLO,-43.48166666666667,157.775
FORMA,-20.078333333333333,145.43166666666667
FOXLO,-35.55166666666667,149.31333333333333
FRANZ,-35.815,143.875
FRAZA,-33.435,135.875
FREDO,-33.04666666666667,151.84666666666666
FREDY,-19.395,146.56833333333333
GAANY,-30.438333333333333,137.29833333333335
GAFER,-22.296666666666667,136.635
GAMBL,-28.875,153.04833333333335
GATER,-28.448333333333334,155.685
GAZEL,-33.24666666666667,150.67166666666665
GEESE,-24.06,151.00666666666666
GEMAC,-38.223333333333336,150.325
GEORG,-35.06166666666667,149.50333333333333
GEROS,-35.01833333333333,154.99833333333333
GIBIL,-35.56333333333333,149.21166666666667
GILES,-35.005,137.79833333333335
GILLY,-40.37833333333333,156.77833333333334
GIZMO,-32.28666666666667,149.07
GODIP,-12.003333333333334,144.12833333333333
GOKEN,-30.198333333333334,140.96666666666667
GOLOM,-32.74333333333333,152.12333333333333
GOOMA,-33.16,155.05
GOONY,-35.065,149.20666666666668
GOOTA,-22.026666666666667,118.32166666666667
GORDN,-18.363333333333333,121.95
GORDO,-32.545,154.91833333333332
GOVER,-33.91,152.64333333333335
GRABL,-32.336666666666666,118.60666666666667
GRACY,-37.346666666666664,141.57833333333335
GREAV,-28.316666666666666,153.63666666666666
GREGA,-17.005,132.75833333333333
GUDUG,-7.076666666666666,75.0
GUGAB,-29.685,139.83333333333334
GUGON,-32.50333333333333,75.0
GUGUK,-14.941666666666666,138.87666666666667
GUKON,-22.94,121.515
GULOP,-15.82,141.92333333333335
GULUM,-23.22,128.46333333333334
GUNAM,-14.7,125.20333333333333
GUPOX,-16.748333333333335,80.0
GURAK,-30.865,115.64833333333333
GUTEV,-8.073333333333334,131.32666666666665
GUVNA,-23.033333333333335,118.69
GUXIB,-23.635,159.51333333333332
HAIGH,-31.8,116.00666666666666
HALEM,-26.131666666666668,117.54
HAMTN,-32.36333333333334,117.65666666666667
HARDD,-27.77,152.80666666666667
HAWKE,-26.48,151.92833333333334
HAWKY,-34.575,137.85333333333332
HB005,-42.905,147.60823055555556
HB007,-42.928133333333335,147.6409
HB012,-42.65793333333333,147.6149111111111
HB088,-42.88840833333333,147.79278055555557
HB102,-42.89819444444444,147.66932777777777
HB109,-42.910605555555556,147.6598111111111
HB110,-42.95876944444444,147.75246944444444
HECTO,-33.005,120.515
HELLI,-13.243333333333334,129.82666666666665
HERMA,-24.013333333333332,132.81333333333333
HEWIT,-42.5,150.925
HINDS,-30.795,116.53833333333333
HINDY,-36.166666666666664,142.08527777777778
HITCH,-33.71,125.0
HOBBO,-12.0,153.15833333333333
HOLLA,-34.11666666666667,128.0
HONEY,-35.598333333333336,149.06333333333333
HONGI,-21.5,131.35666666666665
HOOKS,-34.35,151.13333333333333
HOWLY,-34.766666666666666,147.61
HUSKY,-34.495,131.5
HYDRA,-34.77166666666667,135.0
IBABI,-33.63166666666667,141.015
IBUNA,-27.058333333333334,152.475
IDANU,-26.683333333333334,135.73
IDELU,-11.596666666666666,136.36333333333334
IDEVI,-6.216666666666667,83.315
IDODA,-29.446666666666665,145.03666666666666
IDOKU,-18.258333333333333,111.11333333333333
IDOTO,-11.518333333333333,126.64666666666666
IFFEY,-31.96,154.35833333333332
IGOPO,-11.945,134.11833333333334
IKASA,-20.0,103.48666666666666
IKODA,-16.623333333333335,157.44833333333332
IKUMA,-10.43,127.135
INGMA,-36.1,160.03
INOKE,-32.03333333333333,151.325
ISKIM,-29.515,151.66333333333333
ISLAV,-32.86,132.34666666666666
ISMOR,-28.503333333333334,131.19666666666666
ISPID,-14.181666666666667,151.17833333333334
ISRAN,-11.716666666666667,106.55166666666666
ISTEM,-24.598333333333333,160.38333333333333
ITIDE,-26.735,153.49
IVPEM,-32.526666666666664,128.0
JABAL,-21.941666666666666,115.575
JACKI,-12.146666666666667,129.57333333333332
JAMOR,-35.56527777777778,142.78805555555556
JANNA,-27.741666666666667,116.43333333333334
JANUS,-12.851666666666667,132.19833333333332
JATAR,-16.445,125.47333333333333
JEMMA,-19.82,147.19166666666666
JOKER,-31.416666666666668,151.86333333333334
JORDY,-32.391666666666666,154.68666666666667
JUBOB,-12.518333333333333,131.115
JUGGL,-20.916666666666668,125.65833333333333
JULIE,-11.796666666666667,129.70333333333335
JULIM,-31.416666666666668,116.29333333333334
JULUP,-13.553333333333333,130.17333333333335
JUMPA,-35.1,159.195
KABEK,-33.388333333333335,139.41166666666666
KABTA,-5.908333333333333,79.0
KACEY,-35.443333333333335,146.89166666666668
KADAP,-2.0,84.16
KADEM,-17.815,75.0
KADUN,-22.35,121.85166666666667
KADUV,-32.026666666666664,145.31833333333333
KALAM,-31.961666666666666,116.15333333333334
KALSA,-23.443333333333335,119.145
KALUG,-25.9,136.725
KAMUN,-3.505,80.89166666666667
KAPSO,-12.0,146.71666666666667
KARAB,-31.555,116.87833333333333
KARAG,-29.0,144.595
KAREN,-42.08833333333333,147.665
KATAR,-26.395,129.07333333333332
KATCM,-31.155,117.45333333333333
KATEB,-27.266666666666666,153.79166666666666
KATHI,-32.99,119.57
KAYTU,-38.901666666666664,143.0
KEATS,-35.54333333333334,148.88
KEBAB,-33.27166666666667,154.49333333333334
KEEFO,-34.96666666666667,138.28
KEELS,-31.476666666666667,113.37833333333333
KELLY,-35.696666666666665,148.855
KELPI,-22.57,151.58666666666667
KELTA,-34.995,138.33
KEPPA,-36.79666666666667,143.975
KERRI,-28.153333333333332,153.62166666666667
KIMMI,-14.646666666666667,144.50166666666667
KINTO,-30.613333333333333,120.90833333333333
KIRAN,-19.475,146.80166666666668
KLAVA,-34.196666666666665,138.50666666666666
KON37,-16.608105555555557,145.55658333333332
KONDA,-16.631666666666668,144.90666666666667
KONIL,-29.993333333333332,118.21
KOOKA,-15.713333333333333,143.42666666666668
KROWS,-36.83166666666666,137.26166666666666
LAK32,-16.512875,145.6326138888889
LAKED,-16.23,145.16166666666666
LAKMO,-29.82,117.63833333333334
LAMEK,-18.155,150.04333333333332
LAMOB,-12.0,108.88333333333334
LAMSI,-28.441111111111113,154.1937638888889
LANOP,-27.315,126.89833333333333
LANYO,-35.505,149.02
LARAB,-12.068333333333333,129.19333333333333
LARDO,-12.513333333333334,131.17333333333335
LAROS,-29.481666666666666,154.66166666666666
LATEP,-6.171666666666667,75.0
LATOX,-13.448333333333334,109.38833333333334
LATUV,-20.055,121.67333333333333
LAVER,-37.82,144.72833333333332
LAXAR,-14.795,116.32
LEESA,-22.133333333333333,130.30833333333334
LEMIB,-26.013333333333332,161.82833333333335
LEPAR,-39.236666666666665,150.46
LESON,-35.053333333333335,131.5
LIDIT,-9.3,142.33333333333334
LILLY,-15.334305555555556,116.36475555555556
LINBO,-19.251666666666665,147.455
LISZT,-23.666666666666668,133.64333333333335
LIZZI,-37.45,145.63833333333332
LM005,-22.151155555555555,114.08946666666667
LM007,-22.349719444444446,114.07013611111111
LM008,-22.101016666666666,114.08664722222223
LM012,-22.035380555555555,114.12041944444445
LM021,-22.047208333333334,114.17137222222222
LM028,-22.102222222222224,114.11415
LM029,-22.117683333333332,114.16378333333333
LM047,-22.03902777777778,114.04570833333334
LM050,-22.31686388888889,114.07700555555556
LM161,-22.39295277777778,114.15275833333334
LM169,-22.349719444444446,114.11819722222222
LM176,-22.40167222222222,114.10672222222222
LM180,-22.351875,114.09416666666667
LM191,-22.399002777777778,114.059825
LM206,-22.385125,114.01527777777778
LM221,-22.36098611111111,113.97612222222222
LM333,-22.055747222222223,113.99635555555555
LM357,-22.03416111111111,114.08289166666667
LOAFA,-25.035,152.11
LOCKA,-16.023333333333333,145.60833333333332
LODGE,-34.65,128.0
LOKET,-30.253333333333334,156.64833333333334
LOLLY,-40.145,150.585
LONLY,-35.18666666666667,135.0
LUCAS,-26.691666666666666,153.69
LUCRE,-34.221666666666664,125.0
LUNGA,-35.14333333333333,138.43833333333333
MACEL,-42.98833333333333,147.72
MADOG,-23.826666666666668,116.37833333333333
MAGDA,-34.375,155.16333333333333
MAGRA,-22.426666666666666,149.375
MAJOR,-35.22,148.93333333333334
MAKKA,-34.431666666666665,149.335
MAKRL,-38.498333333333335,148.425
MALBI,-14.5,108.45166666666667
MALLY,-31.781666666666666,125.0
MAMAL,-9.63,126.45
MANDA,-35.29333333333334,148.585
MANIG,-30.855,117.165
MARGO,-34.413333333333334,138.03833333333333
MARIT,-26.013333333333332,128.46
MARLN,-34.035,152.06666666666666
MARTO,-33.32,151.74166666666667
MAVER,-13.183333333333334,131.435
MAXEM,-34.635,142.555
MAYOP,-34.27,154.165
MEHAN,-31.941666666666666,151.16333333333333
MEKAD,-13.396666666666667,152.7
MELBO,-17.97,117.87166666666667
MELOW,-27.328333333333333,153.17666666666668
MEMIG,-14.371666666666666,145.33833333333334
MEMOS,-14.985,144.00833333333333
MEMUP,-33.75333333333333,120.875
MENZI,-35.528333333333336,149.195
MEPAB,-21.38,163.0
MERIB,-30.066666666666666,112.75166666666667
MERME,-21.295,112.255
METAB,-15.025,111.385
METUM,-14.136666666666667,115.14166666666667
MICEY,-14.84,132.80666666666667
MIGAX,-16.028333333333332,134.445
MIKEL,-38.595,157.535
MILIV,-16.551666666666666,133.90166666666667
MILLA,-38.215,145.89333333333335
MISCH,-37.763333333333335,144.67666666666668
MISIT,-32.596666666666664,149.635
MISLY,-30.828333333333333,155.89166666666668
MITCH,-28.938333333333333,150.98166666666665
MITTS,-24.65,137.67166666666665
MK003,-21.134611111111113,149.15284166666666
MK005,-21.108977777777778,149.12993055555555
MK006,-21.260825,149.23912777777778
MK007,-21.083341666666666,149.10702777777777
MK010,-21.044880555555554,149.07268888888888
MK118,-21.241847222222223,149.2882611111111
MK129,-21.258666666666667,149.27240833333335
MK143,-21.319330555555556,149.27376666666666
MK326,-21.067808333333332,149.1325361111111
MK335,-21.06107777777778,149.15075277777777
MK700,-21.27545277777778,149.24778333333333
ML001,-37.66203333333333,144.86279166666668
ML006,-37.658183333333334,144.7159472222222
ML007,-37.67415277777778,144.9879
ML008,-37.65755,144.67395
ML015,-37.65955833333334,144.81044444444444
ML050,-37.57890555555556,145.02544444444445
ML054,-37.83808055555556,144.89793333333333
ML060,-37.67214444444444,144.96704444444444
ML062,-37.62574444444444,144.98247777777777
ML065,-37.76838333333333,144.8491
ML072,-37.64566666666666,144.98784444444445
ML074,-37.64526111111111,145.0511361111111
ML086,-37.68016388888889,145.05046666666667
ML098,-37.714194444444445,145.04067777777777
ML099,-37.68501111111111,144.84359444444445
ML124,-37.777975,144.99069444444444
ML177,-37.84175555555556,144.80973333333333
ML248,-37.691658333333336,144.63582222222223
ML272,-37.62228611111111,144.6375361111111
ML570,-37.562536111111115,144.81682777777777
ML600,-37.561886111111114,144.8168777777778
ML700,-37.671077777777775,144.98821388888888
ML800,-37.52888333333333,144.81043333333332
ML801,-37.52461944444445,144.80941944444444
MOCHO,-18.72833333333333,125.56666666666666
MOLGA,-34.038333333333334,120.015
MOMAN,-12.163333333333334,130.9
MONIC,-17.011666666666667,132.05833333333334
MOOLO,-26.825,153.36333333333334
MOOVI,-27.913333333333334,153.295
MOPET,-23.381666666666668,118.86666666666666
MORGA,-18.28,145.64333333333335
MORRO,-26.865,150.39333333333335
MUDDL,-27.371666666666666,153.34666666666666
MULET,-26.431666666666665,155.73333333333332
MULOO,-27.636666666666667,152.435
MUNEL,-14.471666666666668,144.92
MUNNI,-21.21,116.86666666666666
MURCH,-26.761666666666667,118.98
MURPH,-22.48,149.58333333333334
MUSEY,-17.215,144.96166666666667
MUTHA,-34.10333333333333,137.02166666666668
MUTMI,-4.133333333333334,92.97833333333334
NABBA,-36.705,147.04166666666666
NALAR,-31.31,120.455
NANDY,-30.786666666666665,149.12833333333333
NAOMI,-37.655,144.63166666666666
NASTI,-22.41861111111111,125.71527777777777
NATAL,-11.451666666666666,129.97
NATLI,-31.008333333333333,157.39666666666668
NATYA,-34.96893611111111,143.23265
NAYAR,-10.616666666666667,130.32333333333332
NEILS,-37.82666666666667,144.85
NELLY,-19.0,146.81666666666666
NERTI,-13.45,133.24166666666667
NETTY,-28.73,155.51
NEVIS,-37.196666666666665,143.27166666666668
NEWMO,-32.025,143.51666666666668
NICON,-34.89333333333333,138.24666666666667
NIKKY,-19.05,146.92333333333335
NIKOM,-15.738333333333333,124.72333333333333
NINEP,-34.001666666666665,137.88
NINOB,-26.0,106.485
NITTA,-21.71,149.06666666666666
NIVED,-18.551666666666666,138.05833333333334
NOBAR,-33.78666666666667,151.74
NODAB,-13.36,106.63833333333334
NODOK,-12.186666666666667,155.0
NOLAN,-40.65833333333333,147.19833333333332
NONAX,-23.52166666666667,123.86833333333334
NONET,-25.34,141.14833333333334
NONIR,-15.675,148.18666666666667
NONIX,-37.07666666666667,145.24666666666667
NONOG,-25.291666666666668,112.46
NONUP,-35.43,148.29833333333335
NOPAG,-10.865,135.875
NORMA,-17.663333333333334,145.53833333333333
NOVEM,-13.53,131.675
NUNLA,-25.753333333333334,111.015
NWA01,-34.95033333333333,150.5535638888889
NWA02,-34.983805555555556,150.5034861111111
NWA03,-34.89672222222222,150.74270277777777
NWA05,-35.017558333333334,150.47365555555555
NWA06,-34.95173055555556,150.654925
NWA07,-34.86737222222222,150.63354722222223
NWA11,-35.08503888888889,150.41392222222223
NWA12,-34.953297222222226,150.77656666666667
NWA15,-34.87231944444444,150.82226111111112
NWA20,-35.15249166666667,150.3540888888889
NWA32,-34.807925,150.70595
NWA34,-34.77278888888889,150.74788055555555
NWA40,-34.79951111111111,150.7715388888889
NWA46,-34.859005555555555,150.70314444444443
NWA50,-34.95679722222222,150.52733333333333
NWA51,-34.93233611111111,150.55479166666666
NWA60,-34.89830555555555,150.72599722222222
NWA61,-34.865788888888886,150.63645833333334
NWA70,-34.91482222222222,150.83433055555557
NWA79,-34.954033333333335,150.8373861111111
NWA80,-34.886775,150.78138333333334
NWA81,-34.82250833333333,150.74636388888888
NWA83,-34.822316666666666,150.69335833333332
NWA84,-34.868919444444444,150.6353638888889
NWA86,-34.836397222222224,150.67177222222222
NWA96,-34.77328333333333,150.7435638888889
NWA97,-34.9267,150.5632
NWA98,-34.80826944444444,150.7050361111111
NWA99,-34.831916666666665,150.67645277777777
NWANB,-34.95120555555555,150.52978611111112
OCTOB,-11.146666666666667,130.49333333333334
OJJAY,-32.47833333333333,137.30333333333334
OKAPI,-31.865,148.65333333333334
OLLEE,-31.791666666666668,136.30166666666668
OMUBI,-23.638333333333332,146.06833333333333
ONALA,-15.186666666666667,117.02833333333334
ONELU,-22.865,144.77166666666668
ONGLO,-35.458333333333336,149.285
ONIVI,-28.985,147.23
ONOXA,-12.0,120.87916666666666
ONSLO,-21.666666666666668,115.11166666666666
OPABA,-8.858333333333333,138.06666666666666
OPALL,-26.578333333333333,118.45166666666667
OPTIC,-34.401666666666664,151.88833333333332
ORBUN,-34.196666666666665,138.72166666666666
OSOTO,-18.121666666666666,116.59833333333333
OSTIN,-38.62,160.35166666666666
OSVOL,-20.251666666666665,122.04833333333333
OWENS,-37.24666666666667,144.49166666666667
PADRY,-23.331666666666667,115.65666666666667
PALTI,-27.85333333333333,116.70333333333333
PANDU,-11.635,78.44333333333333
PANKI,-34.97666666666667,140.35
PARKA,-34.833333333333336,138.46333333333334
PD004,-20.244922222222222,118.63514444444445
PD005,-20.315155555555556,118.56456944444444
PD008,-20.471330555555557,118.725
PD030,-20.340427777777776,118.58784722222222
PD053,-20.299633333333333,118.73753888888889
PD098,-20.41321388888889,118.66109722222222
PD106,-20.417433333333335,118.758625
PD119,-20.44525,118.74582222222222
PD133,-20.44808611111111,118.69943055555555
PD147,-20.49188611111111,118.69809166666667
PD148,-20.464416666666665,118.67766666666667
PD159,-20.47271111111111,118.65923055555555
PD160,-20.504166666666666,118.67139166666666
PD258,-20.403813888888887,118.48343888888888
PD272,-20.371266666666667,118.48096111111111
PD304,-20.301480555555557,118.5065
PD318,-20.27723888888889,118.52966666666667
PD330,-20.29053888888889,118.57120277777778
PD332,-20.258997222222224,118.55835277777778
PD341,-20.282872222222224,118.58990555555556
PEA01,-31.657380555555555,116.01416666666667
PEA04,-31.555305555555556,116.125375
PEA05,-31.773333333333333,116.02805555555555
PEA06,-31.52531111111111,115.98975
PEA07,-31.698144444444445,115.88337222222222
PEA08,-31.823386111111112,116.035625
PEA09,-31.531644444444446,115.96004444444445
PEA10,-31.524583333333332,116.038625
PEA12,-31.682991666666666,115.996325
PEA17,-31.82318888888889,115.99575277777778
PEA18,-31.690602777777777,116.01722222222222
PEA20,-31.689061111111112,115.98238888888889
PEA22,-31.70475,115.97100555555555
PEA25,-31.632619444444444,116.00958333333334
PEA26,-31.705047222222223,115.84511666666667
PEA27,-31.657722222222223,115.82271944444445
PEA29,-31.622105555555557,115.83145277777778
PEA36,-31.50685,116.01041388888889
PEA37,-31.55215,116.120475
PEA38,-31.619794444444445,116.06314444444445
PEA40,-31.607855555555556,116.00500277777778
PEA47,-31.646175,116.03907222222222
PEA56,-31.64089166666667,116.010975
PEA58,-31.5776,116.00484166666666
PEA60,-31.708494444444444,115.8259861111111
PEA70,-31.541013888888887,116.00076666666666
PEA72,-31.615838888888888,116.00910277777778
PEA74,-31.491130555555557,115.99521666666666
PEA76,-31.707269444444446,116.01926944444445
PEA80,-31.53540277777778,116.08584722222223
PEA81,-31.591347222222222,116.00195
PEA82,-31.52382777777778,116.02947222222222
PEA83,-31.5344,115.95143055555556
PEA84,-31.774172222222223,116.01722222222222
PEA85,-31.82045,115.97759166666667
PEA86,-31.82431111111111,116.01722222222222
PEA88,-31.66036666666667,116.02870833333333
PEA89,-31.646844444444444,116.04019166666667
PEA90,-31.52428611111111,115.99886666666667
PEA91,-31.523552777777777,116.01109444444444
PEA92,-31.627294444444445,115.85002222222222
PEA94,-31.790883333333333,116.01722222222222
PEA95,-31.786347222222222,115.97946666666667
PEA96,-31.740744444444445,116.01722222222222
PEA97,-31.710166666666666,115.84648888888889
PEA98,-31.742083333333333,115.86038611111111
PEA99,-31.70422222222222,115.94754444444445
PEANB,-31.654444444444444,116.0188888888889
PEBTA,-10.963333333333333,140.175
PECAN,-31.011666666666667,148.00666666666666
PECOB,-43.16166666666667,150.93666666666667
PENAR,-20.355,141.23166666666665
PENNY,-19.618333333333332,145.21833333333333
PESKY,-17.07,146.44166666666666
PEWEE,-17.931666666666665,146.50166666666667
PH001,-31.96968888888889,115.95406111111112
PH002,-31.91358888888889,115.97256944444445
PH003,-31.85846111111111,115.99083055555556
PH004,-31.880019444444443,115.98431944444444
PH006,-32.043752777777776,115.93872222222222
PH008,-31.816894444444443,116.00367222222222
PH009,-31.7957,115.98063055555555
PH011,-31.856383333333333,116.12511944444445
PH019,-32.07666944444444,115.93189722222222
PH022,-31.80363611111111,116.01940833333333
PH030,-31.797397222222223,116.05104166666666
PH032,-31.81470277777778,116.04724722222223
PH035,-31.81881111111111,116.05511388888888
PH049,-31.83093611111111,116.10234166666666
PH056,-31.846663888888887,116.11757222222222
PH057,-31.856505555555554,116.10174722222222
PH060,-31.849205555555557,115.99368888888888
PH061,-31.891602777777777,116.05731944444445
PH062,-31.8697,116.11181666666667
PH065,-31.842908333333334,116.00269444444444
PH073,-31.890452777777778,116.14438611111112
PH097,-32.06303333333334,115.88545555555555
PH098,-32.06806111111111,115.89781666666667
PH099,-31.819347222222223,116.012725
PH135,-32.04745,116.0882388888889
PH179,-32.095108333333336,115.96840833333333
PH192,-32.09312777777778,115.92848333333333
PH196,-31.794947222222223,115.97145277777778
PH205,-32.083441666666666,115.8901361111111
PH230,-32.04558055555555,115.82792777777777
PH335,-31.81095,115.87919444444445
PH340,-31.805516666666666,115.89318333333334
PIBED,-5.336666666666667,90.73333333333333
PILBA,-21.265,118.12166666666667
PILLO,-13.47,139.06166666666667
PINAV,-28.881666666666668,129.0
PIPOV,-4.368333333333333,92.54166666666667
PIPPA,-14.681666666666667,150.19
PIXIE,-17.188333333333333,146.13
PLE04,-37.73137222222222,144.996225
PLUGA,-35.60666666666667,154.68833333333333
POKIP,-29.038333333333334,114.02166666666666
POKOS,-20.575,122.675
POLEV,-26.92,138.17
POLLI,-35.736666666666665,148.59833333333333
POLSO,-35.78,145.69666666666666
POLUM,-20.0,98.54666666666667
POODL,-27.52,153.33833333333334
POONA,-21.496666666666666,149.28333333333333
POPET,-35.285,149.31833333333333
POROR,-13.58,98.98
POSOX,-10.225,143.92666666666668
POTIP,-21.693333333333335,125.13333333333334
PROBO,-22.008333333333333,149.95166666666665
PUDUR,-24.398333333333333,146.49
PUGEL,-19.826666666666668,156.225
PUGUT,-27.716666666666665,131.88666666666666
PULOL,-24.455,136.76166666666666
PUPEB,-14.388333333333334,146.24333333333334
PUPIT,-12.0,115.15
R1251,-35.3148,149.1944472222222
R1653,-12.419233333333333,130.89443888888889
R1654,-38.02723888888889,144.469425
R1655,-16.865841666666668,145.74356666666668
R1656,-27.40280277777778,153.11821666666665
R1657,-27.374672222222223,153.13430555555556
R1658,-33.60727222222222,150.79321944444445
R1660,-33.94375,151.16363333333334
R1661,-33.951655555555554,151.18884722222222
R1662,-33.93010833333334,151.1717972222222
R1663,-33.964275,151.1806611111111
R1664,-33.97076111111111,151.193825
R1665,-19.258305555555555,146.76472222222222
R1667,-23.80102777777778,133.89334166666666
R1668,-34.94063888888889,138.54325833333334
R1670,-31.928594444444446,115.96846388888889
R1671,-31.930908333333335,115.97879166666667
R1672,-37.653191666666665,144.8349111111111
R1673,-37.66226666666667,144.8480888888889
R1674,-27.621713888888888,152.70526666666666
R1676,-37.7308,144.91466111111112
R1677,-34.93567222222222,150.552125
R1678,-31.662411111111112,116.01371388888889
R1679,-31.684266666666666,116.01662222222222
R1680,-14.512197222222222,132.36885833333332
RAFFY,-21.255555555555556,119.59555555555555
RAFTA,-27.408333333333335,157.95
RAGER,-12.398333333333333,132.26833333333335
RAINY,-16.7,145.535
RAMON,-27.231666666666666,153.0
RANGR,-27.836666666666666,117.19833333333334
RASKY,-20.846666666666668,123.20666666666666
RAZZI,-35.055,149.96
REEFE,-11.0,143.25833333333333
REMBO,-24.456666666666667,117.31333333333333
RERAB,-43.0,75.0
RERON,-35.068333333333335,125.0
RETEP,-28.498333333333335,135.01166666666666
REVOP,-30.553333333333335,116.63166666666666
RIC05,-33.64151944444444,150.93261944444444
RIC06,-33.58139444444444,150.6832
RIC07,-33.537866666666666,150.9111388888889
RIC08,-33.57270277777778,150.64465
RIC09,-33.52220277777778,150.94678611111112
RIC10,-33.65609722222222,150.9899638888889
RIC11,-33.423625,150.80271944444445
RIC15,-33.600905555555556,150.7699638888889
RIC18,-33.608758333333334,150.79760833333333
RIC27,-33.559641666666664,150.58683888888888
RIC28,-33.529558333333334,150.5999972222222
RIC29,-33.496658333333336,150.62369444444445
RIC35,-33.592238888888886,150.73139722222223
RIC44,-33.63166666666667,150.885
RIC63,-33.61273888888889,150.97838333333334
RIC91,-33.568352777777775,150.62537777777777
RIC95,-33.61645277777778,150.8261388888889
RICNB,-33.59693055555555,150.77639722222222
RIDLE,-35.755,128.0
RIKAB,-34.733333333333334,137.65
RISMI,-7.131666666666667,87.335
RIVET,-34.28,150.43
RK004,-23.43826388888889,150.51223055555556
RK005,-23.301305555555555,150.45130277777778
RK006,-23.466002777777778,150.53252777777777
RK010,-23.219833333333334,150.4309638888889
RK060,-23.28501111111111,150.44723333333334
RK070,-23.479872222222223,150.54267777777778
RK114,-23.446538888888888,150.57814166666665
RK125,-23.464119444444446,150.56300277777777
RK137,-23.521472222222222,150.57314444444444
RK315,-23.288058333333332,150.39718333333334
RK326,-23.276677777777778,150.41811666666666
RK338,-23.268716666666666,150.44316388888888
ROBET,-35.756388888888885,142.51611111111112
ROGAS,-34.83166666666666,136.0
ROMPA,-36.45,131.5
ROOKI,-10.946666666666667,139.205
ROOKS,-25.466666666666665,129.69333333333333
ROONY,-28.525,153.60333333333332
ROWAN,-26.503333333333334,153.51166666666666
ROYAL,-35.46333333333333,149.16333333333333
RUFLE,-37.031666666666666,135.0
RUMIE,-36.33,147.72833333333332
RUNUT,-13.826666666666666,91.38
RUSAD,-30.82,133.67333333333335
RUSSO,-19.983333333333334,143.19
RUVAP,-18.221666666666668,138.88333333333333
SADEL,-25.04,134.38333333333333
SAFIR,-19.366666666666667,120.575
SAILS,-31.811666666666667,115.27166666666666
SAKEG,-8.171666666666667,85.335
SAKIG,-26.14666666666667,149.445
SAKTO,-18.995,116.67333333333333
SALIS,-34.76166666666667,138.62833333333333
SAPDA,-12.0,111.42666666666666
SAPED,-31.351666666666667,141.00666666666666
SARAH,-26.925,135.17
SARAK,-9.75,143.42166666666665
SARAP,-32.91833333333334,163.0
SARIK,-22.008333333333333,141.76333333333332
SARMO,-21.696666666666665,121.04
SARRE,-12.481666666666667,131.08333333333334
SATCO,-19.463333333333335,146.66833333333332
SATNA,-11.07,124.57
SAVER,-27.52,154.06
SCHEE,-22.985,128.86833333333334
SCOTI,-21.323333333333334,133.45833333333334
SCOTT,-27.868333333333332,153.8
SCRUB,-26.638333333333332,116.735
SCULN,-35.06,148.89
SEDAN,-34.568333333333335,139.30833333333334
SEEMO,-30.871666666666666,125.87166666666667
SETER,-24.715,154.26833333333335
SEVSI,-30.85,123.62666666666667
SHADY,-26.798333333333332,120.95833333333333
SHARK,-34.08166666666666,152.565
SHAZA,-33.66166666666667,152.015
SHEPP,-10.6,129.155
SHNAB,-27.413333333333334,152.60166666666666
SHUTL,-32.66166666666667,152.08333333333334
SIGUL,-34.99333333333333,138.27666666666667
SINNK,-27.211666666666666,153.22833333333332
SKIPA,-26.906666666666666,126.36833333333334
SLOOP,-35.5,135.0
SMIFF,-42.15833333333333,156.64666666666668
SMOKA,-26.875,152.63166666666666
SNAPA,-19.166666666666668,120.44333333333333
SOCAR,-13.221666666666668,133.33166666666668
SOPAT,-16.276666666666667,113.00833333333334
SORTI,-31.821666666666665,151.88
SORTU,-32.165,120.64833333333333
SOSIJ,-34.17166666666667,151.235
SPARO,-18.055,146.23166666666665
SPIDR,-37.805,142.315
SPOTA,-34.075,137.74333333333334
SPRAT,-26.04,155.50666666666666
SPRIG,-10.315,125.55833333333334
SRIEA,-33.605022222222225,150.98772777777776
SRIEB,-33.70073611111111,150.95234166666665
SRIEF,-33.63323333333334,150.893725
SRIEH,-33.491725,150.7983722222222
SRIEI,-33.652880555555555,150.97004444444445
SRIEM,-33.608608333333336,150.7983722222222
SRIWD,-33.61735,150.5152388888889
SRIWE,-33.52614722222222,150.48041388888888
SRIWF,-33.57062222222222,150.65176666666667
SRIWG,-33.46746944444445,150.57068333333333
SRIWH,-33.49775833333333,150.8842111111111
SRIWI,-33.55085833333333,150.5755611111111
SRIWM,-33.60028333333333,150.76610277777777
STAIR,-22.691666666666666,147.98166666666665
STEEL,-24.331666666666667,135.21
STILE,-33.19833333333333,121.84333333333333
STONE,-38.01,143.11333333333334
SUBUM,-37.81166666666667,135.0
SUGAB,-28.775,119.22
SULLY,-35.108333333333334,138.47166666666666
SUNKI,-38.31166666666667,75.0
SUNNY,-16.601666666666667,145.775
SURFF,-18.87,115.4
SUZAN,-34.13166666666667,151.235
SWALO,-17.786666666666665,146.82833333333335
SWIFT,-18.35333333333333,146.8
SY005,-34.02544722222222,151.1947861111111
SY006,-33.84988333333333,151.13585555555557
SY007,-34.05851388888889,151.200375
SY010,-34.12464444444444,151.21156666666667
SY012,-34.00064722222222,151.1905972222222
SY013,-33.742825,151.13154166666666
SY015,-33.933391666666665,151.20869166666665
SY020,-33.91181666666667,151.16583055555554
SY023,-33.97584444444445,151.1864111111111
SY025,-33.92713333333333,151.22726111111112
SY035,-33.92086944444444,151.24582777777778
SY047,-33.961444444444446,151.0893638888889
SY060,-33.89892777777778,151.31078888888888
SY063,-34.20889722222222,151.20885555555554
SY070,-33.97195555555555,151.0450138888889
SY072,-33.92240555555556,151.31890277777777
SY079,-33.94473888888889,151.32104722222223
SY095,-34.00074722222222,151.18975277777778
SY096,-33.9447,151.1866
SY097,-33.856791666666666,151.16259722222222
SY098,-33.74753888888889,151.12687777777776
SY099,-33.79853888888889,151.01411944444445
SY100,-33.780425,151.13406388888887
SY140,-34.17296388888889,151.132
SY150,-33.967819444444444,151.18136944444444
SY155,-34.04166111111111,151.20017777777778
SY178,-34.205844444444445,151.12500277777778
SY250,-34.00861666666667,151.204525
SY300,-33.95366111111111,151.12216666666666
SY304,-33.82259444444445,151.04186666666666
SY323,-33.76114722222222,151.0794527777778
SY326,-33.78794444444444,151.10592222222223
SY350,-33.8975,151.17371111111112
SY500,-34.049325,151.21569444444444
SY600,-33.84582777777778,151.15061666666668
SY650,-33.86708888888889,151.15601944444444
SY700,-34.05797777777778,151.20450555555556
SY701,-34.08188888888889,151.22463611111112
SY704,-33.992311111111114,151.20005555555556
SYNOT,-42.22,146.89666666666668
TABAL,-28.255,159.17166666666665
TAGOD,-39.90833333333333,135.0
TALAG,-35.115,149.205
TAMOD,-33.26833333333333,118.47166666666666
TANEM,-15.518333333333333,110.12
TANTA,-35.88,148.53166666666667
TAPAX,-36.305,125.0
TARAK,-20.763333333333332,112.05166666666666
TARAL,-34.501666666666665,149.93333333333334
TAREX,-37.306666666666665,145.915
TAROR,-31.0,142.81166666666667
TASHA,-20.111666666666668,140.39833333333334
TATAP,-10.761666666666667,133.255
TATOD,-10.985,102.97833333333334
TATUK,-19.43,126.64666666666666
TAVEV,-24.26,143.44333333333333
TAYER,-16.29573611111111,117.36174722222222
TDL01,-14.50935,132.36364166666667
TDL04,-14.467233333333333,132.3355777777778
TDL06,-14.439152777777778,132.31687222222223
TDL10,-14.534147222222222,132.3861638888889
TDL15,-14.312775,132.23275833333332
TDL26,-14.684691666666666,132.57058055555555
TDL29,-14.479305555555555,132.20725833333333
TDL30,-14.42261388888889,132.23583888888888
TDL40,-14.566419444444444,132.4256611111111
TDL42,-14.662136111111112,132.46914166666667
TDL46,-14.4627,132.32460833333334
TDL60,-14.587930555555555,132.45199722222222
TDL65,-14.687694444444444,132.40581111111112
TDL81,-14.487427777777778,132.24060555555556
TDL94,-14.397036111111111,132.26033611111112
TEANO,-24.538333333333334,118.13833333333334
TEBUR,-23.475,163.0
TEKAN,-12.0,150.725
TEKEP,-30.49,163.0
TEKUP,-38.25666666666667,130.0
TEMPL,-37.876666666666665,144.495
TENCH,-14.896666666666667,148.06166666666667
TESAT,-29.18,160.71166666666667
TESSI,-29.451666666666668,152.31333333333333
TICAL,-12.0,151.375
TILDA,-38.233333333333334,161.9
TIMET,-19.128333333333334,116.32166666666667
TIMMI,-21.921666666666667,130.66
TINDA,-27.955,115.65833333333333
TIPAM,-19.5,114.24833333333333
TL001,-19.261019444444443,146.7633972222222
TL003,-19.20455,146.78961944444444
TL008,-19.371419444444445,146.71201666666667
TL011,-19.423541666666665,146.6876472222222
TL012,-19.445869444444444,146.76203055555555
TL013,-19.073438888888887,146.89926666666668
TL023,-19.215975,146.78220277777777
TL029,-19.02968611111111,146.8943361111111
TL045,-19.07045,146.94833055555554
TL048,-19.154275,146.88496111111112
TL053,-19.172430555555554,146.81799444444445
TL055,-19.167344444444446,146.89425277777778
TL060,-19.165830555555555,146.82341666666667
TL070,-19.152633333333334,146.83425555555556
TL080,-19.13943611111111,146.84509722222222
TL090,-19.12623888888889,146.85593333333333
TL172,-19.479347222222223,146.76264722222223
TL185,-19.474255555555555,146.7069527777778
TL205,-19.443722222222224,146.62740277777777
TOBIE,-14.866666666666667,127.65
TOBOB,-34.93333333333333,145.08
TOJAM,-29.286666666666665,153.115
TONAR,-37.843333333333334,144.85333333333332
TONIM,-36.031666666666666,154.34666666666666
TOREX,-7.4,133.59166666666667
TOSAS,-12.0,147.09833333333333
TRIKI,-26.871666666666666,153.35333333333332
TRILL,-18.436666666666667,122.28333333333333
TROTA,-27.78,152.55
TUBBY,-40.89833333333333,160.71
TUNAA,-35.25,133.66666666666666
TUNGO,-41.52,141.0
TUREK,-23.23,118.09833333333333
TVL12,-19.445708333333332,146.76315833333334
TVL14,-19.479177777777778,146.76331666666667
TVL18,-19.474302777777776,146.70800555555556
UBNIS,-8.271666666666667,80.0
UNTER,-12.226666666666667,132.25333333333333
UPNOT,-18.656666666666666,109.92833333333333
UPOLO,-16.698333333333334,145.95
UVUPU,-33.84166666666667,142.54833333333335
UXORA,-26.0,109.22833333333334
VARLY,-33.91,153.34
VEGAH,-29.41,152.82333333333332
VENEL,-33.473333333333336,143.77333333333334
VERIS,-17.27,105.0
VESUN,-24.98,163.0
VETAL,-38.42166666666667,135.0
VIBUX,-37.17,130.0
VICKI,-35.115,149.215
VICTA,-26.473333333333333,149.07666666666665
VILOL,-25.965,144.76333333333332
VIMAB,-31.515,145.35833333333332
VINAX,-21.588333333333335,137.89166666666668
VIPAM,-12.0,148.02
VIPOX,-20.083333333333332,126.215
VIRUV,-28.951666666666668,134.55833333333334
VOMPA,-19.806666666666665,146.905
WACKO,-27.188333333333333,152.75333333333333
WAGOO,-28.148333333333333,118.75666666666666
WALSI,-17.1585,145.87766666666667
WALTA,-19.69,147.59
WALTZ,-35.78,158.08166666666668
WANGI,-13.13,130.45
WAREN,-38.016666666666666,145.31166666666667
WARRA,-24.833333333333332,114.32833333333333
WARTY,-33.906666666666666,154.115
WAVES,-31.87,115.52833333333334
WEEDA,-27.915,117.85666666666667
WEENA,-12.0,150.3
WELLS,-25.0,120.89833333333333
WENDY,-37.84,143.97833333333332
WENER,-26.263333333333332,128.94666666666666
WESTY,-19.191666666666666,147.01666666666668
WHITI,-29.171666666666667,152.755
WILDE,-37.55,144.685
WILTO,-25.506666666666668,118.29666666666667
WINAL,-24.696666666666665,131.37333333333333
WINCH,-34.515,136.78166666666667
WINKY,-27.283333333333335,152.65666666666667
WISKA,-19.575,145.20833333333334
WISPA,-27.198333333333334,153.235
WIZZA,-27.673333333333332,153.04833333333335
WLM01,-32.785447222222224,151.8189638888889
WLM06,-32.727375,151.74786666666665
WLM07,-32.918308333333336,152.09312222222223
WLM11,-32.907558333333334,152.007225
WLM12,-32.65003611111111,151.87013055555556
WLM23,-32.97412222222222,152.04346944444444
WLM30,-32.66926388888889,151.67685833333334
WLM31,-32.59939444444444,151.65087777777777
WLM34,-32.75060833333333,151.77629444444443
WLM35,-32.54653888888889,151.84352222222222
WLM88,-32.80711111111111,151.8489972222222
WLM89,-32.85736111111111,151.92806666666667
WLMNB,-32.803352777777775,151.82878055555557
WODAY,-28.918333333333333,155.36
WOLBI,-35.48166666666667,148.20833333333334
WOLGO,-27.683333333333334,115.925
WONYU,-24.925,119.74666666666667
WOODY,-27.238333333333333,152.405
WOOLY,-35.55833333333333,162.29666666666665
WOONA,-34.735,140.53333333333333
WOORA,-31.753333333333334,116.07833333333333
WYMER,-36.87166666666667,142.92333333333335
WYNOT,-16.255,149.405
YAHMO,-30.716666666666665,118.86333333333333
YCWA,-22.966666666666665,118.81333333333333
YEEDI,-28.868333333333332,119.53
YFDF,-22.291944444444443,119.43722222222222
YOGGI,-32.553333333333335,151.89666666666668
YOKRA,-30.08,119.32666666666667
YORKE,-34.91166666666667,137.61333333333334
YUSEF,-21.431666666666665,135.12
ZAARS,-12.033333333333333,129.60333333333332
ZAMMI,-14.16,128.60333333333332
ZAN20,-16.354791666666667,145.83298055555557
ZANEY,-16.028333333333332,145.91166666666666
ABASS,-34.583333333333336,150.94333333333333
ACKER,-12.021666666666667,132.205
ACOOL,-30.0,110.0
ACTIN,-33.50333333333333,138.02666666666667
AIDEN,-23.933333333333334,133.855
AIMEE,-12.435,130.94333333333333
AIRMA,-29.911666666666665,115.0
AKDIP,-14.488333333333333,108.44333333333333
AKESA,-15.831666666666667,111.76166666666667
AKKER,-19.926666666666666,146.42333333333335
ALACO,-12.476666666666667,131.06666666666666
ALBAK,-37.74333333333333,144.71
ALEXI,-35.65,139.07333333333332
ALIDL,-26.743333333333332,139.29833333333335
ALIRA,-18.063333333333333,123.81333333333333
ALISN,-20.171666666666667,147.91
ALLEE,-13.03,131.49333333333334
ALLOT,-12.345,130.67333333333335
ALONE,-27.1,149.89166666666668
ALORA,-28.093333333333334,151.95
ALPAL,-39.26833333333333,144.27833333333334
ALTIR,-32.66,140.50333333333333
ALTRO,-33.166666666666664,140.34333333333333
ALWYN,-31.856666666666666,116.125
AMBLE,-27.293333333333333,153.095
AMELI,-37.906666666666666,147.235
ANBEL,-37.40833333333333,145.11833333333334
ANDIO,-30.0,140.685
ANDYS,-37.608333333333334,145.25666666666666
ANGUS,-12.285,130.24
ANJJO,-12.936666666666667,125.625
ANNIE,-27.458333333333332,153.08666666666667
ANNKY,-12.325,131.58
ANPAT,-26.38,116.77666666666667
ANSET,-12.411666666666667,131.58666666666667
APISO,-12.0,147.60666666666665
APOVO,-29.425,139.27333333333334
APUSS,-19.551666666666666,143.01833333333335
ARANA,-30.218333333333334,139.68833333333333
AREST,-32.185,145.86333333333334
ARGON,-14.418333333333333,137.955
ARMAD,-32.163333333333334,116.05
ARPOO,-19.01,146.29166666666666
ARTHA,-37.598333333333336,145.25166666666667
ARTON,-24.643333333333334,147.45666666666668
ASHAR,-12.286666666666667,126.52333333333333
ASWAN,-35.51833333333333,143.34
ATHEL,-34.93333333333333,138.74833333333333
ATILA,-41.805,146.42
ATMAL,-12.0,107.59166666666667
AUDRA,-40.0,145.16166666666666
AVKAN,-29.37,116.77833333333334
AVOCA,-37.05166666666667,143.34833333333333
AVONS,-31.576666666666668,116.515
BAABA,-27.441666666666666,153.22333333333333
BADJA,-32.03333333333333,117.52166666666666
BAISH,-23.906666666666666,134.41
BAKEL,-27.866666666666667,152.59166666666667
BAKER,-37.56166666666667,144.82
BALAT,-33.575,137.79
BALLS,-29.793333333333333,147.105
BAMBI,-26.781666666666666,148.11333333333334
BANCA,-30.833333333333332,141.74333333333334
BANKS,-25.02,116.775
BANTU,-34.211666666666666,150.90333333333334
BARET,-32.14666666666667,116.07333333333334
BARIL,-42.75666666666667,147.455
BARKA,-35.07833333333333,138.93
BARKO,-30.816666666666666,118.78166666666667
BARNY,-12.833333333333334,130.36666666666667
BARON,-16.248333333333335,134.26
BARTA,-27.741666666666667,150.12166666666667
BASIL,-17.075,146.09
BATOP,-23.39666666666667,125.69666666666667
BATTS,-13.091666666666667,130.92333333333335
BAYEE,-12.396666666666667,130.825
BAYLI,-17.226666666666667,145.955
BAZIL,-12.585,130.93166666666667
BAZZA,-28.75,146.69
BEATO,-37.535,144.645
BEBAK,-27.49,150.33333333333334
BEERN,-27.421666666666667,153.03166666666667
BEETI,-28.053333333333335,147.08833333333334
BEKAM,-32.51,150.96666666666667
BELOP,-19.0,125.0
BENBU,-33.196666666666665,149.98166666666665
BENDA,-12.626666666666667,130.745
BENTA,-14.588333333333333,144.61833333333334
BEROW,-33.61333333333333,151.11666666666667
BERRY,-35.00333333333333,138.85666666666665
BERTI,-27.781666666666666,153.18666666666667
BICKL,-26.658333333333335,153.26333333333332
BIGAK,-29.653333333333332,113.14166666666667
BIGGS,-34.78666666666667,139.07333333333332
BILBY,-30.708333333333332,154.87666666666667
BILCO,-34.733333333333334,138.33
BILIN,-29.895,136.20333333333335
BILLY,-28.873333333333335,136.21
BINDI,-30.435,116.28666666666666
BIRDY,-12.93,130.46
BISON,-37.72,144.60333333333332
BITES,-12.376666666666667,131.03166666666667
BLAFF,-32.626666666666665,151.59833333333333
BLAIR,-11.581666666666667,131.965
BLIGH,-28.036666666666665,116.06666666666666
BLUEY,-33.85166666666667,150.73666666666668
BN01R,-27.371666666666666,153.13666666666666
BOATS,-27.206666666666667,153.29
BOBIK,-14.301666666666666,134.07333333333332
BOCKY,-34.916666666666664,138.35833333333332
BODDI,-30.47,115.0
BODEG,-20.126666666666665,163.0
BOFOR,-14.233333333333333,133.125
BOGGY,-38.43666666666667,147.16166666666666
BOLGA,-31.425,116.45166666666667
BONDO,-35.58833333333333,140.18166666666667
BONGO,-28.083333333333332,150.33333333333334
BONGS,-28.0,110.0
BONNI,-30.35333333333333,150.38166666666666
BOOEY,-30.311666666666667,140.27
BOOGI,-34.02333333333333,151.005
BOOTH,-35.87,139.7
BORAH,-21.953333333333333,119.225
BORDA,-26.76,153.045
BOYSE,-37.303333333333335,145.67
BRADD,-31.236666666666668,151.04333333333332
BREAM,-27.001666666666665,155.91333333333333
BRIAN,-21.005,120.27
BRIDE,-23.19,142.14166666666668
BRISO,-16.976666666666667,117.56833333333333
BROAD,-42.531666666666666,146.48
BRONS,-38.153333333333336,146.10166666666666
BRONY,-37.94,147.2
BRUCE,-23.098333333333333,115.03333333333333
BRUKA,-35.005,138.92333333333335
BUGBA,-43.815,163.0
BUIYA,-26.0,110.0
BULGI,-29.001666666666665,119.67
BUNDY,-13.323333333333334,131.91666666666666
BUNGL,-30.338333333333335,119.52833333333334
BUNKY,-37.333333333333336,144.76666666666668
BURBN,-16.355,144.26833333333335
BURCH,-29.041666666666668,149.045
BURKE,-27.033333333333335,115.69
BURLA,-21.711666666666666,137.98
BURLI,-28.191666666666666,153.6
BURPA,-27.073333333333334,152.95833333333334
BURRA,-37.00833333333333,143.05333333333334
BURTO,-23.12,146.615
BUSKO,-35.946666666666665,145.13833333333332
BYLLA,-27.0,110.0
CALDA,-37.67166666666667,144.695
CAMBS,-25.0,110.0
CAMUS,-40.0,145.51333333333332
CANAC,-32.225,115.595
CANIP,-32.096666666666664,115.93
CANNU,-16.826666666666668,145.72666666666666
CANRI,-32.373333333333335,116.455
CAPER,-33.38,150.93833333333333
CARDO,-13.013333333333334,137.94833333333332
CARMI,-26.218333333333334,115.0
CARMN,-18.866666666666667,146.265
CARON,-22.358333333333334,149.865
CARSL,-27.351666666666667,153.05166666666668
CASHN,-42.87833333333333,147.57
CASPA,-31.583333333333332,117.46333333333334
CATAN,-28.715,150.75833333333333
CATCH,-12.185,130.98833333333334
CATHY,-33.778333333333336,151.13333333333333
CAULI,-26.458333333333332,132.19666666666666
CEDAR,-19.5,115.12
CHAPL,-27.453333333333333,150.0
CHARD,-20.623333333333335,147.39833333333334
CHERY,-12.533333333333333,140.0
CHIMU,-37.565,144.79666666666665
CHIPS,-27.441666666666666,153.05833333333334
CHITT,-36.27166666666667,143.68833333333333
CHOMP,-38.765,148.69166666666666
CHOOK,-28.283333333333335,153.69333333333333
CHRIS,-34.776666666666664,150.75166666666667
CHUBA,-16.158333333333335,120.97
CINDA,-22.793333333333333,133.95166666666665
CINDY,-15.703333333333333,137.215
CITEE,-27.47,153.08
CLAMP,-26.09,152.73333333333332
CLARY,-35.1,138.60666666666665
CLAYS,-29.955,118.93166666666667
CLERY,-37.96333333333333,147.015
CLESE,-12.446666666666667,130.785
CLIFF,-34.22666666666667,151.0
CLIFT,-20.605,148.45833333333334
CLIFY,-31.981666666666666,116.54333333333334
CLOVA,-25.013333333333332,120.00666666666666
CLOZA,-26.991666666666667,139.74
CLUGO,-32.068333333333335,115.70333333333333
COBHI,-31.798333333333332,143.51666666666668
COBUN,-17.17,145.64
COFEE,-15.15,131.22333333333333
COKES,-16.02,143.29
COLLY,-27.49,147.60666666666665
COLOP,-21.485,141.18666666666667
COLPY,-35.03666666666667,138.40333333333334
COMAC,-33.55166666666667,137.85166666666666
COMLY,-35.163333333333334,139.115
CONDL,-31.485,116.41166666666666
CONOR,-19.096666666666668,143.66
COPPA,-35.781666666666666,147.58166666666668
CORDO,-34.33,150.785
COTON,-27.618333333333332,153.21666666666667
COTTS,-31.976666666666667,115.67833333333333
COWLY,-35.105,138.76
CRAWS,-27.7,153.42166666666665
CREDY,-25.806666666666665,153.25333333333333
CREEK,-16.8,145.74166666666667
CRIMP,-16.846666666666668,143.13666666666666
CRISO,-19.571666666666665,138.58
CRIST,-27.475,144.45333333333335
CROKO,-19.063333333333333,146.46166666666667
CROWE,-10.103333333333333,87.36166666666666
CUBBY,-31.555,116.125
CUDGN,-28.238333333333333,153.545
CURON,-35.641666666666666,138.89666666666668
CURTN,-35.35,149.195
DADAN,-27.496666666666666,153.15
DAGUK,-23.321666666666665,127.13833333333334
DAISY,-19.585,146.80166666666668
DAKKA,-31.02,116.79333333333334
DAKUN,-22.668333333333333,141.38166666666666
DALES,-32.178333333333335,115.93166666666667
DALGI,-13.023333333333333,131.22
DALLY,-29.0,145.77833333333334
DAMIN,-26.94,150.11666666666667
DAMSL,-34.723333333333336,138.69
DANAL,-27.845,138.715
DAPPA,-25.59,141.50833333333333
DARLY,-37.736666666666665,144.63
DARTS,-36.67333333333333,147.83333333333334
DAVEY,-20.408333333333335,145.75
DAVOS,-36.71333333333333,147.9
DAZZA,-21.498333333333335,121.98833333333333
DEBAY,-27.213333333333335,153.17333333333335
DEBAZ,-19.293333333333333,140.46166666666667
DEBEE,-28.093333333333334,152.34666666666666
DEBOS,-34.193333333333335,151.17666666666668
DEENA,-34.10666666666667,151.20166666666665
DEERS,-37.80833333333333,144.74333333333334
DEJAY,-28.841666666666665,150.895
DELRU,-32.06,116.075
DENIS,-27.556666666666665,153.135
DERAK,-21.365,134.05666666666667
DERAL,-23.423333333333332,134.88833333333332
DERRY,-33.721666666666664,148.04333333333332
DEWEY,-28.0,154.5
DICKI,-28.276666666666667,153.6
DICKO,-16.303333333333335,130.30666666666667
DIGER,-30.058333333333334,121.02666666666667
DIGGA,-27.881666666666668,151.91
DINGO,-23.88,133.865
DIPLO,-40.0,145.68333333333334
DIPPA,-33.958333333333336,151.32333333333332
DISHA,-35.07,139.07166666666666
DISPT,-25.931666666666665,153.19
DIVNA,-23.065,115.27166666666666
DOCKS,-37.906666666666666,144.85666666666665
DOGAR,-2.0,87.83833333333334
DONGA,-29.576666666666668,115.01
DONIC,-33.38,151.90833333333333
DONOT,-29.801666666666666,137.86
DOORA,-31.906666666666666,149.08833333333334
DOREN,-37.61,145.135
DORIC,-22.55,136.745
DOTTE,-18.698333333333334,144.87833333333333
DOVOM,-28.673333333333332,163.0
DRAFF,-16.765,141.23333333333332
DRAIN,-27.165,153.085
DUBEV,-27.55,163.455
DUBIS,-23.27166666666667,127.815
DUBYA,-35.281666666666666,149.195
DUCEK,-27.973333333333333,141.53666666666666
DUDOK,-34.08,151.07666666666665
DUFFY,-35.10666666666667,138.16833333333332
DUGGI,-36.595,146.44666666666666
DUMPA,-13.448333333333334,134.51333333333332
DUNES,-34.026666666666664,151.175
DUNKN,-27.651666666666667,152.46166666666667
DUNNE,-37.916666666666664,146.12
DUNNI,-27.48,153.39
DURBS,-31.503333333333334,116.43666666666667
DUTAK,-29.503333333333334,117.54833333333333
DYMON,-21.536666666666665,141.80666666666667
DYTES,-37.708333333333336,145.16
EAZEE,-16.556666666666665,145.685
EBARR,-31.0,110.0
ECATT,-19.69,140.92666666666668
EDMON,-40.0,145.27833333333334
EEMUE,-35.355,137.98666666666668
EFFEY,-20.156666666666666,146.675
EGZEN,-27.383333333333333,153.01166666666666
EKIDA,-31.976666666666667,156.78
EKKAS,-38.07833333333333,145.19
EKULA,-19.543333333333333,114.685
ELATI,-2.0,89.96166666666667
ELLIS,-29.036666666666665,120.0
ELONG,-32.068333333333335,148.94333333333333
ENAID,-27.381666666666668,153.625
ENTAL,-28.47833333333333,119.11
ENTRE,-31.533333333333335,130.94833333333332
ERINA,-30.946666666666665,134.75
ERITH,-34.19833333333333,138.44333333333333
ERNIE,-12.663333333333334,130.27
ESKAY,-28.3,153.62166666666667
ESTER,-27.698333333333334,153.57333333333332
EVANS,-19.506666666666668,146.81666666666666
EVFRS,-16.916666666666668,145.78166666666667
EVOKE,-28.716666666666665,142.95
EXETA,-34.64,150.275
EXXON,-25.776666666666667,143.65166666666667
EYELA,-27.26,150.335
EYSAW,-19.383333333333333,145.17833333333334
FADEN,-35.465,149.195
FARMA,-17.815,143.58666666666667
FASIE,-17.331666666666667,143.18166666666667
FAUKS,-28.41,153.86
FECTI,-18.468333333333334,116.90333333333334
FEEGS,-12.505,131.14833333333334
FELLS,-12.243333333333334,131.09833333333333
FERGI,-14.213333333333333,132.32166666666666
FIKUL,-28.395,153.65333333333334
FILLY,-13.963333333333333,131.225
FILSL,-34.95333333333333,138.80166666666668
FISHA,-33.91,151.37666666666667
FLANO,-12.353333333333333,131.58333333333334
FLATS,-18.968333333333334,140.83
FLATY,-25.413333333333334,154.88666666666666
FLEMO,-20.101666666666667,146.87166666666667
FLIPA,-11.84,129.06
FLORA,-28.786666666666665,138.31166666666667
FLYNN,-27.52,152.94166666666666
FOKER,-31.165,115.92833333333333
FOLEY,-21.885,130.72166666666666
FORTT,-24.836666666666666,150.33333333333334
FOYLE,-21.691666666666666,145.325
FOZZI,-14.985,129.64
FREDD,-27.07,145.26166666666666
FRILL,-32.593333333333334,120.61
FULTN,-24.05,133.90333333333334
FUNAL,-32.37166666666667,118.86
FYSTI,-27.376666666666665,153.26333333333332
GALAH,-35.08166666666666,142.11166666666668
GANEE,-28.908333333333335,152.625
GARTH,-26.998333333333335,152.75833333333333
GATOR,-12.461666666666666,131.75666666666666
GAULI,-27.49,153.06833333333333
GAVAS,-32.333333333333336,146.99333333333334
GAYLA,-26.926666666666666,152.87
GEDEN,-37.72,145.015
GEKKO,-21.203333333333333,131.84
GEPEC,-27.77,152.54166666666666
GERBL,-27.575,152.42666666666668
GIBBO,-36.666666666666664,147.85
GIBLI,-21.261666666666667,136.56833333333333
GILUM,-11.61,139.01333333333332
GINGA,-35.595,148.71833333333333
GIPPS,-37.71,148.085
GIVEN,-12.423333333333334,130.645
GLENN,-27.575,153.02
GLYDE,-12.308333333333334,131.17333333333335
GOANA,-32.44166666666667,154.15666666666667
GOLDY,-19.845,146.70333333333335
GOMAP,-22.708333333333332,129.34166666666667
GOOFY,-28.87,153.82833333333335
GORTN,-35.155,149.20666666666668
GOSAM,-19.598333333333333,146.715
GOSSI,-32.05,116.08666666666667
GRAEM,-27.315,153.16833333333332
GRENE,-31.89,116.93666666666667
GROVA,-28.285,153.91666666666666
GRUNT,-28.285,153.755
GULFF,-14.366666666666667,140.0
GULFS,-34.85333333333333,138.135
GUNTA,-33.20333333333333,151.47166666666666
GUTTA,-27.178333333333335,153.12833333333333
HAKIT,-16.776666666666667,145.76833333333335
HALAS,-33.848333333333336,151.26166666666666
HALIT,-32.62833333333333,118.79666666666667
HAMEL,-26.841666666666665,114.18
HAMER,-24.155,143.47
HANKY,-15.143333333333333,138.345
HANNA,-12.903333333333334,129.63333333333333
HAPPI,-34.96333333333333,148.02666666666667
HARBA,-34.818333333333335,138.40666666666667
HARMN,-32.17,115.89833333333333
HARPO,-21.006666666666668,148.77833333333334
HARRO,-37.78333333333333,145.28
HAYCO,-32.14,115.70166666666667
HAYES,-37.55166666666667,145.23666666666668
HAZOS,-30.39666666666667,137.67833333333334
HEALE,-13.146666666666667,140.0
HELEN,-12.638333333333334,131.55166666666668
HELIX,-40.0,146.86
HENDO,-17.22,145.905
HERON,-16.546666666666667,144.44333333333333
HEWEY,-27.333333333333332,154.0
HICKY,-12.613333333333333,130.935
HIINE,-28.831666666666667,134.37333333333333
HILAR,-31.645,148.48666666666668
HILLS,-37.723333333333336,145.25333333333333
HILRY,-31.826666666666668,115.78333333333333
HILSA,-27.823333333333334,127.56833333333333
HIPPO,-35.465,149.385
HIRST,-34.91,138.94833333333332
HOBAY,-37.99333333333333,144.86166666666668
HOBBS,-33.805,139.70333333333335
HODDA,-13.268333333333333,131.965
HOGAN,-33.89,149.58166666666668
HOGES,-16.688333333333333,145.66333333333333
HOKOR,-13.621666666666666,138.0
HOLIS,-26.85333333333333,153.17666666666668
HOLIT,-34.465,138.35666666666665
HOODY,-34.415,119.57666666666667
HOOKM,-28.086666666666666,153.54
HOOLI,-21.948333333333334,118.12833333333333
HOPLA,-37.653333333333336,144.695
HORSE,-23.213333333333335,115.48666666666666
HORSH,-37.72666666666667,144.84833333333333
HORUS,-37.445,145.16166666666666
HOTTA,-22.493333333333332,142.97
HOUND,-16.063333333333333,131.70333333333335
HOWID,-35.026666666666664,138.24333333333334
HUMOK,-31.32,147.46666666666667
HURTT,-12.265,130.7
IDUSO,-29.02,137.31166666666667
IMATI,-27.488333333333333,152.39333333333335
INCON,-12.585,131.01833333333335
INDEE,-28.078333333333333,153.51666666666668
IRONS,-41.77333333333333,146.46166666666667
IRWIN,-29.355,115.11333333333333
ISAAK,-22.381666666666668,148.675
ISNIB,-26.456666666666667,115.67666666666666
ITCHY,-15.113333333333333,122.54666666666667
ITORT,-19.301666666666666,146.12666666666667
ITSMA,-17.823333333333334,132.26833333333335
ITTSA,-12.608333333333333,131.2
JABBA,-12.153333333333332,130.525
JACKA,-38.77,145.26333333333332
JACKO,-30.87,130.0
JACKS,-32.67333333333333,143.86166666666668
JADEL,-37.56333333333333,144.95166666666665
JAFFA,-31.375,151.69333333333333
JAKLN,-34.14666666666667,151.37333333333333
JAMBO,-32.86,124.0
JAMMO,-37.278333333333336,150.78833333333333
JARJA,-32.945,151.50666666666666
JAYBE,-27.206666666666667,117.51333333333334
JAYBI,-37.641666666666666,144.53333333333333
JEANI,-30.788333333333334,147.90833333333333
JEDDA,-27.156666666666666,151.95333333333335
JELLI,-33.89333333333333,151.37833333333333
JENIF,-37.645,145.26
JENTL,-33.81166666666667,151.155
JESSE,-12.228333333333333,130.255
JEWEL,-37.943333333333335,147.09166666666667
JILGO,-25.0,119.18166666666667
JIRRA,-23.72,134.14333333333335
JODEX,-31.786666666666665,150.27
JOLLY,-23.0,110.0
JOOVI,-30.663333333333334,150.28833333333333
JORDN,-29.063333333333333,134.02333333333334
JOSBU,-33.13666666666666,116.67333333333333
JOSHU,-13.761666666666667,130.94
JOSSO,-38.265,147.10833333333332
JUDIE,-15.001666666666667,140.0
JULES,-15.158333333333333,130.77666666666667
KALBI,-8.871666666666666,75.0
KAMBA,-33.495,151.43333333333334
KAMPI,-34.16166666666667,151.22
KANBU,-23.18,149.48333333333332
KANGA,-31.526666666666667,156.725
KANGI,-21.745,117.17166666666667
KANGO,-37.696666666666665,145.25833333333333
KARKA,-13.09,130.85
KARRA,-12.585,132.26
KARSI,-13.955,132.83666666666667
KASPA,-25.813333333333333,152.53666666666666
KEDDY,-34.57666666666667,149.46
KEELA,-37.74166666666667,144.78833333333333
KEEWI,-16.763333333333332,145.93333333333334
KEGAN,-28.02,153.58833333333334
KELAN,-37.95166666666667,147.40666666666667
KELLA,-31.548333333333332,117.65666666666667
KELVN,-13.156666666666666,136.62833333333333
KENDL,-30.755,134.11
KENET,-31.923333333333332,115.47
KENIK,-25.73,153.81666666666666
KERIN,-16.21,141.295
KERMI,-19.63,147.23833333333334
KETCH,-31.825,115.665
KETEN,-25.071666666666665,152.025
KEVIN,-34.13666666666666,151.37166666666667
KEXIM,-22.413333333333334,129.84
KIKEM,-9.881666666666666,126.12333333333333
KILEL,-23.158333333333335,116.77333333333333
KINGS,-12.635,130.77
KIPPA,-20.078333333333333,143.22833333333332
KIRST,-30.796666666666667,140.61166666666668
KISTO,-30.908333333333335,116.59166666666667
KITTY,-12.495,130.86
KNOBL,-34.93,138.56
KNOPL,-28.586666666666666,123.955
KOALA,-31.5,154.98833333333334
KONDO,-33.163333333333334,140.45166666666665
KOOLI,-12.403333333333332,131.11166666666668
KORIT,-37.67666666666667,144.63333333333333
KOTIN,-29.581666666666667,146.95166666666665
KOUPA,-27.333333333333332,153.24
KOUTA,-37.465,145.18166666666667
KROPP,-33.748333333333335,151.13666666666666
KUNDA,-38.56,145.49666666666667
KURLA,-34.345,140.255
KVALM,-19.34,146.72166666666666
LABOR,-28.47,142.47666666666666
LACEY,-37.55166666666667,145.50333333333333
LAGIT,-14.648333333333333,118.38333333333334
LAKES,-35.58,139.01833333333335
LAMAX,-37.45166666666667,145.41166666666666
LANGU,-36.681666666666665,142.48166666666665
LANOL,-33.61,151.2
LAROO,-31.278333333333332,139.87833333333333
LATOM,-23.246666666666666,137.04833333333335
LATTA,-38.126666666666665,145.07166666666666
LAWNN,-27.29,152.97333333333333
LAWRA,-28.278333333333332,115.0
LAWRY,-27.011666666666667,150.36333333333334
LAWSO,-18.993333333333332,132.4
LAYUP,-30.661666666666665,147.745
LEAKY,-27.268333333333334,153.34
LELED,-11.276666666666667,75.0
LENIS,-27.258333333333333,126.825
LENNY,-32.00666666666667,115.79666666666667
LEWIS,-34.75666666666667,136.71666666666667
LEYOX,-34.255,144.08833333333334
LIFFY,-41.65,146.73833333333334
LILEE,-27.615,153.11166666666668
LINDO,-28.403333333333332,124.16
LIPPS,-26.493333333333332,138.85833333333332
LIRRI,-27.326666666666668,120.01666666666667
LISHA,-34.17,151.24666666666667
LISSA,-27.546666666666667,153.15833333333333
LITEL,-18.575,138.00833333333333
LLAMA,-31.293333333333333,147.835
LLOYD,-37.776666666666664,144.51166666666666
LODEN,-22.10333333333333,144.25333333333333
LOFFA,-27.816666666666666,150.18833333333333
LOGAN,-27.6,153.11666666666667
LOGOL,-21.173333333333332,116.735
LOKYA,-27.401666666666667,153.225
LOLLS,-36.235,141.0
LONER,-24.713333333333335,150.38666666666666
LORNE,-25.541666666666668,147.16333333333333
LOUEY,-29.083333333333332,154.0
LOUIE,-13.96,130.77833333333334
LOVEY,-36.975,144.53666666666666
LOVMA,-4.82,75.89
LOWDI,-33.52333333333333,149.61333333333334
LOWEP,-33.068333333333335,151.23
LUKEY,-27.583333333333332,151.66
LUNAR,-32.79666666666667,151.83333333333334
LUVLY,-28.14666666666667,153.495
LYNCH,-37.495,144.87
LYNDN,-23.5,115.18333333333334
LYNSO,-24.815,115.0
LYSMO,-33.16833333333334,145.75666666666666
MACKA,-30.581666666666667,151.76
MADDY,-13.868333333333334,120.08
MAGGS,-40.86833333333333,146.56666666666666
MAGGY,-19.188333333333333,146.92833333333334
MAGOO,-34.33,140.18166666666667
MAGPI,-25.148333333333333,151.88833333333332
MAIDS,-28.141666666666666,153.56
MAITE,-37.64666666666667,145.26166666666666
MAJAR,-33.82666666666667,151.29
MAKOM,-29.0,144.065
MANAR,-31.908333333333335,116.355
MANDO,-23.47,149.42833333333334
MANDU,-32.52333333333333,115.775
MANFA,-34.04333333333334,151.34666666666666
MANLI,-27.463333333333335,153.19833333333332
MANNA,-32.455,143.94333333333333
MANTL,-32.016666666666666,115.74666666666667
MARIE,-29.25,143.42333333333335
MARLI,-28.11,152.71
MARON,-19.578333333333333,146.23
MARSH,-37.705,144.24333333333334
MARTY,-12.976666666666667,131.29
MARUB,-33.931666666666665,151.48166666666665
MASER,-19.743333333333332,132.77166666666668
MASHA,-15.758333333333333,143.40333333333334
MASTS,-31.76,114.905
MATTI,-26.758333333333333,153.145
MAXAL,-37.44833333333333,145.41666666666666
MAXXI,-12.506666666666666,126.225
MEAND,-27.41,153.11333333333334
MEBAH,-30.223333333333333,135.55
MEDOW,-35.156666666666666,138.755
MEECE,-33.626666666666665,139.635
MEEGA,-33.733333333333334,149.55333333333334
MEENA,-28.261666666666667,119.47
MEETA,-28.12,153.54166666666666
MELBA,-32.318333333333335,117.465
MELSO,-37.70166666666667,144.56666666666666
MERLE,-31.501666666666665,116.23166666666667
METHL,-19.981666666666666,135.86666666666667
MICHM,-37.845,145.19166666666666
MICKI,-27.493333333333332,153.11166666666668
MICKS,-28.25,153.64666666666668
MICRO,-35.96,139.88
MIDAT,-40.36666666666667,163.0
MIDDY,-26.921666666666667,115.0
MIDEL,-22.4,141.42666666666668
MIDLA,-31.865,115.98666666666666
MILNA,-19.2,126.80666666666667
MILTN,-18.785,146.97166666666666
MILTY,-24.443333333333335,151.04
MINGA,-26.395,117.805
MINIM,-23.838333333333335,133.96333333333334
MINNI,-23.076666666666668,149.625
MINNY,-24.038333333333334,115.70833333333333
MINTY,-32.04666666666667,115.98166666666667
MITSA,-34.031666666666666,150.78333333333333
MITTY,-12.801666666666666,132.215
MJURA,-35.20666666666666,149.19333333333333
MOCKE,-11.915,130.46333333333334
MODYN,-31.56,116.19666666666667
MONDO,-32.943333333333335,151.23666666666668
MONTY,-37.725,145.11166666666668
MOREL,-19.775,136.00166666666667
MORGN,-26.725,153.21166666666667
MORGZ,-38.15,147.57666666666665
MORIS,-25.826666666666668,145.50166666666667
MORMU,-36.836666666666666,144.77666666666667
MOROK,-31.093333333333334,116.575
MORTN,-27.295,153.18
MOTGO,-27.745,116.45666666666666
MOUSE,-28.393333333333334,150.56666666666666
MOZZA,-38.08166666666666,146.09833333333333
MUCHA,-31.578333333333333,115.97333333333333
MUDOX,-23.601666666666667,136.29
MULDM,-29.785,120.47666666666667
MULGI,-29.416666666666668,116.93833333333333
MUMBA,-12.161666666666667,130.85333333333332
MUNDE,-33.54333333333334,137.88166666666666
MUNGA,-17.111666666666668,144.39
MUNRO,-14.41,130.60166666666666
MURES,-31.805,116.52166666666666
MURRY,-35.06,139.21333333333334
MUSOP,-35.51833333333333,147.90333333333334
MUSTA,-33.89666666666667,149.755
MYALL,-19.1,139.51
NAILA,-13.215,128.12
NALLY,-28.285,118.90333333333334
NAMBU,-30.685,115.44666666666667
NAMIT,-23.666666666666668,133.96833333333333
NASHO,-34.195,151.10666666666665
NASUX,-12.358333333333333,130.71333333333334
NATTY,-31.556666666666665,137.14166666666668
NAVEY,-32.028333333333336,115.94
NECTA,-15.185,143.80166666666668
NEEDL,-31.831666666666667,116.96833333333333
NEEKY,-27.63,115.0
NEFER,-37.44166666666667,144.94333333333333
NEILO,-12.496666666666666,131.125
NELLT,-12.246666666666666,131.11166666666668
NERIG,-35.178333333333335,150.03333333333333
NEWAY,-12.418333333333333,131.17833333333334
NICAY,-34.961666666666666,139.13166666666666
NICKY,-34.325,149.32166666666666
NICLA,-32.05166666666667,152.005
NICOL,-13.13,132.065
NIFTI,-39.89833333333333,147.65166666666667
NIKIL,-26.3,144.195
NIPEM,-26.538333333333334,117.08666666666667
NOCKI,-32.02166666666667,116.3
NODDY,-28.555,152.45
NOGRA,-27.423333333333332,152.99333333333334
NOLES,-25.066666666666666,137.105
NOMAD,-11.938333333333333,130.43666666666667
NOODL,-32.82333333333333,151.355
NOONA,-12.561666666666667,131.05666666666667
NOPED,-26.608333333333334,119.33666666666667
NORIC,-30.681666666666665,116.90833333333333
NORIS,-16.198333333333334,144.33666666666667
NORTY,-31.595,115.965
NOVIN,-35.12166666666667,120.0
NUGET,-12.613333333333333,131.56
NUMSA,-39.42,163.0
NUTTA,-15.008333333333333,130.97166666666666
OCKLY,-32.815,117.155
OCTAV,-23.788333333333334,133.87
ODALE,-34.09,150.51833333333335
OKIBU,-18.17,117.36
OLDER,-21.186666666666667,147.22833333333332
OLLIE,-25.085,147.505
OLREL,-35.65,163.0
OMKIN,-42.415,163.0
ONDEE,-31.718333333333334,116.44666666666667
ONDRA,-28.176666666666666,152.42166666666665
ONGAR,-29.2,114.79833333333333
ORCHY,-31.995,115.68166666666667
ORLOK,-31.743333333333332,116.94833333333334
ORTOS,-28.075,141.53833333333333
ORWEL,-27.953333333333333,152.64666666666668
OVENS,-24.986666666666668,149.255
OVILS,-33.70166666666667,151.13333333333333
PALGA,-12.716666666666667,132.23
PAMMY,-34.733333333333334,138.33
PANNA,-21.343333333333334,116.32166666666667
PANOR,-33.291666666666664,149.80666666666667
PANTN,-37.595,145.25166666666667
PANTO,-14.743333333333334,144.33166666666668
PARAD,-17.043333333333333,124.62166666666667
PARCU,-28.58,152.54833333333335
PARKS,-31.976666666666667,115.83833333333334
PARTY,-18.436666666666667,133.74666666666667
PASCO,-37.72,144.96333333333334
PASTA,-30.243333333333332,147.435
PAULA,-37.57333333333333,145.035
PAWSO,-17.211666666666666,146.105
PAYNE,-30.441666666666666,115.995
PEACH,-12.385,138.17833333333334
PEAKE,-36.016666666666666,149.51
PEART,-37.475,144.72333333333333
PEBAL,-37.97666666666667,144.97666666666666
PEBBL,-12.66,130.82333333333332
PEDPI,-13.276666666666667,75.0
PEKAY,-23.278333333333332,118.58166666666666
PELIK,-36.21,139.51833333333335
PELIS,-18.95,146.02833333333334
PEMAC,-28.01,153.445
PENZA,-37.755,142.23166666666665
PEPPY,-26.11,141.65833333333333
PERKS,-13.435,128.195
PERSA,-27.828333333333333,152.79666666666665
PETAA,-31.095,115.60833333333333
PETAB,-30.833333333333332,116.0
PETAC,-30.833333333333332,115.5
PETAD,-30.625,114.485
PETAE,-32.001666666666665,114.09166666666667
PETAF,-32.766666666666666,114.52666666666667
PHONE,-27.483333333333334,140.63166666666666
PIERS,-37.916666666666664,144.885
PIGGY,-29.196666666666665,153.39666666666668
PILBY,-34.67,136.73333333333332
PILTA,-33.19166666666667,141.79333333333332
PINJA,-32.013333333333335,116.34333333333333
PINKY,-28.951666666666668,167.77666666666667
PLEDL,-29.15,124.94666666666667
PLUGG,-27.165,153.195
PLUTO,-22.956666666666667,149.68166666666667
POGAV,-23.5,116.005
POINT,-37.928333333333335,144.755
POKEY,-29.995,147.25166666666667
POLUX,-31.196666666666665,115.55166666666666
POMOT,-29.311666666666667,116.52333333333333
PONDS,-34.958333333333336,138.945
PONTI,-15.8,121.5
POPLA,-35.22666666666667,148.26666666666668
PORKY,-12.186666666666667,130.72333333333333
PORTA,-34.848333333333336,138.5
PORTS,-38.02,144.90333333333334
POSOD,-3.4916666666666667,94.165
POSTY,-33.46,150.83833333333334
POSUM,-31.098333333333333,156.78333333333333
PRANA,-18.91,146.775
PRAWN,-33.96333333333333,151.38
PRICE,-34.405,140.22166666666666
PROST,-35.56,143.24666666666667
PUDIN,-18.94,141.15833333333333
PUDYA,-25.805,138.19666666666666
PUKIN,-12.571666666666667,131.13833333333332
PUMPA,-31.868333333333332,147.09666666666666
PUMRY,-32.653333333333336,116.99166666666666
QUAIL,-11.88,130.26
QUARY,-34.795,138.76
QUIET,-27.11,153.06833333333333
QUINS,-31.625,115.43166666666667
QUORN,-32.36,138.185
RABIT,-30.991666666666667,118.81
RACEV,-20.508333333333333,141.25666666666666
RADLA,-34.98166666666667,138.785
RAFFS,-31.661666666666665,115.62666666666667
RAILS,-18.871666666666666,116.50166666666667
RAMSE,-37.4,145.25166666666667
RANGU,-31.883333333333333,115.51
RARIE,-25.868333333333332,117.555
RARTI,-20.5,134.63
RASHI,-38.236666666666665,147.42166666666665
RASIN,-34.876666666666665,150.82333333333332
RAVEN,-36.91,144.21166666666667
RAVON,-31.595,116.53166666666667
RAYMO,-31.698333333333334,115.88333333333334
RAYNA,-34.63666666666667,138.60666666666665
REDDO,-13.075,131.06666666666666
REDIL,-31.873333333333335,116.09166666666667
REEKN,-27.351666666666667,153.25
REIDS,-30.673333333333332,117.11166666666666
REKSO,-15.0,115.13833333333334
RELAY,-31.776666666666667,115.97666666666667
RENER,-37.705,144.73
REPAN,-3.4816666666666665,76.89333333333333
RETAL,-29.46,117.095
RICHO,-25.586666666666666,153.96333333333334
RIDAL,-37.495,144.72833333333332
RIDGE,-27.743333333333332,133.46
RIGMI,-32.20166666666667,163.0
RILEY,-33.943333333333335,149.44166666666666
RILLA,-29.531666666666666,122.015
RIPNA,-14.0,158.41666666666666
RISOL,-34.22,151.21666666666667
ROBBI,-15.843333333333334,125.145
ROBIN,-12.846666666666666,131.435
ROCEL,-37.755,145.01833333333335
ROCKY,-29.155,167.78666666666666
RODES,-41.638333333333335,147.17
ROESA,-38.0,147.32166666666666
ROGGS,-35.06166666666667,138.905
ROGUE,-34.596666666666664,138.09
ROHAN,-39.24,144.16333333333333
ROKDL,-37.59166666666667,144.82333333333332
ROLEY,-32.125,116.06
ROLFE,-17.216666666666665,146.165
ROSMO,-31.445,116.74166666666666
ROTTO,-13.205,125.24333333333334
ROWLO,-26.14666666666667,150.915
ROXEY,-37.461666666666666,144.70666666666668
RUDEY,-27.386666666666667,152.39
RUGGA,-17.198333333333334,137.885
RUNDA,-34.943333333333335,146.39
RUNNA,-33.265,150.78833333333333
RUNOD,-36.156666666666666,163.0
RUSSL,-34.31333333333333,139.18333333333334
SABEK,-2.1416666666666666,77.89333333333333
SADUD,-13.558333333333334,106.96
SAILA,-28.108333333333334,153.59666666666666
SALEM,-41.876666666666665,146.29333333333332
SALLY,-37.43666666666667,144.91666666666666
SAMMY,-16.178333333333335,132.62833333333333
SAMSN,-27.321666666666665,152.87833333333333
SANDI,-26.29,151.81666666666666
SANDR,-37.55166666666667,145.01
SANDY,-17.89666666666667,125.61
SASRO,-38.58,163.0
SATOS,-31.115,115.62166666666667
SAVAN,-19.403333333333332,141.68333333333334
SCAPA,-34.22833333333333,148.245
SCARR,-27.695,123.66166666666666
SCATZ,-32.655,150.255
SCOUT,-31.628333333333334,115.85
SCUBY,-16.095,129.90333333333334
SEALD,-12.685,130.95833333333334
SEEKR,-23.953333333333333,133.96833333333333
SELVA,-9.451666666666666,126.68
SENNA,-17.0,143.12166666666667
SERVE,-12.591666666666667,131.11833333333334
SHABY,-22.685,150.83666666666667
SHANA,-12.611666666666666,130.25166666666667
SHANO,-27.473333333333333,152.4
SHAWN,-23.74,134.065
SHEED,-37.73,144.915
SHEPO,-12.11,130.30333333333334
SHERI,-11.97,130.405
SHILL,-34.77166666666667,150.74666666666667
SHINN,-19.178333333333335,140.28833333333333
SHORE,-33.70333333333333,151.31
SHTPT,-16.75,145.83333333333334
SIDER,-12.8,129.59666666666666
SILVN,-34.46,140.24666666666667
SIMAS,-20.241666666666667,143.29333333333332
SIMMO,-28.286666666666665,153.58333333333334
SIMON,-38.135,144.64166666666668
SIMOS,-26.73,153.07166666666666
SIRUS,-29.128333333333334,168.09666666666666
SISTA,-30.953333333333333,119.16333333333333
SIZZL,-34.115,151.22
SLASH,-22.383333333333333,144.83166666666668
SLICK,-35.465,149.42666666666668
SLIVA,-28.345,152.01833333333335
SLOAN,-35.821666666666665,153.6
SMALL,-28.196666666666665,153.52666666666667
SNICK,-12.578333333333333,131.74333333333334
SNOKL,-12.423333333333334,130.64666666666668
SNOOD,-15.158333333333333,134.385
SNOOK,-31.681666666666665,116.45833333333333
SNOPY,-29.083333333333332,154.17333333333335
SNOWY,-36.535,147.845
SOFAL,-33.001666666666665,149.77333333333334
SOFIE,-39.31666666666667,144.59333333333333
SOLLI,-20.5,131.26333333333332
SOLUS,-32.48166666666667,116.27833333333334
SONIA,-34.07,151.22
SOOTY,-27.408333333333335,152.61166666666668
SORCE,-30.455,147.59166666666667
SPARK,-28.905,153.67833333333334
SPEAR,-20.346666666666668,137.74333333333334
SPEER,-27.605,131.925
SPENA,-34.26166666666666,136.90666666666667
SPIES,-23.893333333333334,133.70833333333334
SPITY,-31.076666666666668,116.00833333333334
SPLIZ,-27.616666666666667,153.13166666666666
SPUDO,-31.825,116.18666666666667
STAKE,-27.375,153.00833333333333
STANG,-31.226666666666667,115.66333333333333
STEVO,-37.791666666666664,144.77
STOES,-13.448333333333334,131.785
STORK,-38.04333333333334,146.705
STUIE,-12.776666666666667,131.485
STURT,-28.723333333333333,117.96333333333334
SUANN,-18.243333333333332,129.99833333333333
SULON,-39.858333333333334,163.0
SUNIL,-16.933333333333334,127.89833333333333
SUNIX,-14.188333333333333,134.92333333333335
SUZIE,-38.068333333333335,145.20666666666668
SWAGY,-24.0,110.0
SWATT,-12.428333333333333,130.635
SWEED,-26.225,138.39
SWELL,-36.13333333333333,139.65166666666667
SWESS,-32.10666666666667,115.76
SWETI,-12.598333333333333,130.70166666666665
SWITA,-35.05,138.13833333333332
SYBIL,-12.575,130.77166666666668
TABLO,-36.96666666666667,151.985
TAITE,-38.525,144.47333333333333
TALIS,-28.976666666666667,151.79166666666666
TAMBO,-37.46,147.82666666666665
TAMED,-14.92,144.085
TAMMI,-34.10166666666667,150.82833333333335
TANYA,-19.56,138.96666666666667
TAPIO,-32.965,152.07166666666666
TARES,-22.685,149.97333333333333
TARUN,-12.0,116.91833333333334
TASEG,-32.193333333333335,144.18
TASMA,-40.0,146.07333333333332
TEDDY,-14.74,141.57666666666665
TEENA,-37.785,144.45
TEEVE,-32.00833333333333,116.07333333333334
TEPPA,-12.255,130.695
TERIK,-24.631666666666668,145.065
TERRA,-28.24,153.55333333333334
TEXAN,-19.011666666666667,137.49
TEZZA,-27.075,152.21666666666667
THENA,-28.223333333333333,142.00666666666666
THOMO,-19.691666666666666,145.24
THRUM,-40.5,144.88166666666666
TIABB,-12.658333333333333,130.76666666666668
TIBAL,-35.005,138.72166666666666
TIEGA,-35.05833333333333,142.21
TIGGA,-27.726666666666667,141.08
TILLI,-31.828333333333333,137.075
TIMBO,-32.17333333333333,151.46166666666667
TIMMY,-32.11833333333333,115.91333333333333
TINAH,-21.605,141.755
TINEN,-12.668333333333333,130.93833333333333
TINGL,-27.558333333333334,153.21166666666667
TODDS,-28.765,139.26833333333335
TOKIP,-27.636666666666667,114.81333333333333
TOMAS,-13.436666666666667,130.01333333333332
TONTO,-34.29333333333334,150.645
TOOKI,-33.26833333333333,151.56333333333333
TOONA,-28.906666666666666,155.37
TOREN,-34.89333333333333,138.435
TORIA,-17.97,145.11333333333334
TORRA,-31.423333333333332,138.12
TOTTY,-17.24,145.64333333333335
TOUDA,-27.238333333333333,140.185
TRAIL,-15.746666666666666,145.68333333333334
TRAVI,-12.988333333333333,130.54
TREBL,-26.858333333333334,136.53833333333333
TREES,-32.0,110.0
TREST,-34.88333333333333,144.42166666666665
TREVR,-37.778333333333336,147.255
TRIGG,-31.881666666666668,115.685
TROFE,-29.431666666666665,120.0
TROTS,-34.79333333333334,138.585
TRUDY,-16.095,143.26166666666666
TRUKA,-13.973333333333333,133.46833333333333
TRUMP,-33.885,139.80833333333334
TUCAB,-29.48,153.26833333333335
TUCKI,-28.921666666666667,153.37
TUMAN,-34.60333333333333,140.29666666666665
TUMBL,-11.913333333333334,130.74166666666667
TURET,-19.951666666666668,123.68
TURTS,-12.341666666666667,130.665
TUSKY,-20.766666666666666,121.69166666666666
TUTEN,-37.40833333333333,145.17833333333334
TWIST,-15.735,125.035
TYERS,-37.91,148.18166666666667
TYGON,-34.03333333333333,148.27333333333334
UGAVI,-23.421666666666667,124.97333333333333
UGENE,-12.225,130.81
UNDER,-29.0,110.0
URAMU,-26.763333333333332,120.45166666666667
UTTOX,-12.65,130.61
VALDA,-25.961666666666666,144.56666666666666
VALDZ,-23.45,141.69666666666666
VALES,-37.365,145.34833333333333
VALLI,-17.003333333333334,145.81
VANDI,-12.345,131.755
VEPAS,-34.413333333333334,163.0
VERRY,-27.216666666666665,153.225
VILLA,-28.49,152.53666666666666
VILOD,-30.761666666666667,117.04
VINCN,-34.945,138.36
VIOLA,-37.096666666666664,145.05
VISAS,-23.97833333333333,120.91333333333333
VONDO,-28.301666666666666,152.39666666666668
VONNI,-33.215,151.405
VOSSI,-33.60666666666667,150.79833333333335
WAKEN,-34.135,138.24166666666667
WALLI,-29.458333333333332,120.49
WARMN,-16.996666666666666,128.19333333333333
WATLE,-33.92166666666667,150.42
WATTO,-26.686666666666667,151.03166666666667
WAYNS,-31.78,116.51333333333334
WAZZA,-36.79833333333333,146.63
WEAVA,-32.285,148.14666666666668
WEIRD,-38.19166666666667,147.33333333333334
WELES,-12.455,131.00333333333333
WELKE,-21.631666666666668,149.60333333333332
WELLI,-27.5,153.25166666666667
WELSH,-34.135,150.30833333333334
WESTI,-31.921666666666667,115.70666666666666
WHALE,-33.985,151.57833333333335
WHEBB,-28.61,120.0
WHOOL,-27.348333333333333,120.0
WICKA,-28.255,151.96166666666667
WILAM,-28.186666666666667,120.0
WILLS,-25.39666666666667,137.98333333333332
WILLY,-32.78333333333333,145.895
WINDA,-27.77,120.0
WIRAL,-27.775,118.46
WIRMA,-31.366666666666667,136.32833333333335
WOBBL,-27.556666666666665,152.42
WODJA,-12.293333333333333,131.04166666666666
WOKKA,-36.68666666666667,139.66666666666666
WOKKI,-12.33,130.89333333333335
WOLAG,-26.571666666666665,115.26666666666667
WONGA,-37.72,145.25333333333333
WONSA,-22.0,110.0
WOODS,-24.81,118.10833333333333
WOOFA,-12.281666666666666,132.26
WOOFY,-31.858333333333334,115.815
WUDOF,-12.226666666666667,130.84166666666667
WUNGO,-32.19833333333333,116.02833333333334
WVFRN,-16.888333333333332,145.69333333333333
WVFRS,-16.956666666666667,145.71833333333333
WYATT,-33.905,149.94333333333333
WYLOO,-22.806666666666665,116.26333333333334
YAKKA,-33.19166666666667,151.22333333333333
YANCO,-35.278333333333336,145.73166666666665
YARDD,-17.338333333333335,137.155
YARRA,-37.84166666666667,144.87
YINGA,-27.735,119.29166666666667
YUNGA,-31.75,116.15333333333334
ZIPPY,-33.23833333333334,138.095
ZOCCA,-11.245,127.22
ZONKA,-33.958333333333336,151.11333333333334
ZORBA,-17.003333333333334,146.05333333333334
ZWEKY,-11.785,130.7
