IDENT,LATITUDE,LONGITUDE
16DEL,30.840105555555557,-105.38086111111112
ABBOT,24.151666666666667,-94.56916666666666
ACA01,16.761247222222224,-99.77061666666667
ACA04,16.821141666666666,-99.59275277777778
ACA05,16.729819444444445,-99.67230833333333
ACA06,16.774741666666667,-99.87438055555556
ACA08,16.675963888888887,-99.6444361111111
ACA09,16.60448611111111,-99.62
ACA10,16.71834722222222,-99.63965555555555
ACA11,16.630158333333334,-99.64231111111111
ACA12,16.79671388888889,-99.95875277777778
ACA13,16.806244444444445,-100.00996111111111
ACA14,16.701133333333335,-99.59067777777778
ACA16,16.952569444444446,-99.699925
ACA18,16.7479,-99.724
ACA19,16.903480555555557,-99.6669888888889
ACA20,16.643663888888888,-99.42749166666667
ACA23,16.710763888888888,-99.86508888888889
ACA24,16.932475,-99.64957777777778
ACA26,16.752555555555556,-99.92766944444445
ACA27,16.780805555555556,-99.87341388888889
ACA30,16.712611111111112,-99.62332777777777
ACA31,16.953619444444445,-99.9182111111111
ACA35,17.009663888888888,-99.75396388888889
ACA41,16.712641666666666,-99.62341666666667
ACA43,16.734391666666667,-99.6708
ACA44,16.74952777777778,-99.7241138888889
ACA50,16.7326,-99.671375
ACA52,16.925933333333333,-99.75396388888889
ACA57,17.001091666666667,-99.68639722222223
ACA70,16.78958611111111,-99.8719611111111
ACA71,16.920222222222222,-99.7089388888889
ACA78,16.776975,-99.47650833333333
ACA80,16.71863611111111,-99.62018055555555
ACA96,16.777072222222223,-99.89167777777777
ACA97,16.67241388888889,-99.50907222222222
ACA98,16.80456388888889,-99.92108611111111
ACA99,16.726127777777776,-99.637025
ACREW,25.91,-97.6625
AGAVE,18.234444444444446,-92.45666666666666
AGUAS,24.92888888888889,-98.12222222222222
AJORO,22.807222222222222,-105.65694444444445
ALANS,17.275,-100.19472222222223
ALARD,23.910833333333333,-89.81027777777778
ALESA,17.410833333333333,-96.22666666666667
ALILI,22.6325,-105.82944444444445
ALIPA,21.29138888888889,-102.0275
ALIPO,18.545,-101.29305555555555
ALITA,19.49361111111111,-98.39
ALNEN,22.200833333333332,-106.38388888888889
ALOBA,17.93,-92.07083333333334
ALOMA,22.001944444444444,-101.28666666666666
ALORI,21.6125,-88.21638888888889
ALOSA,17.95916666666667,-92.38222222222223
ALOVA,24.49888888888889,-110.41777777777777
ALOVO,23.54388888888889,-101.30527777777777
ALPOM,20.703333333333333,-90.57277777777777
ALTAR,32.23730833333333,-115.00445833333333
ALUEN,18.42361111111111,-94.04416666666667
ALURU,22.465833333333332,-86.0
ALUXO,27.80611111111111,-100.41055555555556
AMARI,23.613888888888887,-110.04055555555556
AMATE,27.008055555555554,-109.4811111111111
AMEKA,20.356944444444444,-104.30527777777777
AMEKU,18.4975,-98.98638888888888
AMEXI,22.65888888888889,-101.04694444444445
AMIPI,22.625833333333333,-90.64888888888889
AMITA,21.524166666666666,-87.34472222222222
AMOKA,24.80388888888889,-109.78472222222223
AMOMO,25.1525,-107.64444444444445
AMORA,19.559444444444445,-96.16944444444445
AMORI,24.96472222222222,-97.24027777777778
AMOVA,21.279444444444444,-101.81166666666667
AMUKI,29.516111111111112,-104.29416666666667
AMULA,21.639166666666668,-103.6763888888889
ANAKU,28.17867222222222,-109.13200833333333
ANAPU,23.619166666666665,-108.23222222222222
ANATA,25.671666666666667,-102.96194444444444
ANENA,28.956666666666667,-114.09277777777778
ANERO,29.212777777777777,-105.89444444444445
ANETU,28.435555555555556,-106.1836111111111
ANEVU,19.593611111111112,-100.28583333333333
ANIDA,20.235555555555557,-101.18777777777778
ANILA,21.50777777777778,-101.83027777777778
ANILO,21.916944444444443,-97.66194444444444
ANTEL,29.799166666666668,-113.60888888888888
APLAM,19.996388888888887,-104.14
APN17,19.507905555555556,-98.66585833333333
APN18,19.559019444444445,-98.70546666666667
APN26,19.439280555555555,-98.80716944444444
ARENA,26.046388888888888,-109.45305555555555
ARGON,25.136666666666667,-105.9575
ARGUS,24.65972222222222,-96.21527777777777
ARIEL,21.585555555555555,-90.21888888888888
ASUTA,32.64694444444444,-115.71944444444445
AUTLA,15.64638888888889,-96.16416666666667
AVASA,22.68138888888889,-89.7461111111111
AVAVU,23.15222222222222,-109.26833333333333
AVENA,32.269444444444446,-116.455
AVINA,16.69611111111111,-95.83666666666667
AVIVI,20.197222222222223,-95.0
AVRIK,20.873055555555556,-101.05694444444444
AVROD,20.81972222222222,-103.40805555555555
AVROX,18.002777777777776,-101.60055555555556
AVRUT,21.685555555555556,-86.95583333333333
AVSAR,20.739722222222223,-98.935
AVSEN,22.641944444444444,-97.6225
AVSIL,31.190833333333334,-106.35027777777778
AVSOG,23.845,-109.24333333333334
AVSUB,21.423333333333332,-99.41277777777778
AVSUV,20.640833333333333,-104.81361111111111
AVTAS,21.74861111111111,-91.01944444444445
AVTOK,20.745,-95.0
AVTUD,18.3225,-95.34277777777778
AVTUX,18.726666666666667,-96.19833333333334
AVUMO,23.22138888888889,-97.95333333333333
AVUVA,25.304444444444446,-103.0475
AXABA,23.73361111111111,-102.91583333333334
AXABO,23.612222222222222,-105.46777777777778
AXAKO,18.448055555555555,-101.74111111111111
AXEDO,23.511388888888888,-100.93
AXELI,19.099166666666665,-95.75055555555555
AXENI,20.432777777777776,-86.495
AXEPA,31.648888888888887,-115.27916666666667
AXESU,23.410555555555554,-99.82388888888889
AXIGI,31.374166666666667,-116.98527777777778
AXIMA,19.447222222222223,-89.86611111111111
AXITO,19.421388888888888,-104.90694444444445
AXOBI,20.19527777777778,-101.27527777777777
AXOKA,21.1375,-107.51972222222223
AXOMU,21.069444444444443,-95.0
AXORO,19.516111111111112,-96.3861111111111
AXUKU,20.781666666666666,-90.89361111111111
BALCE,23.003888888888888,-109.29583333333333
BAMPO,27.085555555555555,-109.69722222222222
BASKO,18.838055555555556,-93.3425
BENAT,18.053055555555556,-92.38388888888889
BERAN,14.125833333333333,-100.36083333333333
BEROS,24.816111111111113,-100.92972222222222
BESUV,23.314722222222223,-98.84694444444445
BETER,19.880833333333335,-98.27472222222222
BEXOX,30.44451111111111,-110.99141666666667
BIBIN,29.48241388888889,-108.5
BLASK,20.985277777777778,-105.3825
BOLTA,19.2675,-95.76805555555555
BONUX,22.378888888888888,-103.40277777777777
BRISA,21.856666666666666,-104.78666666666666
BRO09,25.916097222222223,-97.54152777777777
BRUJA,23.48638888888889,-106.68388888888889
CALIZ,24.154444444444444,-103.23166666666667
CAPUL,26.147222222222222,-109.27694444444444
CARPA,22.729166666666668,-92.11333333333333
CARRI,32.35805555555555,-116.4011111111111
CAYOS,20.313055555555554,-92.04916666666666
CEDRO,23.280277777777776,-88.08805555555556
CEIBA,30.271944444444443,-105.74555555555555
CHINO,24.938333333333333,-99.10555555555555
CLONN,25.633333333333333,-95.51666666666667
COBRE,29.181944444444444,-106.13888888888889
COKER,24.966666666666665,-93.88833333333334
COMAL,20.600833333333334,-104.2838888888889
CONDE,22.673055555555557,-100.93027777777777
COPAS,25.28,-109.4
COQUI,29.934675,-112.41090277777778
CORAL,21.83388888888889,-93.79333333333334
CORSA,23.509166666666665,-105.65222222222222
COSCO,21.397777777777776,-87.05888888888889
COTIL,17.19638888888889,-99.50138888888888
COYOL,22.212777777777777,-100.48277777777778
CTM05,18.529530555555557,-88.41880833333333
CTM07,18.537613888888888,-88.452875
CTM08,18.541652777777777,-88.46991111111112
CTM30,18.584163888888888,-88.45010277777777
CTM50,18.475230555555555,-88.25350277777778
CTM70,18.461594444444444,-88.22145277777778
CTM80,18.45477222222222,-88.20543055555555
CTM92,18.495244444444445,-88.19403055555556
CUN02,20.944355555555557,-86.68267222222222
CUN03,20.892694444444444,-86.72270277777778
CUN04,20.985769444444443,-86.80107777777778
CUN05,21.16204722222222,-87.08275555555555
CUN07,21.05378333333333,-86.66511944444444
CUN08,20.946413888888888,-86.74347222222222
CUN10,21.121083333333335,-86.82744444444444
CUN11,21.125563888888887,-87.02295833333334
CUN12,21.143002777777777,-87.03181111111111
CUN13,21.201969444444444,-86.80463611111111
CUN14,21.159713888888888,-86.72485277777778
CUN15,21.21722777777778,-87.03071388888888
CUN16,20.966094444444444,-86.77227222222223
CUN18,20.926266666666667,-86.87726666666667
CUN19,20.936569444444444,-86.729075
CUN20,20.916880555555554,-86.70028611111111
CUN21,20.93393888888889,-86.70939166666666
CUN22,21.046736111111112,-86.89043055555555
CUN25,21.004208333333334,-86.96326111111111
CUN29,21.13885,-87.09700833333333
CUN30,21.123366666666666,-87.00294444444444
CUN31,21.08407777777778,-86.94523055555555
CUN35,21.12508888888889,-86.86803888888889
CUN36,20.898825,-86.74193333333334
CUN37,20.823016666666668,-86.67195555555556
CUN41,21.184177777777776,-86.70048888888888
CUN42,20.876208333333334,-86.74364166666666
CUN48,20.84389722222222,-86.89270555555555
CUN51,21.20809722222222,-86.87922777777777
CUN52,20.986744444444444,-87.05035833333334
CUN67,21.024994444444445,-87.05468888888889
CUN69,21.08186388888889,-86.67226388888889
CUN70,21.056091666666667,-86.75703333333334
CUN75,21.112544444444445,-87.00070833333334
CUN77,21.058972222222224,-86.62991111111111
CUN78,21.05695,-86.66568055555555
CUN79,21.040775,-86.75312777777778
CUN80,21.103725,-86.97408333333334
CUN84,20.81095,-86.89887777777778
CUN85,20.843369444444445,-86.8893361111111
CUN90,21.07671388888889,-87.02821388888889
CUN95,21.064427777777777,-86.91638611111111
CUN96,21.071561111111112,-87.01125833333333
CUN97,21.118458333333333,-86.99572777777777
CUN98,20.970422222222222,-86.7691
CUN99,20.949347222222222,-86.78862222222222
CUPTE,21.099722222222223,-86.47666666666667
CZM04,20.686269444444445,-86.89536111111111
CZM05,20.543691666666668,-87.01505
CZM06,20.687394444444443,-86.90145
CZM07,20.449944444444444,-86.831375
CZM11,20.480655555555554,-86.79421111111111
CZM12,20.645569444444444,-86.76123055555556
CZM13,20.43963611111111,-86.81739722222223
CZM14,20.378552777777777,-86.83784722222222
CZM17,20.354691666666668,-86.932375
CZM18,20.470555555555556,-86.85933888888889
CZM19,20.365775,-86.99289166666667
CZM20,20.583266666666667,-86.86866111111111
CZM21,20.38843333333333,-87.03605
CZM22,20.419016666666668,-86.78944444444444
CZM23,20.44526388888889,-87.04558333333334
CZM24,20.565275,-87.10084444444445
CZM25,20.49757222222222,-87.014225
CZM26,20.48458611111111,-87.21055555555556
CZM27,20.552330555555557,-87.04936388888889
CZM29,20.598783333333333,-87.0457
CZM32,20.665525,-87.02088055555555
CZM33,20.666911111111112,-87.01814722222223
CZM35,20.436344444444444,-87.01405833333334
CZM40,20.607741666666666,-86.84440277777777
CZM41,20.644444444444446,-86.80799722222223
CZM46,20.283533333333335,-86.80049444444444
CZM47,20.624997222222223,-86.78925833333334
CZM50,20.48776388888889,-87.04819722222223
CZM51,20.47303888888889,-87.09914722222223
CZM56,20.47073333333333,-87.2082638888889
CZM58,20.5869,-86.80498055555556
CZM70,20.57883888888889,-86.82045
CZM72,20.454825,-87.03112222222222
CZM78,20.55664722222222,-87.06652222222222
CZM89,20.35832222222222,-86.96618333333333
CZM91,20.359744444444445,-86.97219166666666
CZM92,20.372994444444444,-87.00981388888889
CZM94,20.355008333333334,-86.93856111111111
CZM95,20.55908611111111,-87.21069166666666
CZM99,20.487172222222224,-86.7555111111111
DANGO,22.0975,-102.66166666666666
DANIS,19.240833333333335,-89.52555555555556
DANOP,24.421944444444446,-107.21638888888889
DATAS,20.849463888888888,-86.80499166666667
DATUL,20.663611111111113,-98.61305555555556
DELIN,26.54361111111111,-110.71638888888889
DERVI,19.088055555555556,-99.6061111111111
DESCO,23.7975,-93.94638888888889
DEVOE,26.54388888888889,-99.17
DIANE,21.165277777777778,-90.51527777777778
DIMAS,23.815555555555555,-107.105
DOTOR,25.779166666666665,-99.20722222222223
DRAGO,23.145833333333332,-103.06472222222222
DUNEX,28.941666666666666,-111.495
DUNKO,26.783055555555556,-112.94361111111111
DUNOS,28.469166666666666,-114.65277777777777
DUPLO,18.554444444444446,-95.275
DUPOL,30.808333333333334,-115.35138888888889
DURDO,15.74638888888889,-96.13305555555556
DURLI,22.903055555555554,-91.33666666666667
DURTU,24.498333333333335,-110.29527777777778
DUSBI,20.558888888888887,-87.3725
DUSDO,22.9375,-109.32972222222222
DUSLO,20.46638888888889,-89.46638888888889
DUSPI,23.2025,-97.77777777777777
DUSVI,29.828333333333333,-104.59138888888889
DUTMU,25.15861111111111,-107.32888888888888
DUTRO,28.830833333333334,-106.90194444444444
DUVES,28.635277777777777,-106.42972222222222
DUVRO,25.906111111111112,-101.06666666666666
EBDER,25.48111111111111,-103.86083333333333
EBDOL,19.525833333333335,-104.38083333333333
EBGAB,18.10611111111111,-101.7875
EDGAR,22.179444444444446,-88.12277777777778
EKOGE,31.71530277777778,-106.5207361111111
ELIXI,25.315277777777776,-98.45388888888888
ELOGO,18.814722222222223,-95.19888888888889
ELOPA,20.616944444444446,-92.125
ELURA,20.488333333333333,-95.0
ELUSA,27.6675,-108.03916666666667
EMADA,17.816666666666666,-90.9
EMANA,25.8775,-107.055
EMIRA,23.594722222222224,-101.91444444444444
EMOBI,19.49388888888889,-93.47694444444444
EMORO,22.697222222222223,-97.76972222222223
EMOSA,21.822516666666665,-85.90815833333333
EMOSO,22.693333333333335,-106.07777777777778
EMUDA,23.603055555555557,-102.01861111111111
ENATA,26.899722222222223,-109.91722222222222
ENEKO,24.31222222222222,-109.42583333333333
ERBOS,20.566944444444445,-102.08416666666666
ETNAS,19.2025,-95.7525
EVANS,21.786944444444444,-87.83722222222222
EVATE,24.989722222222223,-107.86361111111111
EVDIN,27.731666666666666,-108.1275
FITOS,19.205833333333334,-104.13444444444444
FLORI,23.244722222222222,-106.62194444444444
FOBOS,24.433611111111112,-103.78722222222223
FOVUD,26.0125,-98.09138888888889
FRESA,20.59888888888889,-100.98083333333334
GABLA,26.011666666666667,-100.5988888888889
GABLI,22.36,-102.10166666666667
GABNU,17.926111111111112,-101.8775
GABOS,28.60527777777778,-107.74666666666667
GADET,19.775,-100.60027777777778
GADMI,31.419166666666666,-106.84416666666667
GADVU,22.230833333333333,-88.79805555555555
GAMOS,23.573611111111113,-106.57805555555555
GAONA,18.8275,-98.37611111111111
GARES,17.69388888888889,-97.78861111111111
GODOY,24.912777777777777,-111.13027777777778
GOLFO,31.070833333333333,-114.32694444444445
GOTAS,19.294444444444444,-95.05777777777777
GOYAS,21.122777777777777,-103.15666666666667
GRUTA,17.586388888888887,-92.87972222222223
GUAMA,21.21638888888889,-85.86694444444444
HORNO,26.63722222222222,-101.92111111111112
HORTA,21.834722222222222,-101.51916666666666
HULLA,22.744722222222222,-103.24194444444444
ICARO,15.098333333333333,-95.76055555555556
IDEAL,23.380555555555556,-101.75527777777778
IKDOX,28.724444444444444,-108.5
IKURA,22.02611111111111,-89.195
IMAPA,29.113122222222223,-107.58634166666667
IMARA,19.00611111111111,-95.77277777777778
IMITO,15.796111111111111,-93.99694444444444
IMOSO,22.075833333333332,-102.9025
INDIO,25.41611111111111,-108.6025
IPSAG,25.82638888888889,-103.04916666666666
IPSEB,25.38138888888889,-110.54527777777778
IPSIS,23.363333333333333,-99.33777777777777
IPSUM,15.126388888888888,-93.66027777777778
IPTAK,18.909444444444446,-95.82444444444444
IPTEX,17.839444444444446,-101.93944444444445
IPTIT,23.10472222222222,-91.39277777777778
IPTUN,22.17527777777778,-98.29583333333333
IRBEK,28.86138888888889,-108.5
IRBIX,31.22277777777778,-106.21833333333333
IRBOT,16.95111111111111,-97.07916666666667
IRBUR,24.99861111111111,-101.15166666666667
IREKO,23.483333333333334,-100.64722222222223
ISARO,21.377222222222223,-90.41555555555556
ISLAS,23.1625,-106.63361111111111
ISTMO,16.870555555555555,-96.39972222222222
JALIL,30.53361111111111,-108.5
JEREZ,22.629722222222224,-98.12361111111112
JOYAS,32.23027777777778,-116.80805555555555
KANAL,17.307222222222222,-96.10166666666667
KANOX,17.780833333333334,-99.77555555555556
KANTR,31.683058333333335,-106.56555277777778
KARIS,28.420833333333334,-105.7525
KARIX,25.27638888888889,-108.74833333333333
KATIS,11.98611111111111,-98.41777777777777
KATLA,24.81361111111111,-102.83222222222223
KATLI,25.42388888888889,-106.38
KATRA,16.651666666666667,-99.42416666666666
KAVLA,31.68638888888889,-116.13944444444445
KEDMA,21.74,-104.65611111111112
KEHLI,24.48611111111111,-89.84027777777777
KINOL,28.596119444444444,-111.40121388888889
KOBEK,20.369444444444444,-99.85944444444445
KOBOS,23.499444444444446,-109.48083333333334
KONLA,19.908055555555556,-93.52833333333334
KUMAN,21.286944444444444,-89.4263888888889
KUMOC,21.173055555555557,-86.4186111111111
LAGOS,20.066666666666666,-102.7936111111111
LATIN,31.747569444444444,-106.47583888888889
LAZOS,20.98,-105.55916666666667
LENUK,22.630555555555556,-86.0
LEONA,24.065833333333334,-99.35472222222222
LERAS,25.909166666666668,-103.6675
LEREN,24.98638888888889,-104.17611111111111
LERMA,20.189166666666665,-90.99722222222222
LEROK,20.173055555555557,-103.08722222222222
LEROX,22.773055555555555,-104.05361111111111
LESER,21.12,-86.8938888888889
LESIS,23.003333333333334,-91.58777777777777
LETER,22.884722222222223,-109.36916666666667
LETIL,21.897222222222222,-98.01444444444445
LETIS,21.52861111111111,-86.39
LETOL,26.70777777777778,-106.735
LEXOR,20.89638888888889,-97.75277777777778
LEXUR,18.738055555555555,-96.29138888888889
LIBAR,23.61888888888889,-102.21638888888889
LIBET,19.821944444444444,-104.22972222222222
LIBOR,19.374166666666667,-98.90416666666667
LIBOX,25.229444444444443,-98.1525
LIDAK,25.857222222222223,-100.7088888888889
LIDAM,21.97972222222222,-95.0
LIDAR,19.974722222222223,-96.13416666666667
LIDIK,24.691944444444445,-107.11916666666667
LIDOX,22.095277777777778,-101.34527777777778
LILAS,26.088333333333335,-109.3963888888889
LIMBO,19.390833333333333,-99.72666666666667
LIVRO,26.48138888888889,-106.4325
LLANO,22.644166666666667,-102.00583333333333
LOBOS,19.058333333333334,-99.22916666666667
LOKMA,20.991944444444446,-88.10805555555555
LOMSA,23.776666666666667,-100.93
LORES,29.073333333333334,-105.59333333333333
LUCAS,27.77638888888889,-111.31611111111111
LULIS,21.87527777777778,-90.20416666666667
LUNAS,21.870833333333334,-101.10083333333333
MALPA,24.02611111111111,-98.85944444444445
MANTA,21.30527777777778,-101.34861111111111
MANUN,28.39527777777778,-106.06888888888889
MANUS,24.23111111111111,-109.76277777777777
MAPAN,21.272222222222222,-87.09861111111111
MAPAR,19.837777777777777,-103.94416666666666
MAPEN,18.683611111111112,-98.21277777777777
MAPIL,22.704722222222223,-97.82444444444444
MAREN,25.682222222222222,-111.86583333333333
MAREX,19.905833333333334,-104.91027777777778
MARTE,24.5,-91.78472222222223
MARUS,21.815,-90.59416666666667
MARUX,23.9075,-109.52916666666667
MASAS,16.441388888888888,-96.9011111111111
MASIL,27.330277777777777,-107.57611111111112
MASON,32.358333333333334,-114.8638888888889
MATAS,20.145833333333332,-103.66111111111111
MATEH,23.566944444444445,-100.6275
MATOL,23.8775,-93.83944444444444
MAVED,22.599444444444444,-104.69972222222222
MAVIL,21.268333333333334,-86.79305555555555
MAXIL,17.3125,-96.98277777777778
MAXUL,18.893333333333334,-100.07722222222222
MEBAS,18.6025,-97.67833333333333
MEBIS,25.981944444444444,-101.63777777777777
MEDIR,22.246111111111112,-89.72333333333333
MEDOS,20.743055555555557,-93.40611111111112
MEDUX,21.774444444444445,-86.15611111111112
MEMDI,16.897222222222222,-97.86527777777778
MENVI,23.406388888888888,-109.3675
MERLO,18.95861111111111,-104.18027777777777
MESNA,21.950277777777778,-89.70805555555556
MEVIL,19.128888888888888,-98.85333333333334
MEX04,19.405866666666668,-99.12786388888888
MEX05,19.481177777777777,-98.99034722222223
MEX10,19.522925,-98.91397222222223
MEX11,19.347244444444446,-99.23469444444444
MEX12,19.539627777777778,-98.88339166666667
MEX17,19.581358333333334,-98.8069111111111
MEX18,19.421805555555554,-99.09258055555556
MEX52,19.522980555555556,-98.91386944444444
MEZCA,21.317777777777778,-102.65027777777777
MID05,20.912180555555555,-89.57156666666667
MID08,20.896641666666667,-89.52078888888889
MID09,20.88627222222222,-89.48694166666667
MID21,20.84675,-89.55210833333334
MID26,20.91936388888889,-89.79726111111111
MID50,20.956777777777777,-89.74444722222222
MID51,20.93888888888889,-89.66656944444445
MID88,20.9691,-89.79478333333333
MIDSU,28.403333333333332,-106.53027777777778
MILPA,22.488055555555555,-100.53944444444444
MINAS,29.211388888888887,-106.01916666666666
MIRAM,31.791133333333335,-114.74301666666666
MISAS,18.485833333333332,-95.91722222222222
MISEX,27.985833333333332,-106.75555555555556
MISIS,21.338333333333335,-85.93
MITAN,28.885277777777777,-105.68
MITAS,20.84777777777778,-105.56111111111112
MITIN,22.305555555555557,-102.84722222222223
MIURA,28.673333333333332,-110.7461111111111
MIXUN,21.16611111111111,-87.19222222222223
MOCUK,21.088055555555556,-89.33888888888889
MODOL,27.135555555555555,-104.0175
MOGEL,24.2025,-99.01777777777778
MONTE,23.875555555555554,-99.87805555555556
MORAS,22.16111111111111,-99.58361111111111
MORSA,23.80527777777778,-109.74638888888889
MUNDA,21.595833333333335,-91.96777777777778
MYDIA,24.040555555555557,-86.15805555555555
NABIL,23.19445,-103.04351944444444
NADIA,26.648333333333333,-104.81361111111111
NADOR,23.276666666666667,-98.39055555555555
NAMTA,18.6675,-100.9413888888889
NICOS,16.95,-100.14055555555555
NOGAL,18.470555555555556,-99.68638888888889
NORAL,23.655555555555555,-106.19333333333333
NORAR,32.38777777777778,-115.63888888888889
NOREL,19.03527777777778,-95.13416666666667
NOSAT,21.96361111111111,-85.9811111111111
NOSOL,19.394166666666667,-104.87305555555555
NOSUK,20.887777777777778,-101.91305555555556
NOTAL,26.541666666666668,-100.21861111111112
NOTAR,22.435833333333335,-104.25166666666667
NOTOR,21.883055555555554,-97.76388888888889
NOVEK,24.333969444444445,-104.36601388888889
NOXIS,24.716944444444444,-103.75527777777778
NUBEL,21.017777777777777,-95.28
NUDAL,21.263055555555557,-85.62027777777777
NUDIK,19.67972222222222,-91.8925
NUDOS,16.329444444444444,-96.24972222222222
NUGED,18.76638888888889,-103.78944444444444
NUGUS,25.07,-97.6
NUKAR,18.02611111111111,-93.25527777777778
NUKAS,21.051944444444445,-89.26555555555555
NULEY,24.05638888888889,-89.51694444444445
NUMER,23.284444444444443,-91.04388888888889
NUXCO,17.7775,-100.62666666666667
OASIS,32.199444444444445,-116.51972222222223
OLEXU,24.544722222222223,-107.08777777777777
OLS05,31.333333333333332,-110.85
OLULA,17.946944444444444,-100.77333333333333
OMATO,17.59638888888889,-95.55333333333333
OMBET,20.1125,-87.01083333333334
OMPAN,19.490555555555556,-95.0
OMVAB,17.148333333333333,-92.94472222222223
OMVAV,31.19972222222222,-106.29805555555555
ONBAD,19.358333333333334,-96.56722222222223
ONBIR,29.511111111111113,-111.01638888888888
ONBON,25.77611111111111,-99.73388888888888
ONBUL,22.244444444444444,-97.41555555555556
ONDAG,20.289722222222224,-105.08361111111111
ONDIS,23.189444444444444,-97.65638888888888
ONDOP,25.04861111111111,-101.26666666666667
ONDUM,32.23166666666667,-115.37777777777778
ONGEX,23.955833333333334,-109.75222222222222
ONGIT,20.84777777777778,-92.7213888888889
ONGOR,16.307777777777776,-92.69277777777778
ONGUN,20.938333333333333,-87.22583333333333
ONVES,25.601944444444445,-105.8825
ONVIP,16.178055555555556,-92.88444444444444
OPACO,27.170833333333334,-109.33416666666666
ORCAS,24.40388888888889,-110.6536111111111
ORFEO,18.70388888888889,-104.96833333333333
ORTIZ,28.747222222222224,-110.64222222222222
OTELO,22.684166666666666,-88.49277777777777
OTIDU,20.796388888888888,-86.59416666666667
OTILO,18.755277777777778,-96.0286111111111
OTITI,23.340833333333332,-99.10805555555555
OTOBA,23.293055555555554,-98.63666666666667
OTOVA,20.398055555555555,-104.92333333333333
OTU19,19.36211388888889,-98.927
OTUBO,29.386388888888888,-111.51805555555555
OTUNI,21.860833333333332,-87.6763888888889
OTUSA,20.86722222222222,-92.1875
OVALI,20.374166666666667,-102.80222222222223
OVALO,29.70277777777778,-109.99388888888889
OVAPA,20.141111111111112,-87.10944444444445
OVASU,24.18611111111111,-89.255
OVATO,20.573611111111113,-103.93222222222222
OVEMA,25.997777777777777,-99.83055555555555
OVEPU,31.189166666666665,-106.48777777777778
OVIBO,20.40277777777778,-95.0
PACOS,17.65361111111111,-99.23638888888888
PAGAY,20.525,-89.71472222222222
PALIA,23.51527777777778,-106.65472222222222
PALMA,21.015,-87.28083333333333
PAMAB,19.70138888888889,-100.62083333333334
PAMUL,20.773611111111112,-86.89416666666666
PAOLA,18.951666666666668,-99.38333333333334
PARRA,22.246666666666666,-87.64583333333333
PARTA,20.694166666666668,-103.81361111111111
PATOS,30.4125,-106.21833333333333
PENRA,26.394444444444446,-106.85638888888889
PENSO,18.398888888888887,-88.64861111111111
PERAS,18.118333333333332,-100.92166666666667
PERLA,21.017222222222223,-105.50861111111111
PERTI,26.1725,-108.72222222222223
PESPA,24.93111111111111,-102.53305555555555
PETRA,22.120555555555555,-96.24277777777777
PINTA,26.01388888888889,-105.815
PIRAR,20.83388888888889,-102.8925
PIROP,29.40111111111111,-111.37666666666667
PITIC,29.055833333333332,-110.5775
PIVAN,20.135555555555555,-100.72055555555555
PIVOL,21.211111111111112,-98.27666666666667
PIXON,24.680833333333332,-103.16888888888889
PLADE,27.1475,-107.80222222222223
PLAZA,19.393725,-99.14950555555555
POSTA,23.66,-106.29472222222222
POTRO,24.663611111111113,-107.92222222222222
POTSI,20.12388888888889,-99.31305555555555
POZOS,20.43611111111111,-103.83722222222222
PRESA,27.5175,-109.22694444444444
PULPO,21.3725,-107.37638888888888
R0226,21.04533888888889,-86.89101666666667
R1525,24.083891666666666,-110.36087777777777
R1526,23.16068611111111,-106.2515638888889
R1527,16.75996111111111,-99.763225
R1528,16.750744444444443,-99.733775
R1529,19.429094444444445,-99.08215555555556
R2807,20.93691388888889,-89.65747777777777
RABIL,21.947777777777777,-102.9413888888889
RADAS,25.545555555555556,-97.10138888888889
RAKAS,23.0,-95.5261111111111
REMIL,19.9725,-101.45861111111111
RENES,20.567777777777778,-89.45166666666667
RETOM,18.313333333333333,-95.8463888888889
REXES,19.919166666666666,-97.565
RIKAN,26.54138888888889,-99.58666666666667
RIOJA,19.995277777777776,-99.42138888888888
RIZOS,22.601944444444445,-101.18222222222222
ROBIN,22.400277777777777,-86.48305555555555
RODEO,25.339252777777777,-104.78429166666666
ROMAN,22.1575,-103.49944444444445
ROSMA,29.323091666666667,-110.65878888888889
RUBNA,25.224166666666665,-103.67527777777778
SALAS,20.925,-92.20194444444445
SAMED,21.429166666666667,-86.74916666666667
SANFE,30.898333333333333,-114.91416666666667
SARIO,22.921388888888888,-105.59472222222222
SATOS,18.348333333333333,-87.94472222222223
SAUCE,24.66027777777778,-99.97055555555555
SAUZA,32.18,-117.36333333333333
SEDAS,23.083055555555557,-96.70611111111111
SEGER,25.415,-99.71666666666667
SELIS,16.811666666666667,-99.05972222222222
SEPTA,20.9175,-90.54805555555555
SERIS,28.59777777777778,-110.99805555555555
SETOS,21.43027777777778,-101.98833333333333
SEVRA,32.574444444444445,-116.36083333333333
SIBAL,20.815833333333334,-86.47361111111111
SIBAU,22.855555555555554,-109.39694444444444
SIDRA,22.19611111111111,-96.70611111111111
SIKSA,19.69361111111111,-104.07638888888889
SILAC,22.648333333333333,-98.86277777777778
SINLA,21.61138888888889,-86.07138888888889
SISAL,21.354166666666668,-89.6775
SLM08,19.63447777777778,-98.94677777777778
SLM12,19.580313888888888,-98.90530277777778
SMO03,19.507033333333332,-99.21535
SMO16,19.41079722222222,-99.19023333333334
SUTLA,23.552222222222223,-109.61916666666667
SUTNU,27.563055555555554,-110.16166666666666
SUTOL,26.44,-99.28833333333333
SUVLI,29.595277777777778,-111.02972222222222
SUVSU,19.66611111111111,-101.4375
TABGO,19.87,-103.45222222222222
TABMI,17.21527777777778,-97.08555555555556
TADET,21.173333333333332,-95.0
TADKO,19.490833333333335,-101.21638888888889
TADNI,16.63388888888889,-96.47722222222222
TADSI,17.85972222222222,-100.21833333333333
TAGNU,21.295833333333334,-89.86444444444444
TAKLA,22.441111111111113,-98.28277777777778
TAKNU,20.174722222222222,-87.17472222222223
TAKOX,29.017777777777777,-110.48694444444445
TAKRO,19.355833333333333,-102.56861111111111
TALBI,26.32138888888889,-99.37916666666666
TALPU,23.322222222222223,-98.92388888888888
TAM05,22.217869444444446,-97.81673333333333
TAM08,22.174819444444445,-97.78898333333333
TAM59,22.158261111111113,-97.83561388888889
TAMBA,30.133333333333333,-116.41666666666667
TAMSA,21.872222222222224,-100.75611111111111
TAMVO,19.088333333333335,-96.62638888888888
TANBA,21.044166666666666,-86.66361111111111
TAROS,20.54361111111111,-102.77805555555555
TAXTE,20.5225,-89.62388888888889
TECAS,22.40861111111111,-101.34972222222223
TEDZI,22.191111111111113,-102.47083333333333
TEILA,20.872777777777777,-103.69416666666666
TEITI,30.161944444444444,-106.62527777777778
TEKAS,25.33416666666667,-108.67416666666666
TEPAS,23.821944444444444,-99.58361111111111
TEXCA,17.405833333333334,-99.58694444444444
TIAGO,22.70277777777778,-105.74472222222222
TICUL,20.83361111111111,-89.22444444444444
TIKIT,20.7925,-103.76194444444444
TIMAS,24.951944444444443,-96.00666666666666
TITAN,24.680555555555557,-104.09833333333333
TLC23,19.318986111111112,-99.15595
TOPOS,32.151944444444446,-116.58027777777778
TOREO,21.116666666666667,-105.01055555555556
TRIGO,20.122222222222224,-104.59027777777777
TROYA,20.6,-89.91666666666667
TUITO,20.844722222222224,-104.2625
TUKOM,20.413055555555555,-93.56444444444445
TULAS,24.351666666666667,-104.3525
TULES,24.462777777777777,-110.55305555555556
TULUM,20.959722222222222,-89.08027777777778
TULUS,23.988333333333333,-98.76583333333333
TUMAL,20.721944444444446,-99.25055555555555
TUZAS,19.38361111111111,-101.12805555555556
UDIPO,28.595958333333332,-108.5
UGATA,18.99972222222222,-95.14472222222223
UGERO,16.843333333333334,-95.79055555555556
ULAPA,13.395833333333334,-96.85416666666667
UNION,21.745833333333334,-107.14833333333333
URKOS,21.163055555555555,-86.14666666666666
URPUP,20.745,-90.005
URSAM,20.441944444444445,-87.36583333333333
URSEK,24.963055555555556,-100.93
URSID,25.95777777777778,-103.55944444444444
URSIX,32.6025,-115.83027777777778
URSOT,19.148888888888887,-96.63027777777778
URSUR,25.275833333333335,-100.04416666666667
URTAN,26.058333333333334,-99.91277777777778
URTOB,25.379444444444445,-100.44583333333334
URTUS,26.10333333333333,-100.15305555555555
URVAP,23.958333333333332,-106.86638888888889
URVEM,20.58972222222222,-101.32444444444444
URVIK,23.57611111111111,-101.68861111111111
URVIN,24.96472222222222,-109.655
URVOD,16.871111111111112,-93.3313888888889
URVOX,22.704722222222223,-97.90305555555555
URVUT,24.254444444444445,-98.055
USBAR,27.24972222222222,-100.32555555555555
USBEN,27.81888888888889,-110.13583333333334
USBIL,23.147222222222222,-97.27472222222222
VARAS,19.610833333333332,-104.77777777777777
VASOS,19.489438888888888,-98.97497222222222
VEGAS,32.02472222222222,-117.29
VELAS,17.425,-99.76805555555555
VENAO,25.090833333333332,-107.76277777777777
VER04,19.08316111111111,-96.02472777777778
VER07,19.028188888888888,-96.21264444444445
VER09,19.255883333333333,-96.15511666666667
VER10,18.978883333333332,-96.22271111111111
VER11,19.047147222222222,-96.0449111111111
VER12,19.336344444444446,-96.13079444444445
VER15,18.892419444444446,-96.19833333333334
VER16,18.89687222222222,-96.23944166666666
VER25,19.12276111111111,-96.36383888888889
VER26,19.146072222222223,-96.36526944444445
VER29,19.229341666666667,-96.34010833333333
VER32,19.29238888888889,-96.26917777777778
VER35,19.39403888888889,-96.1799
VER53,18.98589722222222,-96.12893611111112
VER65,19.189272222222222,-96.01986111111111
VER75,19.16645,-96.01465833333333
VER92,19.11696111111111,-96.01516388888889
VER98,19.30416111111111,-96.14052777777778
VERBA,19.547777777777778,-100.7063888888889
VERDE,20.65888888888889,-102.7975
VERTA,32.204433333333334,-115.94326944444444
VETSI,19.511111111111113,-97.82666666666667
VICKY,22.30527777777778,-103.89722222222223
VIPSA,21.438055555555554,-86.91916666666667
VISOS,19.834444444444443,-98.35944444444445
VITAR,21.22388888888889,-87.15222222222222
VIVER,19.275833333333335,-99.10055555555556
VOGAS,20.157777777777778,-102.07388888888889
VOGIL,26.245555555555555,-111.0525
VOKAN,29.609444444444446,-105.83916666666667
XOLGA,23.522222222222222,-103.61055555555555
XOLMU,22.093611111111112,-106.66944444444445
XOLRO,20.828611111111112,-90.08638888888889
XOMGA,24.50861111111111,-107.83916666666667
XOMLU,22.56138888888889,-98.6325
XOMSA,24.422777777777778,-110.09027777777777
XOMSO,16.554166666666667,-93.3775
XONGO,29.91923611111111,-109.61020555555555
XONKA,23.163888888888888,-107.10944444444445
XONTA,16.5825,-96.5775
XOPLO,20.161666666666665,-86.70611111111111
XOPRU,23.5525,-109.73666666666666
XOPVO,17.005555555555556,-95.74
XORAL,23.53527777777778,-110.17722222222223
XOREN,20.105555555555554,-86.92333333333333
XORIL,23.095,-87.16555555555556
XOROG,20.749444444444446,-104.81972222222223
XORUB,24.372222222222224,-107.32277777777777
XORUV,18.23472222222222,-95.36833333333334
XOSGI,24.15361111111111,-106.40194444444444
XOSIM,23.4725,-100.49138888888889
XOSLO,15.877777777777778,-96.09222222222222
XOSMA,29.076944444444443,-113.78472222222223
XOSOK,20.85333333333333,-98.15555555555555
XOSUX,20.56222222222222,-104.92166666666667
XOSVO,17.160833333333333,-96.3775
XOTIN,25.298055555555557,-103.76361111111112
XOTNA,21.199444444444445,-87.64083333333333
XOTOL,21.9075,-101.8236111111111
XOVAV,21.337222222222223,-88.27027777777778
XOVIP,24.455555555555556,-108.82083333333334
XOVUK,16.096666666666668,-92.47583333333333
XOXAD,23.13361111111111,-98.20194444444445
XOXIL,29.054166666666667,-103.00916666666667
YAKAN,25.93638888888889,-109.55027777777778
YAQUI,27.059722222222224,-110.18555555555555
YEDRA,23.6925,-109.9036111111111
YOLKO,18.1425,-93.22972222222222
ZARCO,19.34638888888889,-100.0025
AMOKI,20.727777777777778,-101.14277777777778
ARCOS,25.339166666666667,-104.78416666666666
ASOKU,16.076944444444443,-91.38222222222223
AVPUS,22.045555555555556,-100.5425
AVREM,20.561944444444446,-93.57527777777777
AVTIM,27.190277777777776,-107.74944444444445
AXOVI,26.448055555555555,-106.83611111111111
AXUKO,19.390833333333333,-95.02944444444445
BACUM,25.19361111111111,-104.75166666666667
BECON,31.788055555555555,-106.7125
CETOS,29.135555555555555,-107.57916666666667
DANET,25.65,-105.87472222222222
DANUL,20.189166666666665,-85.3411111111111
DURPA,24.1525,-103.43555555555555
DUVBI,20.709444444444443,-92.14805555555556
ERBOR,15.695,-91.955
FETMO,26.176388888888887,-98.39194444444445
FINCA,32.221111111111114,-115.9161111111111
HILSE,25.83416666666667,-97.43194444444444
IMARU,25.317777777777778,-104.91111111111111
IMELA,32.33777777777778,-115.06388888888888
IPTOR,28.84777777777778,-106.9011111111111
IRBAM,28.364444444444445,-109.23555555555555
MARGA,29.9475,-109.55972222222222
MEGBE,30.29222222222222,-104.75583333333333
MIDRA,29.518333333333334,-108.5
MULPA,31.859444444444446,-114.78277777777778
MUSAD,21.108333333333334,-97.96666666666667
OMVIP,20.860555555555557,-90.54416666666667
OMVOM,22.2275,-97.25138888888888
ONKAL,23.1,-96.85527777777777
OTEKA,24.043055555555554,-103.29916666666666
OTEXA,28.675,-108.5
OTOMO,19.704444444444444,-93.5038888888889
OVADO,31.64,-115.32222222222222
OVETU,23.198888888888888,-103.04166666666667
PENAS,28.62611111111111,-111.38055555555556
PENZA,23.286944444444444,-87.90638888888888
PINOS,30.50722222222222,-110.98861111111111
POREE,29.227222222222224,-100.77416666666667
SARAS,29.7975,-112.18583333333333
SATON,24.11111111111111,-106.63472222222222
SIGMA,19.61722222222222,-86.36666666666666
SWORD,24.5,-88.61666666666666
TAKUX,20.026944444444446,-85.89611111111111
TAMPA,21.313333333333333,-98.58694444444444
VENUS,29.378333333333334,-110.56277777777778
VILLA,20.433611111111112,-94.8163888888889
VYLLA,31.333333333333332,-110.94972222222222
XORVO,24.154444444444444,-103.23194444444445
XOSAS,20.005,-91.97277777777778
ZARPO,27.514722222222222,-99.52888888888889
ZEPOX,25.897222222222222,-97.50194444444445
ZOBUS,29.413611111111113,-101.03055555555555
ZOLIB,25.441388888888888,-97.37972222222223
