IDENT,LATITUDE,LONGITUDE
ANSON,10.707333333333333,-82.63591666666667
BUFEO,9.816527777777777,-82.5706388888889
CACHI,9.82,-83.75666666666666
CANAS,10.163333333333334,-84.625
CARBA,9.920491666666667,-84.39264722222222
CHANG,10.761611111111112,-85.54545833333333
CHILE,11.060194444444445,-84.55597222222222
CLARA,9.975444444444445,-83.72391666666667
ELENA,10.866388888888888,-85.88916666666667
FINCA,9.605,-83.905
INDIO,10.426752777777779,-85.54723888888888
ISEBA,9.541277777777777,-82.8698611111111
LIB03,10.573191666666666,-85.59247222222223
LIB05,10.559194444444444,-85.62321666666666
LIB10,10.524186111111112,-85.70006666666667
LIB26,10.580422222222222,-85.71500833333333
LIB30,10.612775,-85.49918333333333
LIB42,10.516322222222222,-85.69615277777778
LIB48,10.532241666666666,-85.70356111111111
LIB50,10.625163888888888,-85.46773611111111
LIB68,10.656127777777778,-85.38910833333334
LIB88,10.599186111111111,-85.3771888888889
LOPEZ,9.858186111111111,-84.54994722222222
MONTE,9.954269444444444,-84.31351944444444
PADUR,9.97861111111111,-82.5975
PARZA,9.824288888888889,-84.62653055555556
PELDA,9.032222222222222,-84.56238888888889
POXON,8.54861111111111,-82.83166666666666
PULGO,7.9679722222222225,-83.8998888888889
R1514,9.989,-84.22185833333333
RADON,10.702666666666667,-84.06855555555556
SELAK,9.433277777777779,-85.21111111111111
SEQUE,10.525241666666666,-85.39214722222222
TIGIR,8.454611111111111,-84.91488888888888
TIGRE,10.4865,-83.81061111111111
TIO01,9.9773,-84.25178055555556
TIO23,9.875241666666666,-84.36485
TIO68,10.009125,-84.17366388888888
TOMAS,9.8895,-84.47165
ULARA,8.751111111111111,-84.10991666666666
UPALA,10.323333333333334,-84.53666666666666
VAROS,10.695619444444445,-85.68101388888888
VILMA,10.748641666666666,-85.61168611111111
