IDENT,LATITUDE,LONGITUDE
CC003,-12.239727777777778,96.97120555555556
CC005,-12.277094444444444,96.87554166666666
CC006,-12.115327777777777,96.78676666666667
CC007,-12.142908333333333,96.75721388888888
CC008,-12.086908333333334,96.76873055555555
CC010,-12.319980555555556,96.77901666666666
CC011,-12.150341666666666,96.7146
CC015,-12.323002777777777,96.89633611111111
CC016,-12.132013888888888,96.76618611111111
CC030,-12.066633333333334,96.84565
CC036,-12.28053888888889,96.92810833333333
CC044,-12.2917,96.91594444444445
CC145,-12.306172222222223,96.92480833333333
CC173,-12.332558333333333,96.86456666666666
CC317,-12.107458333333334,96.74292777777778
CC345,-12.073108333333334,96.79881666666667
