IDENT,LATITUDE,LONGITUDE
ANUBI,-6.000019444444445,16.3325
ANVUP,-7.869166666666667,19.85638888888889
APKOK,-7.3,18.14638888888889
APNUK,-9.970555555555556,1.916388888888889
APRAS,-15.840555555555556,-5.0
ARGOL,-10.131666666666666,13.624166666666667
AVIGI,-12.4625,4.339444444444444
AVOVA,-9.136388888888888,14.562777777777777
AVUTA,-6.933055555555556,12.627777777777778
AXUGO,-9.644444444444444,19.260555555555555
BODEX,-12.551538888888889,0.03250555555555556
BOSNI,-10.998888888888889,8.046111111111111
BUDEL,-5.8838888888888885,14.699722222222222
BUTOG,-16.893333333333334,-8.175
DEPAN,-9.280277777777778,15.221111111111112
DETKU,-9.981111111111112,13.962777777777777
DISPO,-7.041111111111111,14.135
EDLIN,-6.080555555555556,16.90861111111111
EGNOS,-14.088611111111112,0.0008333333333333334
EGOLI,-13.551666666666666,1.4666666666666668
EGSUD,-13.11,22.0
ENBED,-10.55,14.319166666666666
EPLAT,-7.608333333333333,12.731388888888889
EPLAV,-8.346944444444444,18.871111111111112
ESTOX,-8.60361111111111,14.571944444444444
ETBON,-10.827777777777778,12.918055555555556
EVOTO,-14.52656111111111,22.0
EXALA,-10.18361111111111,13.303333333333333
EXIGO,-12.956111111111111,21.75888888888889
EXITO,-6.989444444444445,12.474166666666667
GEBDO,-8.480833333333333,15.233333333333333
IBKOK,-8.245833333333334,15.174444444444445
ILDIN,-7.6425,13.84
ILGOL,-12.7025,14.386944444444444
IMLEX,-7.570555555555556,12.83388888888889
IMRAS,-8.82925,14.594225
ITKAM,-7.891666666666667,19.833333333333332
ITPIK,-12.204444444444444,5.0
KILBI,-9.620277777777778,18.570555555555554
KIMBU,-9.397777777777778,14.475555555555555
KODOR,-7.753888888888889,12.4675
LIKAD,-5.071666666666666,11.678611111111111
LIRAM,-10.852777777777778,13.331388888888888
LUBRA,-8.0325,17.601388888888888
MEMAS,-9.786388888888888,14.2075
NATAR,-7.207777777777777,12.079166666666667
NETOK,-8.819322222222223,15.267547222222221
NEVIT,-7.583333333333333,20.433333333333334
OGNIK,-5.535636111111111,16.08131388888889
OKDAT,-8.256666666666666,19.058055555555555
OKTAG,-12.484166666666667,12.639444444444445
ONTAR,-9.62888888888889,11.385277777777778
OPAPO,-7.801944444444445,11.499166666666667
RIVOM,-7.829166666666667,18.649722222222223
SIPLA,-8.148055555555555,12.090833333333334
TUTIM,-10.255833333333333,14.689444444444444
UDANO,-10.166944444444445,13.028333333333334
UDMON,-15.05888888888889,6.9383333333333335
UNDOP,-7.068333333333333,16.986666666666668
UNDUS,-8.445277777777777,14.537222222222223
UTIVO,-7.995,15.056666666666667
UVAGO,-7.566111111111111,17.31861111111111
UVAMO,-10.774444444444445,13.813611111111111
VOTAL,-9.673333333333334,15.090555555555556
