IDENT,LATITUDE,LONGITUDE
ACUGE,29.59151388888889,47.43309722222222
AJB41,29.416947222222223,47.29096666666667
ALSAN,29.951944444444443,48.24888888888889
ALVIX,29.320833333333333,48.40277777777778
ASB01,29.333694444444443,47.54286111111111
ASB03,29.3355,47.5403
ASB05,29.3566,47.4986
ASB06,29.288125,47.63397222222222
ASB07,29.409305555555555,47.408125
ASB09,29.293358333333334,47.637075
ASB10,29.443561111111112,47.326655555555554
ASB11,29.357588888888888,47.49668888888889
ASB12,29.441005555555556,47.318525
ASB13,29.437925,47.316625
ASB14,29.357027777777777,47.49673055555556
ASB15,29.334808333333335,47.543441666666666
ASB16,29.265441666666668,47.72935555555556
ASB18,29.14356666666667,47.510894444444446
ASB19,29.29884722222222,47.63993888888889
ASB22,29.222327777777778,47.724152777777775
ASB23,29.255897222222224,47.72437222222222
ASB24,29.249666666666666,47.31699444444445
ASB25,29.223158333333334,47.70141388888889
ASB26,29.231694444444443,47.70837777777778
ASB28,29.21495277777778,47.69395
ASB29,29.461655555555556,47.29466388888889
ASB30,29.467269444444444,47.338319444444444
ASB31,29.415916666666668,47.4136
ASB32,29.455933333333334,47.32893888888889
ASB34,29.246580555555557,47.715158333333335
ASB42,29.181669444444445,47.65316388888889
ASB47,29.391780555555556,47.42914722222222
ASB52,29.296936111111112,47.61628611111111
ASB60,29.33417777777778,47.54311944444444
ASB61,29.35835,47.497825
ASB70,29.40264722222222,47.40766111111111
ASB71,29.246594444444444,47.718827777777776
ASB89,29.415633333333332,47.30507222222222
ASB92,29.42533611111111,47.309641666666664
ASPEL,29.179166666666667,47.01638888888889
AWADI,28.575,48.73138888888889
BAYVA,29.940369444444446,47.334361111111114
BONIM,28.998055555555556,47.48694444444445
CAVNA,29.903919444444444,47.44156111111111
DANAL,28.857777777777777,49.080555555555556
DARVA,28.80388888888889,48.79277777777778
DEBTI,28.735277777777778,48.49027777777778
DEKOB,28.52638888888889,47.85166666666667
DESLU,29.466666666666665,49.03055555555556
ECIYA,29.935930555555554,47.55061111111111
ECOGI,29.459208333333333,47.32183888888889
FALKA,29.43638888888889,48.305277777777775
HOVID,29.491294444444446,47.43038055555556
HOVIK,29.80370277777778,47.43884722222222
IMDOX,28.581944444444446,49.24388888888889
IVOVO,29.391833333333334,47.881
JAKOB,29.152216666666668,47.09011388888889
KUA03,29.265841666666667,47.94893611111111
KUA06,29.322930555555555,47.91790833333334
KUA08,29.344825,47.917877777777775
KUA09,29.366972222222223,47.99440277777778
KUA12,29.13228888888889,48.130675
KUA13,29.137947222222223,48.08914444444444
KUA34,29.360622222222222,47.91166111111111
KUA36,29.383905555555554,47.99409722222222
KUA53,29.305333333333333,47.93341111111111
KUA55,29.385508333333334,47.97087777777778
KUA60,29.375194444444446,47.91240555555556
KUA61,29.323675,47.93974722222222
KUA62,29.272141666666666,47.96706666666667
KUA70,29.078916666666668,48.06910555555555
KUA71,29.131980555555554,48.04111388888889
KUA80,29.094261111111113,48.038758333333334
KUA81,29.129144444444446,48.020355555555554
KUA90,29.374447222222223,47.890572222222225
LONOS,28.50641388888889,49.28696388888889
LOVAR,29.406666666666666,48.76916666666666
MURED,29.059166666666666,48.06166666666667
NANPI,29.0825,49.5325
ORBEB,29.061333333333334,48.079
PATIR,28.935,49.48972222222222
R1538,29.240516666666668,47.961527777777775
R1807,29.33898611111111,47.533405555555554
R2189,29.241227777777777,47.983383333333336
R2190,29.21270277777778,47.97629444444444
R2191,29.21259722222222,47.99858611111111
R2573,29.703488888888888,47.43613888888889
R2574,29.691725,47.43581944444445
R2918,29.352544444444444,47.50680277777778
ROSKE,29.16263888888889,47.736177777777776
SDNEE,29.30671111111111,47.18038888888889
SESRA,29.134166666666665,48.914722222222224
SIVAL,29.392666666666667,47.903
SOLAT,29.161666666666665,46.63611111111111
SOROR,28.57138888888889,47.65888888888889
TANAP,28.876666666666665,49.18
TULAX,29.648055555555555,49.05027777777778
UMRUS,29.17385833333333,47.3978
