IDENT,LATITUDE,LONGITUDE
BODOK,39.48416666666667,125.42972222222222
DOHAE,39.38333333333333,132.43166666666667
GASAN,39.731944444444444,125.44472222222223
GAZIN,38.86666666666667,131.5
HAMUN,39.92166666666667,127.51833333333333
JENAM,39.73,126.29944444444445
JONJU,39.685,125.21694444444445
KICHA,40.68416666666667,129.19222222222223
NISOR,39.45333333333333,125.67833333333333
RASON,40.9,132.30833333333334
SAMAN,39.30083333333334,125.10055555555556
SOKGE,39.73166666666667,125.68416666666667
SONDO,39.72277777777778,127.47055555555555
TONIN,39.333333333333336,133.0
WASAN,39.72833333333333,127.0838888888889
