IDENT,LATITUDE,LONGITUDE
ARIGO,-19.303055555555556,60.04055555555556
ATLOP,-21.469166666666666,60.09222222222222
AVDOV,-23.43638888888889,65.0
BIGSA,-40.21666666666667,57.0
BOGEV,-16.825,65.0
CATHY,-9.608888888888888,70.0
DODON,-21.916666666666668,65.0
DUDIP,-18.786666666666665,59.67166666666667
EGLET,-15.0,56.975833333333334
ENTEN,-33.083333333333336,65.0
EPMOL,-30.530555555555555,65.0
GBY15,-20.20699722222222,57.43038611111111
GUTKO,-19.078333333333333,59.903888888888886
IBMAT,-28.318333333333335,57.0
IPL02,-20.411997222222222,57.642377777777774
IPL03,-20.404688888888888,57.626397222222224
IPL04,-20.39738611111111,57.61042777777778
IPL05,-20.390072222222223,57.594452777777775
IPL06,-20.422280555555556,57.66486944444444
IPL08,-20.368147222222223,57.546575
IPL10,-20.353525,57.51466388888889
IPL13,-20.33158611111111,57.466813888888886
IXABI,-20.134166666666665,60.31027777777778
KABDO,-15.845833333333333,65.0
KALBI,-8.871666666666666,75.0
KANDA,-10.0,61.8225
KANSA,-12.45138888888889,70.0
KARAT,-17.471944444444443,55.56638888888889
KINIX,-20.990555555555556,60.264722222222225
LEBOB,-14.200555555555555,65.0
LELED,-11.276666666666667,75.0
LUXAG,-13.340833333333332,60.53472222222222
MABAD,-26.806666666666665,75.0
MODOT,-15.0,55.59388888888889
MURUS,-5.997277777777778,63.32922222222222
NOMIG,-10.653888888888888,65.99666666666667
OKMAR,-18.201666666666668,56.07694444444444
OVTIS,-19.523611111111112,60.14555555555555
PADSO,-17.644166666666667,65.0
PAKTI,-15.539722222222222,70.0
PEDPI,-13.276666666666667,75.0
PLS03,-20.444352777777777,57.7089
PLS12,-20.51191111111111,58.00369166666667
PLS14,-20.40866388888889,57.640591666666666
PLS15,-20.541522222222223,57.895319444444446
PLS24,-20.400547222222222,57.62506388888889
PLS31,-20.319288888888888,57.469877777777775
PLS35,-20.48486388888889,57.786547222222225
PLS44,-20.384305555555557,57.59401388888889
PLS47,-20.506016666666667,57.771141666666665
PLS52,-20.516266666666667,57.761008333333336
PLS68,-20.475144444444446,57.76790833333333
PLS74,-20.359933333333334,57.54745
PLS94,-20.343680555555554,57.516416666666665
PULIT,-15.0,62.416666666666664
R1675,-20.424655555555557,57.67200277777778
RUPIG,-15.591944444444444,55.5
SOLIT,-23.916666666666668,75.0
TAPER,-18.514444444444443,59.37916666666667
TATOG,-18.741944444444446,70.0
TEPAN,-14.136111111111111,70.0
TIBAG,-18.471694444444445,55.540416666666665
TOLID,-6.978611111111111,68.91833333333334
TOPAN,-6.368333333333333,63.19083333333333
TOPE,-19.52777777777778,65.0
UDMED,-18.093888888888888,58.632777777777775
UPNEK,-37.619166666666665,65.0
UPTOM,-41.835,65.0
UTIVA,-17.938333333333333,57.342777777777776
XEKOT,-32.97000277777778,57.0
ALMOG,23.59,57.827777777777776
ALNUN,21.273611111111112,56.17805555555555
ALSAS,24.015,59.331944444444446
AMBOS,23.05666666666667,59.90138888888889
ASTUN,18.142222222222223,55.17777777777778
ATBED,23.064444444444444,60.63111111111111
BOVOS,18.375,57.97888888888889
BUBAS,24.99388888888889,57.00083333333333
DAMUM,24.543333333333333,59.21861111111111
DAPOK,23.99888888888889,57.499722222222225
DARAB,17.775555555555556,54.81722222222222
DARAT,22.333333333333332,57.475
DATBU,22.378611111111113,56.015
DAXAM,17.27,54.7875
DEDSO,18.969722222222224,56.01138888888889
DEMKI,22.828055555555554,56.385555555555555
DENDA,24.708333333333332,60.91416666666667
DORAB,23.8425,59.79611111111111
EGROK,23.88138888888889,56.02388888888889
EGTAL,24.58277777777778,60.623333333333335
EGVAN,23.024166666666666,56.31861111111111
ELIGO,23.41611111111111,59.14666666666667
EMURU,22.2325,58.89388888888889
ERDAX,17.984166666666667,55.74944444444444
GADMA,21.24416666666667,60.160555555555554
GAGLA,18.084722222222222,55.40277777777778
GEPOT,23.246111111111112,58.014722222222225
GERAR,24.1,57.60444444444445
GEVED,23.018055555555556,57.85305555555556
GIDAN,23.017777777777777,58.37555555555556
GISKA,21.58416666666667,57.67055555555555
GIVNO,19.836388888888887,56.51638888888889
GOLNI,21.003888888888888,59.69166666666667
GOMTA,25.1875,56.57972222222222
IMDAM,20.404444444444444,55.13361111111111
IMDEK,22.779722222222222,59.37138888888889
IMKAD,15.879166666666666,53.863055555555555
IMLOT,25.285555555555554,57.13444444444445
IMW02,23.58955,58.23783888888889
IMW06,23.583930555555554,58.16551111111111
IMW07,23.591330555555555,58.261319444444446
ISB01,23.59546111111111,58.31706944444444
ISB04,23.599641666666667,58.37131111111111
ISB07,23.603766666666665,58.42556944444444
ISL06,17.047033333333335,54.11606944444444
ISL10,17.101147222222224,54.27147222222222
ISL12,17.1108,54.3095
ISL93,17.0946,54.2604
ISL95,17.09842777777778,54.26324722222222
ITILA,23.681944444444444,58.804722222222225
ITLOB,24.72361111111111,59.11694444444444
ITURA,23.3975,58.12222222222222
ITUVO,19.054166666666667,55.724444444444444
IVETO,23.58888888888889,57.117777777777775
IVOMA,22.56888888888889,60.90833333333333
KAPET,16.55611111111111,53.10388888888889
KAPOP,17.76222222222222,55.15833333333333
KARAR,23.511666666666667,58.910555555555554
KAXEM,22.850833333333334,59.87861111111111
KEBAS,21.725,57.163333333333334
KIPOL,23.069444444444443,61.48416666666667
KIROP,24.5,57.78333333333333
KITAL,20.05,60.3
KIVEL,16.885,55.60916666666667
KUNUS,24.324166666666667,58.54055555555556
KUPMA,24.863333333333333,56.446666666666665
KUROV,21.274166666666666,56.31472222222222
KURTA,23.70138888888889,55.81666666666667
KUSRA,23.407222222222224,58.43638888888889
LABED,18.35972222222222,55.3075
LABRI,24.06222222222222,55.645
LABSA,23.031388888888888,55.918055555555554
LADAR,16.89,53.78194444444444
LAKLU,23.37638888888889,57.066944444444445
LALDO,25.301666666666666,56.6
LOSIM,22.586944444444445,60.54388888888889
LOTAV,20.616666666666667,60.95
LOXOP,22.622777777777777,59.763333333333335
MCT03,23.59634722222222,58.31426666666667
MCT06,23.60156388888889,58.368408333333335
MCT09,23.606761111111112,58.42255277777778
MCT10,23.60848888888889,58.44060277777778
MCT15,23.58848888888889,58.233063888888886
MCT28,23.62923333333333,58.06484722222222
MCT64,23.571761111111112,58.06166666666667
MCT65,23.68283611111111,58.47405555555556
MCT77,23.639844444444446,58.49004722222222
MCT84,23.60935277777778,58.44962777777778
MCT85,23.638602777777777,58.067275
MCT88,23.575297222222222,58.097747222222225
MCT98,23.604144444444444,58.09743611111111
MCT99,23.58058888888889,58.15186944444444
MEKNA,23.5525,56.1375
MENSA,24.96388888888889,56.54694444444444
MEVLI,21.275555555555556,56.935
MIBSA,22.9,60.227222222222224
MIBSI,23.694166666666668,57.92305555555556
MIXOL,24.08972222222222,59.499722222222225
MOBAB,20.175555555555555,56.7375
MOGOK,21.849166666666665,56.71
MRH00,20.57281111111111,59.080216666666665
MRH02,20.86268888888889,58.97036666666666
MRH03,20.647194444444445,58.79338055555556
MRH04,20.667566666666666,58.87043055555556
MRH05,20.770475,59.01941388888889
MRH06,20.765408333333333,59.06621944444444
MRH09,20.748863888888888,59.03527777777778
MRH11,20.814669444444444,59.02286111111111
MRH12,20.744025,58.695883333333335
MRH15,20.686777777777777,58.9193
MRH20,20.894075,58.98275833333334
MRH24,20.798477777777777,59.128125
MRH26,20.65437777777778,58.68375
MRH29,20.755613888888888,58.66249444444445
MRH30,20.555869444444443,59.11087777777778
MRH34,20.566908333333334,58.73728055555556
MRH36,20.8583,58.81032777777778
MRH44,20.609030555555556,58.75189722222222
MRH46,20.999625,58.811875
MRH50,20.80249722222222,59.06054722222222
MRH54,20.624516666666665,58.707797222222226
MRH56,20.824691666666666,58.88586388888889
MRH60,20.724038888888888,58.988875
MRH61,20.857355555555557,58.917719444444444
MRH70,20.741841666666666,59.09718888888889
MRH90,20.633594444444444,58.74202777777778
MRH94,20.7495,58.872569444444444
MRH95,20.76573888888889,58.8686
MRH99,20.83068888888889,58.852761111111114
MUNGA,24.42111111111111,58.759166666666665
MUSAP,24.298333333333332,55.87916666666667
MUSRU,23.04888888888889,59.37305555555555
MUSUK,23.72222222222222,57.36333333333334
MUTVA,16.89027777777778,54.533611111111114
NADSO,24.8325,57.82388888888889
NALKI,22.824444444444445,56.937222222222225
NALTI,18.336666666666666,55.57527777777778
NAMVA,22.5525,56.37305555555555
NOSMI,24.299166666666668,56.50055555555556
NOVNO,19.55361111111111,53.98277777777778
OBTIN,23.037777777777777,58.98888888888889
ORBIX,24.741666666666667,60.58638888888889
ORSIT,20.385,56.4875
OTISA,20.166666666666668,55.76555555555556
PARAR,22.441666666666666,63.11666666666667
PAROK,23.175,59.045833333333334
PASOV,24.64472222222222,56.84361111111111
PAXIM,24.045833333333334,56.27527777777778
PURNI,24.634444444444444,57.73166666666667
PUTRA,16.90888888888889,52.941944444444445
PUTSO,23.343611111111112,56.88944444444444
R1941,17.043683333333334,54.10610555555556
R2202,20.684605555555557,58.88829166666667
R2203,17.684002777777778,54.02223611111111
R2599,23.594475,58.301922222222224
R2929,23.59198888888889,58.270986111111114
RABON,17.1501,54.4273
RADAX,22.135833333333334,58.041666666666664
RAGMA,23.38361111111111,60.64611111111111
RASKI,23.058333333333334,63.86666666666667
RETAS,23.965,55.573055555555555
REXOD,21.208333333333332,61.641666666666666
SETSI,23.07,61.736111111111114
SEVLA,23.555833333333332,59.18944444444445
SITOL,21.267777777777777,55.42055555555555
SLL01,17.046972222222223,54.11135
SLL04,17.015002777777777,54.03163333333333
SLL08,16.928402777777777,54.024625
SLL09,17.067858333333334,54.24882222222222
SLL15,16.987738888888888,54.220258333333334
SLL20,17.029680555555554,54.06289722222222
SLL24,16.978283333333334,53.953497222222225
SLL25,17.022125,54.15761944444444
SLL26,16.958247222222223,54.04251388888889
SLL65,17.220777777777776,54.48869444444444
SLL81,17.078263888888888,54.317572222222225
SLL84,17.054816666666667,54.16289722222222
SLL93,16.95623888888889,53.90662777777778
SODEB,23.796388888888888,59.506388888888885
SODEX,23.831666666666667,55.53388888888889
SOLUD,24.539722222222224,56.73916666666667
TAPDO,24.4,61.333333333333336
TAPRA,24.435277777777777,56.634166666666665
TARBO,24.730833333333333,57.776944444444446
TARDI,24.571666666666665,56.15416666666667
TARVI,23.233333333333334,59.07888888888889
TAVKO,21.255277777777778,59.52972222222222
TMR01,17.68471388888889,54.02254444444444
TMR03,17.818669444444446,54.03532222222222
TMR06,17.767033333333334,54.006613888888886
TMR09,17.816425,53.99704722222222
TMR11,17.847347222222222,54.070613888888886
TMR12,17.865813888888887,53.987475
TMR14,17.846452777777777,54.18468611111111
TMR15,17.643180555555556,54.02732777777778
TMR16,17.93443611111111,53.99402777777778
TMR17,17.384255555555555,54.042883333333336
TMR34,17.84935,53.99066666666667
TMR40,17.821002777777778,54.16195833333333
TMR56,17.4844,54.03745833333333
TMR63,17.562955555555554,54.032447222222224
TMR74,17.71398888888889,54.01830833333333
TMR76,17.74406111111111,54.01410555555555
TMR79,17.816755555555556,54.004333333333335
TMR81,17.851197222222222,54.00457222222222
TMR82,17.867827777777777,54.00264444444444
TMR86,17.51851388888889,54.007955555555554
TMR90,17.51782777777778,54.035325
TMR91,17.491630555555556,53.971222222222224
TOKRA,22.156944444444445,55.56388888888889
TOLDA,22.66888888888889,58.60666666666667
TONVO,25.083333333333332,56.53333333333333
TOPSO,21.948055555555555,56.34527777777778
TOTOX,21.841666666666665,62.375
TUBIR,17.385277777777777,54.42722222222222
TUBSA,20.674722222222222,56.440555555555555
TULBU,23.00138888888889,57.3075
TUMET,22.385277777777777,59.95055555555555
UMILA,21.26527777777778,58.79388888888889
VAXAS,24.718888888888888,56.301944444444445
VAXIM,23.316666666666666,61.18333333333333
VEKAN,24.209722222222222,60.748333333333335
VELIK,20.55611111111111,56.282222222222224
VUSET,23.927777777777777,59.13666666666666
VUSIN,22.994444444444444,60.919444444444444
VUTAP,20.903055555555554,56.746944444444445
