IDENT,LATITUDE,LONGITUDE
ALGUV,30.751944444444444,56.971944444444446
ALKES,30.15,57.5275
ALKOR,36.78388888888889,51.06916666666667
ALKUL,29.83361111111111,57.276944444444446
ALMEK,29.759444444444444,56.863055555555555
ALMIG,30.168055555555554,56.39083333333333
ALMOB,30.5475,56.49333333333333
ALMUD,33.33361111111111,56.000277777777775
ALMUX,36.46,60.85583333333334
ALNER,32.853611111111114,53.96277777777778
ALNIN,28.67861111111111,50.02722222222222
ALNIT,37.0075,54.785555555555554
ALNOL,26.681944444444444,53.6325
ALTAX,32.147222222222226,49.39833333333333
ALTIV,36.69098611111111,50.058375
AMBEG,35.187777777777775,55.693333333333335
ASMOB,38.013888888888886,48.79555555555555
ASNIN,30.648333333333333,52.163333333333334
ASPOK,36.958888888888886,48.761944444444445
ASRIL,34.47027777777778,47.75361111111111
ASVIS,33.77583333333333,59.30777777777778
BOMIT,32.32805555555556,54.58277777777778
BOMUN,31.610277777777778,54.763888888888886
BONEG,31.47388888888889,53.97083333333333
BONOL,32.37888888888889,54.12277777777778
BONUK,36.716388888888886,54.7075
BONUP,36.59777777777778,50.51138888888889
BOPAG,30.736944444444443,58.82472222222222
BOPEB,33.320277777777775,59.24666666666667
BOPIS,30.478055555555557,48.71333333333333
BORES,38.47361111111111,45.35194444444444
BOSOS,26.72361111111111,55.719722222222224
BOTEK,36.793055555555554,58.62166666666667
BOXAM,34.63027777777778,51.863055555555555
BUBAV,33.988083333333336,47.60350277777778
BUDED,37.886944444444445,47.34222222222222
DABSU,37.08444444444444,54.748333333333335
DAMOS,37.43861111111111,47.755833333333335
DANEB,36.329166666666666,51.404444444444444
DANIB,29.118333333333332,61.28805555555556
DANIC,36.64055555555556,57.77972222222222
DANIX,28.9875,60.861111111111114
DANOV,29.245555555555555,60.399166666666666
DANUS,29.60388888888889,60.342777777777776
DAPAP,29.775,60.431666666666665
DAPEM,32.85722222222222,48.69972222222222
DAPER,25.75611111111111,54.95861111111111
DAPIK,32.931666666666665,48.43138888888889
DAPOG,33.62888888888889,52.39194444444445
DAPOX,30.545833333333334,55.791111111111114
DARON,32.16222222222222,48.87888888888889
DASDA,38.69305555555555,46.870555555555555
DASDO,28.855,52.06305555555556
DATOL,36.78805555555556,53.785
DATUT,26.561666666666667,53.56194444444444
DAXAL,34.859722222222224,49.58166666666666
DEDLA,36.93888888888889,50.01222222222222
DEKBA,34.3625,50.14222222222222
DEMPO,30.297777777777778,48.72388888888889
DENSI,26.532777777777778,54.48888888888889
DERBO,29.428333333333335,61.283611111111114
DIRUS,34.285833333333336,52.04638888888889
DISEL,33.48444444444444,51.02166666666667
DIVAB,25.178333333333335,59.86833333333333
DOBAS,34.286944444444444,51.548611111111114
DODAK,31.04888888888889,53.66111111111111
DOLOS,37.835,58.03333333333333
DULAV,38.94908888888889,45.631594444444445
DUNBA,35.91916666666667,51.81861111111111
DURSI,27.205277777777777,52.028888888888886
EGLES,25.941388888888888,60.50388888888889
EGMAN,37.05305555555555,50.3075
EGMID,26.604166666666668,53.066944444444445
EGNUX,25.66861111111111,59.925555555555555
EGPAT,32.55833333333333,51.4025
EGPER,25.871111111111112,60.12861111111111
EGPIC,25.143055555555556,60.4925
EGRON,25.07888888888889,61.545833333333334
EGRUD,37.089166666666664,49.0625
EGTOS,34.58972222222222,51.75361111111111
EGTUL,37.40138888888889,56.81166666666667
EGVAX,31.726944444444445,49.13388888888889
EGVEL,34.71611111111111,50.50138888888889
EGVON,38.27972222222222,47.905833333333334
ELOKA,31.346666666666668,60.01083333333333
GABGU,32.83027777777778,53.42805555555555
GABMI,37.6875,49.181111111111115
GABMO,30.907222222222224,48.97611111111111
GABSU,30.88888888888889,48.50472222222222
GADLU,32.27916666666667,50.782222222222224
GADPU,31.4525,54.550555555555555
GAGDA,36.06638888888889,56.965555555555554
GAGDI,38.3425,46.91583333333333
GESIP,31.765555555555554,52.06638888888889
GETOB,37.2075,46.85805555555555
GEVOR,33.2375,56.92138888888889
GIBAB,35.61638888888889,54.515277777777776
GOKSO,26.928333333333335,60.67
GOMVA,36.09916666666667,48.67888888888889
GOPDA,36.215555555555554,50.623333333333335
IBKER,36.659166666666664,51.88333333333333
IBKUG,29.4375,49.99777777777778
IBNUX,26.27138888888889,54.202222222222225
IBRAV,36.38111111111111,55.78944444444444
IBSAL,30.11,48.735
IBTOS,28.78361111111111,50.326388888888886
IMDAT,27.683333333333334,51.18333333333333
IMKEN,31.735277777777778,49.60305555555556
IMPAT,32.41416666666667,58.14888888888889
ITIBI,31.580833333333334,49.27527777777778
ITUPA,38.57666666666667,48.03888888888889
IVELI,34.583333333333336,48.595
KAMAR,32.65,60.733333333333334
KANAS,25.264444444444443,57.78333333333333
KANAT,30.53527777777778,53.29194444444445
KAPIP,29.038055555555555,50.015
KARAM,28.719722222222224,53.53805555555556
KASOL,28.529722222222222,53.259166666666665
KATAG,28.39611111111111,52.31138888888889
KATIB,28.569166666666668,51.84638888888889
KATOS,28.944166666666668,51.44138888888889
KAVIL,29.805555555555557,51.284444444444446
KAVOT,30.68638888888889,52.32277777777778
KEBUD,27.59777777777778,62.84
KISED,30.305555555555557,51.574444444444445
KOBUB,37.104166666666664,50.17888888888889
KUGVU,29.129722222222224,51.33888888888889
KUMUN,25.666666666666668,55.25416666666667
KUPTO,28.405,52.90888888888889
KUSLA,35.374722222222225,49.513888888888886
KUVAV,31.509444444444444,58.95305555555556
LABET,36.166111111111114,53.02527777777778
LABKA,36.695,50.72833333333333
LABOT,32.810833333333335,53.014722222222225
LADAL,32.37388888888889,52.92861111111111
LADAP,26.891944444444444,59.42055555555555
LAGSA,28.494722222222222,52.335277777777776
LAKMA,32.98444444444444,50.67472222222222
LALDA,38.26990833333333,49.75309166666667
LALDU,33.6325,51.27055555555555
LARAB,33.7375,51.64972222222222
LOVID,35.12777777777778,47.47805555555556
LOXAK,31.748333333333335,51.72888888888889
LOXAM,26.45722222222222,56.02388888888889
LOXOL,27.765555555555554,60.760555555555555
LOXUB,36.611111111111114,48.82833333333333
LUDAX,29.949444444444445,60.68361111111111
MELMI,26.773611111111112,57.38333333333333
MEMPI,29.580277777777777,50.17444444444445
MESVI,31.488888888888887,49.95027777777778
METBI,24.932222222222222,61.471111111111114
METKI,36.19861111111111,58.411944444444444
MIDMO,37.09527777777778,59.02333333333333
MINOT,36.455,55.11222222222222
MIVAK,35.986111111111114,49.889722222222225
MIVUN,26.530833333333334,54.33138888888889
MOBAD,27.70722222222222,57.33583333333333
MOBET,26.735,56.15222222222222
MOBON,27.737222222222222,55.42027777777778
MODEK,36.655,52.56861111111111
MODIL,37.82361111111111,49.68805555555556
MOKAB,34.02027777777778,46.850833333333334
NABAX,36.165277777777774,50.80444444444444
NABOD,28.275,58.43361111111111
NAGMA,36.03722222222222,51.34861111111111
NALBI,29.770555555555557,53.90472222222222
NANTO,28.688055555555554,56.65777777777778
NEBIX,27.19806388888889,54.22624444444445
NIDIT,32.82194444444445,53.250277777777775
NODLA,32.891666666666666,54.980555555555554
NOTSA,33.297222222222224,49.04
NOTSO,35.23777777777778,59.50944444444445
OBMOR,28.970555555555556,49.67
OBTUX,31.377777777777776,51.87638888888889
ODBES,32.513888888888886,59.43222222222222
ODKAT,35.683055555555555,54.86138888888889
ORDAD,30.0775,57.925555555555555
ORLOG,34.91722222222222,49.155277777777776
ORPAB,37.7,58.575
ORSAR,26.075,53.958333333333336
PAPAR,26.666666666666668,54.45
PAPOK,38.744166666666665,46.35138888888889
PAPON,34.140277777777776,57.39277777777778
PAROT,36.19111111111111,49.97805555555556
PARUG,32.784444444444446,52.49638888888889
PAVET,35.44416666666667,49.88361111111111
PAXAT,33.34888888888889,46.08861111111111
PAXID,36.284166666666664,50.339166666666664
PEKES,28.99138888888889,59.8725
PIRAN,29.56861111111111,61.13583333333333
PUSAL,36.589444444444446,53.804722222222225
PUTMA,37.8,51.96
RABAM,34.54222222222222,51.50138888888889
RABDI,38.80111111111111,45.74194444444444
RABEM,37.81138888888889,45.496944444444445
RADAL,34.85,52.265277777777776
RADID,30.414722222222224,51.4275
RAGIN,35.134166666666665,50.52527777777778
RAKED,37.9375,47.12694444444445
RALGO,37.479166666666664,49.016666666666666
RAMIL,35.48583333333333,58.82805555555556
RANDU,32.544444444444444,52.988055555555555
RARTA,36.889722222222225,49.92111111111111
RASLA,33.169444444444444,49.734722222222224
RIBOB,37.286944444444444,56.868611111111115
RIKOP,37.67388888888889,58.24722222222222
ROTAL,27.544722222222223,53.888888888888886
ROVAD,35.45,52.68611111111111
ROVON,37.26694444444445,45.88944444444444
RUDAD,37.67916666666667,46.96138888888889
RULIK,34.34305555555556,47.77305555555556
SEMSU,36.81611111111111,51.15611111111111
SESBI,35.655833333333334,50.504444444444445
SESMA,29.579722222222223,51.07805555555556
SETNA,37.9375,45.922777777777775
SIBVU,38.745555555555555,45.7825
SILKO,29.9325,58.695277777777775
SILPO,37.135,58.001666666666665
SIMDU,32.946666666666665,56.93638888888889
SITEN,29.03527777777778,52.925555555555555
SIVIT,37.598055555555554,49.08638888888889
SIVUD,33.02194444444444,52.0025
SOGOT,33.7725,48.73138888888889
SOKAM,33.221111111111114,60.63166666666667
SOLAK,28.797777777777778,56.17138888888889
SUTBU,36.556666666666665,48.79222222222222
TAKRA,30.01638888888889,55.395833333333336
TASLU,34.42527777777778,57.691944444444445
TAVNO,28.183055555555555,56.554722222222225
TOTBO,37.581944444444446,45.48277777777778
TOVTA,32.09111111111111,53.73916666666667
TUBAR,37.505,45.435833333333335
TUDNU,37.85611111111111,44.721666666666664
TUKDO,38.77388888888889,47.74611111111111
TUKLO,36.9525,50.784444444444446
TULER,37.21722222222222,56.933055555555555
TULGU,36.47666666666667,48.709722222222226
TULKU,33.01722222222222,58.84
ULDUS,38.0,51.016666666666666
VATAN,30.133333333333333,49.5925
VATOB,28.857222222222223,51.276666666666664
VAVAS,29.280555555555555,53.894444444444446
VEDOP,31.5375,54.690555555555555
VELAP,35.118611111111115,51.655833333333334
