IDENT,LATITUDE,LONGITUDE
ABAFT,-20.409666666666666,-47.90866666666667
ABASE,-5.730166666666666,-37.7695
ABATE,-14.391166666666667,-58.83716666666667
ABEAR,-26.434583333333332,-49.65141666666667
ABELA,-30.894666666666666,-52.30683333333333
ABIDE,0.6785,-69.688
ABODE,-13.764166666666666,-38.855
ABOVE,-22.015666666666668,-51.88316666666667
ABSAL,-21.921666666666667,-43.357
ABUCU,-4.586166666666667,-39.13466666666667
ABUSE,-18.257666666666665,-51.46933333333333
ACENA,-9.205166666666667,-46.08583333333333
ACRID,-16.938666666666666,-39.547666666666665
ADEMI,-10.553333333333333,-39.81616666666667
ADOLF,-11.76,-38.3505
ADUST,-3.781,-60.616166666666665
AERON,-9.578,-68.53933333333333
AFTER,-16.741833333333332,-45.708666666666666
AGENT,-20.0165,-55.61983333333333
AGRO,-15.852644444444444,-47.81486944444445
AGTAL,-2.7815,-59.508833333333335
AGUA,-23.090166666666665,-42.28516666666667
AGURI,-27.1285,-48.675666666666665
AKNEN,-32.007666666666665,-53.88733333333333
AKNIB,1.5115,-55.6395
AKNOV,-0.8424999999999999,-65.34633333333333
AKNUB,-24.494166666666665,-44.573
AKPOD,-32.465833333333336,-53.56133333333333
AKRAN,-5.832666666666666,-16.7335
AKSUG,-20.365666666666666,-44.348333333333336
AKSUK,-1.8978333333333333,-66.53183333333334
AKSUL,-22.55,-55.78616666666667
AKSUM,2.4046666666666665,-62.189166666666665
AKSUX,-21.525666666666666,-46.21516666666667
AKTOR,-4.0095,-68.73683333333334
AKTUM,3.511,-60.808
ALBER,-23.933166666666665,-47.34166666666667
ALBEX,-19.07,-52.62566666666667
ALBIM,-16.507166666666667,-47.797333333333334
ALBOM,-12.521,-62.697
ALCIR,-22.465166666666665,-42.32333333333333
ALEMA,-21.52616666666667,-47.10966666666667
ALGAL,-19.8505,-20.000333333333334
ALINA,-16.4505,-47.669666666666664
ALONE,-18.9555,-52.46183333333333
ALONG,-16.03783333333333,-47.7725
ALVAR,-10.494166666666667,-49.901833333333336
ALVOX,-26.175,-48.9725
AMALO,-12.467166666666667,-62.80533333333333
AMANT,-16.384833333333333,-48.82383333333333
AMBET,-7.7595,-34.44566666666667
AMENT,-16.8395,-39.64083333333333
AMERO,-26.143833333333333,-49.466166666666666
AMOB,-3.6151666666666666,-59.788833333333336
AMVER,-2.2956666666666665,-54.0135
AMZAK,-15.254166666666666,-56.66416666666667
ANBIX,2.1851666666666665,-60.62316666666667
ANDER,-4.264,-44.221833333333336
ANDOR,-23.762,-47.38466666666667
ANGAS,-16.5235,-55.858
ANGOL,-15.8235,-54.01766666666666
ANGUK,-4.552333333333333,-52.371833333333335
ANIP,-2.7795,-60.74016666666667
ANISE,-24.602166666666665,-46.62533333333333
ANLES,-19.189333333333334,-43.44
ANPOS,-13.785166666666667,-57.76983333333333
ANSOX,1.557,-55.5945
APINO,-14.961833333333333,-45.20783333333333
APORT,-14.053666666666667,-42.060833333333335
APUC,-12.709666666666667,-37.945
APURU,-1.0925,-50.871
ARENA,-21.026666666666667,-44.7825
ARENU,-20.783833333333334,-25.000333333333334
ARETE,-11.772166666666667,-39.04566666666667
ARGIL,-26.855166666666666,-53.574666666666666
ARGOS,-19.8515,-57.422333333333334
ARIL,-8.231411111111111,-34.85813611111111
ARINO,-10.538166666666667,-56.10583333333334
ARISE,-25.408666666666665,-54.371
ARMAN,-6.306166666666667,-39.68516666666667
ARMUK,-13.482166666666666,-61.55833333333333
AROMA,-31.281333333333333,-52.399166666666666
AROPI,-6.311333333333334,-60.888
ARPAR,-10.515,-59.28633333333333
ARTIK,-7.6255,-68.5665
ARUBI,-17.159333333333333,-41.466833333333334
ARUKI,-10.607333333333333,-49.14683333333333
ARUNU,-0.5725,-27.328
ARVIS,-23.094,-47.983
ARVIV,-20.882,-45.497166666666665
ARVIX,1.0355,-63.5155
ARVOT,2.2111666666666667,-62.38016666666667
ASANU,-3.8296666666666668,-21.1725
ASAPA,-3.021,-69.71433333333333
ASDEK,-28.594833333333334,-51.34133333333333
ASDOK,-1.6136666666666666,-22.440333333333335
ASGAT,-21.9325,-43.478833333333334
ASOLA,-9.795,-70.973
ASONO,-24.265333333333334,-46.9745
ASTOB,-20.68,-48.823166666666665
ASUMA,-31.8675,-54.15533333333333
ASUMI,-3.2503333333333333,-60.511
ATASA,-21.5505,-30.000333333333334
ATEBO,-23.480333333333334,-49.129666666666665
ATEXO,-27.3025,-48.0085
ATNAS,-20.167833333333334,-55.304
ATYLA,-15.243,-48.67483333333333
AUGUR,-13.528833333333333,-43.86383333333333
AULIC,-24.765,-50.80583333333333
AVILA,-9.516833333333333,-37.147666666666666
AWAKE,-22.137333333333334,-42.573166666666665
AZOIC,-10.286833333333334,-47.708
AZOTE,-11.834,-37.840833333333336
BACON,-19.220166666666668,-47.181
BAIAN,-14.623833333333334,-45.76716666666667
BAKER,-29.125666666666667,-51.850833333333334
BANAL,-21.705833333333334,-52.76866666666667
BANGU,-7.596666666666667,-38.454166666666666
BANJO,-6.1946666666666665,-37.48616666666667
BANTU,-30.23,-52.1555
BARCO,-1.6826666666666665,-56.868
BAREF,-9.794666666666666,-48.263333333333335
BARGE,-8.370166666666666,-61.35466666666667
BARKA,-7.962833333333333,-44.181666666666665
BASAL,-4.005,-60.01766666666666
BASIL,-6.093833333333333,-40.22683333333333
BEANO,-18.7395,-48.494
BEGET,-21.012666666666668,-43.50716666666667
BEL01,-1.5793722222222222,-48.4303
BEL03,-1.5853444444444444,-48.47861666666667
BEL10,-1.5828694444444444,-48.509858333333334
BEL11,-1.5634361111111112,-48.56928611111111
BEL12,-1.43975,-48.28665
BEL13,-1.4305194444444445,-48.318644444444445
BEL14,-1.4938166666666666,-48.31112777777778
BEL15,-1.475575,-48.33904166666667
BEL16,-1.5468722222222222,-48.43835277777778
BEL17,-1.5518472222222222,-48.47861666666667
BEL22,-1.5497833333333335,-48.50465277777778
BEL26,-1.4755972222222222,-48.65655833333334
BEL29,-1.3633416666666667,-48.67721944444445
BEL30,-1.533588888888889,-48.55417222222222
BEL31,-1.2899944444444444,-48.65493333333333
BEL32,-1.5248249999999999,-48.56925833333333
BEL33,-1.242236111111111,-48.619816666666665
BEL34,-1.2197166666666668,-48.593152777777775
BEL35,-1.2157944444444444,-48.58737222222222
BEL36,-1.4804222222222223,-48.61494166666667
BEL37,-1.4603916666666668,-48.6269
BEL38,-1.4134361111111111,-48.64250555555556
BEL39,-1.4018611111111112,-48.64412222222222
BEL40,-1.3668444444444443,-48.64411944444444
BEL41,-1.3057222222222222,-48.62555
BEL42,-1.2659222222222222,-48.59628611111111
BEL43,-1.2471583333333334,-48.57406388888889
BEL44,-1.2438888888888888,-48.569247222222224
BEL45,-1.5198583333333333,-48.57643888888889
BEL58,-1.4731083333333332,-48.61975
BEL79,-1.41925,-48.67528611111111
BEL83,-1.4053583333333333,-48.677225
BELIA,-21.003833333333333,-43.93566666666667
BELIC,-28.917833333333334,-49.79683333333333
BELIS,-6.5715,-47.064
BERLI,-23.643666666666668,-52.053666666666665
BERNA,-11.350999999999999,-50.532666666666664
BERTI,-7.912833333333333,-39.43933333333333
BETAR,-12.021833333333333,-46.891
BETEL,-23.1025,-47.971
BHZNB,-19.85333333333333,-43.95466666666667
BIDEV,-16.233833333333333,-38.97233333333333
BIGOD,-9.677833333333334,-67.21383333333333
BIGOT,-3.5805,-60.7325
BILUX,-5.819,-26.229333333333333
BINAS,-2.733,-60.85166666666667
BIRTI,-11.2775,-42.60583333333334
BISAN,-9.052,-48.849833333333336
BISSA,-8.845,-40.83716666666667
BITAK,-23.630166666666668,-43.638
BIVUT,1.2028333333333334,-63.352666666666664
BLESS,-15.391833333333333,-39.880833333333335
BLIND,-29.676166666666667,-56.657
BLOCK,-13.829,-38.72683333333333
BLOTA,-8.148333333333333,-71.61666666666666
BLUES,-15.329833333333333,-46.51916666666666
BOBAS,-9.047,-71.2695
BODAK,1.5986666666666667,-29.996333333333332
BOGUR,-8.748833333333334,-64.021
BOMAK,-1.7755,-54.97516666666667
BOMAL,-10.343166666666667,-50.889833333333335
BORBA,-12.356166666666667,-38.67366666666667
BOTOM,-23.278333333333332,-44.068666666666665
BRACE,-27.046333333333333,-48.32083333333333
BRAKE,-20.624166666666667,-53.9795
BRASA,-24.195333333333334,-50.3645
BRAVO,-21.534666666666666,-51.542833333333334
BRAZE,-14.577666666666667,-48.101
BREGA,-3.225,-59.48533333333334
BRETA,-24.2225,-48.00183333333333
BRICK,-27.695333333333334,-52.94716666666667
BRIDE,-17.570666666666668,-40.6785
BROCK,-24.89666666666667,-48.3145
BROKE,-2.7241666666666666,-48.46066666666667
BRS14,-15.76005,-47.80973888888889
BRS16,-15.639758333333333,-48.03401111111111
BRS19,-16.10646388888889,-47.991797222222225
BRS23,-15.63985,-48.004475
BRS30,-15.957655555555556,-47.7951
BRS36,-15.649513888888889,-47.950605555555555
BRS40,-15.802052777777778,-47.99293055555555
BRS45,-15.662983333333333,-47.91526944444445
BRS46,-16.011475,-47.82523611111111
BRS49,-15.866586111111111,-47.93695
BRS53,-16.03655277777778,-47.84695277777778
BRS54,-15.898125,-47.78040277777778
BRS58,-15.691480555555556,-47.86903888888889
BRS61,-15.854969444444444,-47.81763611111111
BRS62,-15.860997222222222,-47.8952
BRS65,-16.06808611111111,-47.885758333333335
BRS79,-16.096655555555557,-47.93743055555556
BRS80,-15.775427777777777,-47.838322222222224
BRS83,-15.770855555555556,-47.80373055555555
BRS86,-16.102197222222223,-47.9668
BRS95,-15.8169,-47.786366666666666
BRS98,-16.10817777777778,-48.01712222222222
BRSNB,-15.869666666666667,-48.02166666666667
BRUTI,-19.868,-48.099833333333336
BUBA,-15.7166,-47.959
BUGAT,-3.6191666666666666,-29.243166666666667
BUMBA,-3.5511666666666666,-65.76983333333334
BUTAB,-4.127166666666667,-69.51
BUTAP,-0.2638333333333333,-27.137
BUVER,-21.8245,-49.9
BUVEV,-22.249166666666667,-46.76266666666667
BUVGU,-23.758333333333333,-46.8235
BUVIP,1.3708333333333333,-59.22666666666667
BUVKA,1.1038333333333334,-65.15216666666667
BUVKU,3.512,-61.1185
BUXER,-17.156166666666667,-41.3465
CADET,-7.735166666666666,-41.42483333333333
CAIN,-3.689166666666667,-60.2765
CALAN,2.1696666666666666,-50.707166666666666
CALDA,-20.084333333333333,-44.61983333333333
CALIF,-4.469,-42.5225
CALOI,-11.318166666666666,-41.976333333333336
CALVE,-30.768666666666668,-51.901666666666664
CALVO,-18.428833333333333,-39.0125
CAMB,-12.735833333333334,-38.71083333333333
CANO,-23.118833333333335,-44.43383333333333
CANON,-12.805333333333333,-57.05383333333333
CANOP,-19.352166666666665,-56.98583333333333
CARAM,-17.099166666666665,-39.212666666666664
CARDO,-15.627333333333333,-44.095333333333336
CARMO,-23.791,-51.75
CARVA,-14.381166666666667,-45.35033333333333
CASTE,-17.499666666666666,-48.78633333333333
CAX02,-22.778188888888888,-43.297152777777775
CAX03,-22.788333333333334,-43.20665277777778
CAX04,-22.80758888888889,-43.26938611111111
CAX05,-22.858877777777778,-43.347569444444446
CAX07,-22.762394444444446,-43.20782777777778
CAX10,-22.70125277777778,-43.17205833333333
CAX11,-22.786433333333335,-43.135075
CAX13,-22.80716111111111,-43.269083333333334
CAX15,-22.790941666666665,-43.045025
CAX16,-22.744325,-43.04671666666667
CAX18,-22.64135277777778,-43.042902777777776
CAX19,-22.726130555555557,-43.151605555555555
CAX21,-23.040469444444444,-43.37931666666667
CAX38,-22.795697222222223,-43.29114444444444
CAX75,-22.783244444444446,-43.19810833333333
CAXNB,-22.763333333333332,-43.3375
CHAMP,-3.6295,-60.2625
CHANT,-8.904666666666667,-64.54866666666666
CHECK,-3.422833333333333,-60.82383333333333
CHORD,-12.863666666666667,-49.3995
CIDER,-24.1305,-40.27316666666667
CITRA,-10.689666666666668,-67.71233333333333
CLARK,-2.9295,-42.60916666666667
CLARO,-25.108333333333334,-48.599666666666664
CLOSE,-20.966,-53.743833333333335
CLOTI,-2.1238333333333332,-67.16816666666666
CLUBE,-2.6955,-56.232
CLUNG,-27.754166666666666,-50.730333333333334
COLOR,-0.8345,-48.85816666666667
CONDE,-11.9415,-37.692
CONTA,-7.979,-65.706
CORAL,-13.849666666666666,-38.673833333333334
CORVO,-18.905833333333334,-48.080666666666666
COSME,-23.276833333333332,-45.107166666666664
COVER,-29.551666666666666,-51.517
CRAFT,-13.215666666666667,-44.719833333333334
CRANE,-25.430666666666667,-53.8155
CRATE,-17.346666666666668,-41.1385
CREMA,-20.079166666666666,-54.094
CREPI,-21.0025,-44.2035
CRISE,-16.523833333333332,-47.860166666666665
CROMO,-3.6336666666666666,-39.20016666666667
CRONE,-13.691166666666666,-58.91916666666667
CROOK,-18.667166666666667,-43.249
CROWD,-18.214833333333335,-46.57783333333333
CRUSH,-17.790666666666667,-40.35366666666667
CRYPT,-23.460166666666666,-49.437
CURLY,-20.6765,-50.942166666666665
CURSE,-24.152,-47.16266666666667
CURUK,-3.716,-48.86216666666667
CVLNB,-17.654166666666665,-39.249833333333335
DACIR,,
DADEG,-2.1521666666666666,-59.24916666666667
DADEL,-12.533,-56.22966666666667
DADNA,-17.542333333333332,-40.79383333333333
DADOT,-9.8665,-52.815333333333335
DADOV,-20.423,-49.16466666666667
DAGAM,-6.178,-17.248
DAGBA,-19.980166666666666,-48.892
DAGEL,-18.006666666666668,-39.968666666666664
DAGEP,-19.267666666666667,-48.45766666666667
DAISE,-29.051333333333332,-50.781
DAKEM,-21.417666666666666,-50.206
DALMA,-10.214166666666667,-41.465333333333334
DAMEX,-11.395833333333334,-44.1435
DAPSA,2.293833333333333,-60.318666666666665
DARAL,-20.701833333333333,-54.004333333333335
DARCI,-24.257166666666667,-48.7635
DARDI,-8.839,-57.50116666666667
DARIO,-19.946,-57.5055
DARLO,-5.208833333333334,-55.36866666666667
DATEK,-3.660833333333333,-55.624833333333335
DEDOR,-12.960333333333333,-39.003
DEJAN,-20.769666666666666,-44.0875
DEKON,5.216666666666667,-31.631666666666668
DELAY,-26.066166666666668,-49.0045
DEMIT,-7.2363333333333335,-59.657333333333334
DEMON,-15.393333333333333,-36.91416666666667
DENDE,-15.287333333333333,-39.522
DENDO,-10.246833333333333,-36.4295
DENOB,-9.836,-48.5795
DENSE,-19.233333333333334,-50.418
DEPOT,-19.304166666666667,-43.81933333333333
DEPTI,-17.774,-46.316
DESEX,-14.163,-34.052166666666665
DEUCA,-26.646166666666666,-47.039833333333334
DEVIL,-26.475,-52.03933333333333
DIANA,-4.287,-38.121
DIFAT,-17.184,-48.943
DIGOR,0.6666666666666666,-28.666666666666668
DIKAL,-9.403833333333333,-63.357166666666664
DIKEB,4.497833333333333,-34.154833333333336
DIMER,-15.813,-56.63816666666666
DIMUB,-13.681166666666666,-52.2955
DIMUK,0.07916666666666666,-64.43916666666667
DINER,-13.893333333333333,-38.51233333333333
DIONI,-23.808,-47.63933333333333
DISKA,-20.238333333333333,-44.528666666666666
DIVRA,3.6606666666666667,-60.98833333333333
DOBDU,-19.620166666666666,-44.995
DOBKO,-18.255,-42.87916666666667
DOGLO,-4.139833333333334,-69.59433333333334
DOGNA,-13.1605,-41.771
DOGSU,-20.494666666666667,-41.407
DOGTI,-25.609,-53.77016666666667
DOGTO,-1.2711666666666668,-60.88883333333333
DOKBU,-5.62,-60.725833333333334
DOLTI,-2.783166666666667,-57.872166666666665
DOLVI,-13.664,-49.035333333333334
DOMDA,-7.940166666666666,-54.733
DOMGA,-1.4428333333333334,-58.5495
DOMGI,-16.063333333333333,-47.04116666666667
DOMIN,-24.717,-49.152
DOMLA,-19.099166666666665,-42.41316666666667
DOMLI,-15.015166666666667,-47.764833333333335
DONA,-22.057833333333335,-42.694
DONOR,-30.4525,-53.1565
DONRE,-16.268833333333333,-56.39066666666667
DORNO,-14.986666666666666,-56.11116666666667
DOTBA,-19.377333333333333,-43.31616666666667
DOTKA,-14.764333333333333,-47.95783333333333
DOTLA,-10.677833333333334,-52.022666666666666
DRINK,-15.682666666666666,-39.552166666666665
DRUNK,-12.422333333333333,-44.920833333333334
DUNA,-12.941530555555556,-38.488280555555555
DUNCE,-21.454166666666666,-53.475833333333334
EAGLE,-29.202833333333334,-51.7905
EDITE,-6.9075,-38.14
EDNAR,-15.476833333333333,-48.5785
EDOLA,-19.882166666666667,-47.58283333333333
EFRAT,-13.233833333333333,-42.907833333333336
EGALE,-9.785666666666666,-48.3655
EGAP,-3.5323333333333333,-59.6765
EGBAK,-9.3745,-68.3475
EGBAR,-20.521,-43.967
EGBAV,-13.360333333333333,-49.344
EGBAX,-0.6331666666666667,-61.96966666666667
EGBED,-21.394833333333334,-46.66866666666667
EGBEM,-4.777666666666667,-61.275666666666666
EGBES,-21.168833333333332,-44.69466666666667
EGBIB,-3.6933333333333334,-61.3145
EGBIT,-16.760833333333334,-47.8025
EGELO,-9.262166666666667,-63.386833333333335
EGIMI,6.0,-36.333333333333336
EGIMO,-17.57133333333333,-54.691
EGITO,-23.285666666666668,-48.095666666666666
EGLER,-5.305166666666667,-64.25533333333334
EGOLA,-13.104333333333333,-51.839166666666664
EGUPA,-2.5621666666666667,-23.295
EKALO,-22.433833333333332,-38.147166666666664
EKODI,-17.992166666666666,-39.9945
EKOXU,-4.328166666666666,-61.5675
EKUBA,-20.506166666666665,-44.258
EKUKA,-3.981,-61.18066666666667
ELAMO,-28.1005,-55.45216666666666
ELANU,-24.895833333333332,-47.741166666666665
ELATE,-29.626,-50.527
ELDA,-13.317166666666667,-38.23983333333334
ELDOR,-11.226666666666667,-50.44083333333333
ELEFA,-13.1535,-39.108666666666664
ELENA,-3.041166666666667,-44.732
ELIET,-3.1705,-43.90866666666667
ELION,-22.205,-50.974666666666664
ELOG,-13.127833333333333,-38.685
ELOPE,-3.6546666666666665,-60.382333333333335
ELOSA,-25.0135,-49.63666666666667
EMAKE,-2.258166666666667,-54.17283333333334
EMBER,-23.059166666666666,-49.6155
EMTUP,-10.0145,-30.090666666666667
ENACT,-21.935,-49.04066666666667
ENVOX,-5.1370000000000005,-55.016
EPKIR,-3.2091666666666665,-62.290333333333336
EPKOK,-6.894,-55.757666666666665
EQUAL,-13.756666666666666,-56.10966666666667
EQUIV,-21.443666666666665,-50.07416666666666
ERETU,3.1283333333333334,-28.8
ERODE,-4.718333333333334,-38.885333333333335
ERODO,-9.242,-68.12483333333333
ERUGA,-0.8178333333333333,-48.83383333333333
ESBUK,-9.229833333333334,-68.088
ESBUL,-12.2585,-62.181666666666665
ESBUV,-3.9646666666666666,-61.803
ESDAD,-22.245833333333334,-46.3605
ESDAX,-3.6885,-61.98133333333333
ESDER,-20.294833333333333,-57.81316666666667
ESDET,-4.364166666666667,-61.00233333333333
ESENO,-27.110666666666667,-48.137166666666666
ESGUM,-6.6258333333333335,-34.037333333333336
ESKES,-12.116333333333333,-55.68866666666667
ESLEV,-1.6675,-60.255833333333335
ESLIB,-13.087,-37.27033333333333
ESLIT,-6.523666666666667,-39.128166666666665
ESLUM,-20.41283333333333,-41.74
ESMAN,-3.1483333333333334,-61.56783333333333
ESMAP,-20.284166666666668,-42.25716666666667
ESMAR,-5.747833333333333,-56.867666666666665
ESMEG,-19.846333333333334,-44.36066666666667
ESNER,-6.314,-48.41266666666667
ESORA,-21.906,-43.169
ESPIN,-20.93,-54.91466666666667
ESTEP,-4.042166666666667,-43.41116666666667
ESTER,-17.178333333333335,-55.13133333333333
ETANO,-24.458,-44.58733333333333
ETAXO,-15.856666666666667,-10.0
ETIMO,-5.044833333333333,-22.47533333333333
EUDES,-18.269,-39.49766666666667
EUJE,-22.743666666666666,-43.03033333333333
EVNAK,-13.649666666666667,-57.6965
EVNOL,-20.103833333333334,-42.968833333333336
EVOLO,-10.191833333333333,-63.19166666666667
EVPAD,-19.957833333333333,-42.97866666666667
FAITI,-19.257666666666665,-43.138
FALSE,-19.803333333333335,-42.76583333333333
FAROL,-22.621833333333335,-48.666666666666664
FATAL,-19.611166666666666,-57.34166666666667
FAVOR,-4.073,-55.365
FEITO,-25.6585,-45.8905
FELIX,2.1851666666666665,-60.623333333333335
FEMUR,-3.634,-34.03616666666667
FERAL,-3.437333333333333,-60.38883333333333
FERMA,-17.64666666666667,-41.627833333333335
FHAW,-7.97,-14.393333333333333
FIGOS,-22.309166666666666,-42.42516666666667
FILHO,-10.195166666666667,-66.97733333333333
FILTI,-11.999166666666667,-50.045833333333334
FLAND,-17.500666666666667,-46.154333333333334
FLASH,-14.996,-46.709
FLINT,-14.670333333333334,-47.4165
FLIRT,-17.720333333333333,-40.478833333333334
FLOCK,-10.9805,-39.547
FLORI,-23.971666666666668,-48.566
FLOTE,-10.289,-67.09416666666667
FLUTE,-8.750666666666667,-32.50983333333333
FORTI,-16.3745,-42.82566666666666
FOSSE,-21.701999999999998,-48.71966666666667
FOZ06,-25.649094444444444,-54.420002777777775
FOZ31,-25.64,-54.39061111111111
FOZ48,-25.531713888888888,-54.571275
FOZNB,-25.53113888888889,-54.57044722222222
FRAIL,-19.517166666666668,-48.625
FRANK,-7.9605,-40.055166666666665
FRAUD,-22.083,-48.65866666666667
FRESH,-17.360333333333333,-49.068333333333335
FROCK,-11.426333333333334,-56.106833333333334
FRONT,-13.610333333333333,-46.208
FROTI,-10.277,-38.38766666666667
FURNS,-20.704,-46.337833333333336
GALES,-24.07,-49.139833333333335
GARCI,-24.9495,-49.693333333333335
GARUP,-18.8625,-37.67283333333334
GATUM,-18.733833333333333,-15.000166666666667
GAUZE,-20.746,-48.117666666666665
GAVEL,-30.344,-52.651833333333336
GAVUG,-26.275,-35.0
GAVUP,-20.0825,-43.05283333333333
GAXAM,-16.815333333333335,-39.6585
GAXEV,-19.443666666666665,-46.065
GAXIB,-1.9428333333333332,-61.37616666666667
GAXIL,-20.179166666666667,-42.67366666666667
GAXIM,-4.4526666666666666,-58.010333333333335
GAZAR,-17.048833333333334,-49.0355
GEBIT,-10.013833333333332,-37.957
GEBOK,-0.907,-48.9455
GEBUN,-26.577833333333334,-53.779333333333334
GEDIX,-1.9648333333333334,-60.227666666666664
GEDOK,-18.9895,-44.1955
GEDOX,-9.205,-67.83183333333334
GEDS,-23.057,-44.174166666666665
GEMOL,4.356333333333334,-59.68716666666667
GENAN,-18.11916666666667,-51.27433333333333
GENUS,-30.574666666666666,-51.550333333333334
GERAL,-23.496333333333332,-48.2395
GERTU,-11.146833333333333,-54.44083333333333
GIANT,-11.595166666666668,-34.36383333333333
GIDOD,-19.623666666666665,-40.0325
GIKRA,-1.7195,-61.14
GIKRI,-20.055333333333333,-42.120666666666665
GIKRO,-12.9165,-55.333
GIKTU,-22.046166666666668,45.45
GINGA,-16.335,-47.52033333333333
GIRAL,-8.409,-48.384166666666665
GLINT,-6.457166666666667,-63.97
GLOBO,-24.9215,-47.269
GLOVE,-26.751166666666666,-48.795
GNOME,-21.103666666666665,-51.75183333333333
GOLFO,-16.853,-44.738
GOMAL,-16.495,-48.99766666666667
GOME,-3.5951666666666666,-60.493
GONZA,-15.206166666666666,-40.244
GORDO,-22.036166666666666,-43.74283333333333
GRACE,-16.0055,-53.830333333333336
GRADE,-22.674166666666668,-47.68116666666667
GRAFO,-10.642833333333334,-67.93366666666667
GRAVE,-2.7928333333333333,-42.58683333333333
GROIN,-12.678666666666667,-44.129
GROVE,-22.909833333333335,-49.277833333333334
GRUDE,-13.077833333333333,-40.578833333333336
GRUFF,-18.341666666666665,-41.79083333333333
GRUTA,-2.0453333333333332,-54.26983333333333
GUARI,-18.578833333333332,-48.36633333333333
GUEST,-5.673166666666667,-43.10783333333333
GUIMA,-9.273333333333333,-64.2735
GUSOD,-14.666,-33.303
GUVEP,-25.579833333333333,-51.75933333333333
GUVOM,-19.524833333333333,-43.27066666666666
HABIT,-10.320666666666666,-39.96233333333333
HAMBU,-14.484333333333334,-43.52466666666667
HARDY,-21.655666666666665,-48.979166666666664
HASTE,-21.107166666666668,-48.343333333333334
HATCH,-15.605833333333333,-45.048833333333334
HAVEM,-17.293166666666668,-40.282833333333336
IBAGA,-5.317833333333334,-34.932833333333335
IBDAR,0.7136666666666667,-59.17183333333333
IBEK,-7.8933333333333335,-35.5695
IDEAL,-19.4975,-50.13033333333333
IGAPO,-5.602833333333333,-61.82533333333333
IGL02,-22.811044444444445,-43.26672777777778
ILBEK,-25.6765,-51.45783333333333
ILBEM,-1.8015,-55.0575
ILBER,-25.550666666666668,-49.905
ILGER,-17.4505,-10.000166666666667
ILKOD,-5.742166666666667,-63.16116666666667
ILKOX,-13.373666666666667,-35.545833333333334
ILMAN,-1.4935,-49.135333333333335
ILMOK,-13.009333333333334,-56.852333333333334
ILNEM,-21.082,-44.63883333333333
ILNIG,-0.41983333333333334,-60.3755
ILNOV,0.7998333333333334,-59.342
ILNUB,0.9186666666666666,-59.318
ILPER,-1.062,-49.06183333333333
ILPUR,-12.870333333333333,-42.72983333333333
ILRES,-13.1565,-62.35333333333333
ILSAT,-2.0348333333333333,-48.3175
ILSOT,-14.194166666666666,-54.75933333333333
ILSOV,-9.325833333333334,-63.609833333333334
ILTEG,-16.740833333333335,-48.285333333333334
IMBUD,-6.065833333333333,-40.29816666666667
IMPEL,-29.800666666666668,-52.95366666666666
INASU,-19.826166666666666,-54.868
INDOB,0.23033333333333333,-50.563
INPUT,-0.9061666666666667,-58.022333333333336
INTEL,-7.239166666666667,-47.54216666666667
INTER,-7.129666666666667,-67.63533333333334
INTOL,-1.3608333333333333,-32.8315
IODAD,-1.3946666666666667,-67.1005
IRLAM,-20.801,-54.053333333333335
IRUC,-2.4223333333333334,-60.3905
IRUKI,-9.262833333333333,-52.05716666666667
IRULA,-16.7755,-48.08416666666667
IRULI,-14.653333333333334,-49.24016666666667
IRUMI,-7.9736666666666665,-61.733666666666664
IS045,-12.912108333333334,-38.345711111111115
ISADO,-7.434333333333333,-34.51266666666667
ISEKI,-15.016666666666667,-57.50233333333333
ISENA,-14.366833333333334,-58.20016666666667
ISIVA,-2.3833333333333333,-59.9905
ISKAX,-8.633333333333333,-51.27133333333333
ISOBA,-1.7285,-59.52583333333333
ISODI,1.068,-61.333333333333336
ISOM,,
ISOPA,-14.9445,-52.14333333333333
ISOPI,-16.6595,-47.54216666666667
ISOSU,0.32966666666666666,-59.43716666666667
ISOTI,-5.197,-60.62716666666667
ISTAR,-10.336,-53.40866666666667
ISUKA,-16.226333333333333,-54.346333333333334
ISUNU,-2.2426666666666666,-59.961666666666666
ISUPA,-7.719166666666666,-19.528166666666667
ISURA,-8.217166666666667,-63.45183333333333
ISUTA,-19.921333333333333,-43.31333333333333
ISUVA,-2.1771666666666665,-61.54633333333334
IT113,-22.837127777777777,-42.942572222222225
ITAGU,-9.210833333333333,-63.4515
ITALO,-23.065666666666665,-54.58716666666667
ITAMA,-14.224333333333334,-58.064
JANES,-1.5675,-47.838166666666666
JARA,-1.463,-48.5599
JAUNT,-29.446,-51.5835
JAVAN,-23.861,-50.658166666666666
JOBER,-0.9465,-37.048
JOBIM,-21.779833333333332,-44.28816666666667
JOKER,-17.791666666666668,-48.9805
JOSNA,-20.731333333333332,-40.77583333333333
JOUST,-5.553833333333333,-64.71216666666666
JUDAS,-13.816166666666666,-39.075833333333335
JUICE,-29.481166666666667,-50.553333333333335
JULIA,-9.2105,-68.13633333333334
JUMBO,-25.755333333333333,-49.3215
JURAR,-4.3435,-66.1165
JURIS,-5.301,-67.46383333333333
KABAD,-3.0153333333333334,-54.499833333333335
KABUK,-28.065333333333335,-30.0
KAKIL,0.5923333333333333,-59.205666666666666
KAMIL,-25.587333333333333,-53.76616666666666
KAMIR,-2.641166666666667,-60.66266666666667
KARIU,-23.379,-50.38933333333333
KEKAR,-29.745666666666665,-52.947833333333335
KENOK,-3.8291666666666666,-67.56083333333333
KEVAD,-2.0541666666666667,-48.46966666666667
KEVOP,-16.780833333333334,-47.931333333333335
KEVOR,-21.341666666666665,-44.575833333333335
KEVUL,-4.668166666666667,-60.50333333333333
KEVUS,-20.731166666666667,-44.415333333333336
KEXAG,-20.215666666666667,-47.998333333333335
KEXAL,-20.0925,-41.833333333333336
KEXAM,-3.3076666666666665,-60.8905
KIDAN,-8.670666666666667,-35.782
KIGOM,-1.3421666666666667,-59.77733333333333
KIGOX,2.2671666666666668,-60.3985
KIGUL,-10.340166666666667,-57.66883333333333
KIMOK,-32.05,-15.0
KIOTO,-16.539666666666665,-47.94983333333333
KISAB,-20.91133333333333,-54.137166666666666
KNAVE,-22.845666666666666,-49.469166666666666
KNOLL,-21.912166666666668,-43.166
KODNA,-16.593666666666667,-47.442166666666665
KODOS,1.203,-26.217
KOGLI,-14.965,-48.07716666666666
KOKLI,-15.875,-55.443
KOKMA,-18.209333333333333,-47.76883333333333
KOLDA,-15.4365,-47.140166666666666
KOLKI,-11.07,-52.714166666666664
KOLVO,-21.398333333333333,-45.02883333333333
KOMGA,-15.8755,-49.61416666666667
KOMPO,-18.750666666666667,-49.623333333333335
KORAN,-13.923833333333333,-46.07216666666667
KORPO,-10.28,-55.57183333333333
KOTEG,-22.690166666666666,-51.28616666666667
KOXIS,-18.7905,-52.225833333333334
KUGMA,-11.540833333333333,-58.294
KUKIP,-18.693833333333334,-47.31633333333333
KUNOS,-18.668333333333333,-46.293
LACON,-30.923833333333334,-53.09883333333333
LAGO,-15.579191666666667,-47.40015277777778
LAMA,-12.885180555555555,-38.16916944444444
LANCE,-6.4345,-66.34016666666666
LAPSE,-21.066,-51.93266666666667
LAUPO,-3.070666666666667,-59.45933333333333
LAVA,-3.6993333333333336,-60.027166666666666
LECO,-22.8845,-44.208
LEMIS,-4.4535,-48.437666666666665
LENA,-8.856,-35.31583333333333
LENOX,-28.251,-48.691
LIBEC,-11.290833333333333,-48.299
LIBRA,-16.515666666666668,-41.36366666666667
LICOR,-4.256166666666667,-44.0775
LIMPO,-4.884333333333333,-72.3665
LISAN,-15.961166666666667,-54.13
LISBO,-17.667,-45.17
LITRE,-23.6545,-45.007333333333335
LITUK,-10.827666666666667,-52.28616666666667
LITUX,-0.4073333333333334,-61.707
LIVAN,-20.528166666666667,-44.57066666666667
LIVAP,-0.8628333333333333,-62.31016666666667
LIVER,-19.207833333333333,-52.8245
LOBO,-22.764466666666667,-43.10976388888889
LODOK,-0.666,-57.788
LODUR,-26.882166666666667,-53.687
LOKIM,-11.333333333333334,-15.0
LONAS,1.0091666666666668,-56.13483333333333
LOPES,-23.461833333333335,-45.91433333333333
LOTAR,-12.236833333333333,-38.30866666666667
LOVIS,-9.518,-46.51716666666667
LUCAS,-25.014,-48.7025
LUCI,-15.872652777777779,-48.06478611111111
LUCRE,-3.076,-60.62616666666667
LUIZ,-13.544166666666667,-38.8535
LUIZA,-1.98,-48.784166666666664
LUKA,-15.757833333333334,-48.12883333333333
LUNAT,-22.233666666666668,-43.9875
LUSUK,-3.0886666666666667,-60.78933333333333
LUTVI,-2.8855,-58.7685
LUVMA,-2.5098333333333334,-60.532333333333334
LUVTA,-6.586333333333333,-56.30283333333333
LUVTI,-14.051,-55.2045
MABMA,-16.70916666666667,-53.100833333333334
MADAM,-19.627666666666666,-43.6905
MADE,-3.537541666666667,-60.16861111111111
MADKO,-0.0003333333333333333,-61.43566666666667
MADRE,0.7106666666666667,-49.9235
MADRI,-24.818333333333335,-49.155
MAGDA,-15.6975,-55.422333333333334
MAGNA,-27.926166666666667,-52.772666666666666
MAGNO,-1.7438333333333333,-35.46083333333333
MAKVA,-4.779833333333333,-57.515
MALBA,-14.784666666666666,-44.57716666666666
MALEV,-24.580666666666666,-50.022666666666666
MALMI,-12.199666666666667,-53.051
MALMU,-16.447666666666667,-53.64566666666666
MALPU,-2.946833333333333,-59.32233333333333
MALVI,-4.276666666666666,-59.00533333333333
MAMBU,-0.7646666666666667,-62.153166666666664
MAMGI,-3.754,-58.62116666666667
MAMGU,-17.3645,-53.0945
MAMPO,-20.950333333333333,-47.027
MANSE,-22.761833333333332,-47.537166666666664
MARIN,-13.162,-59.477833333333336
MARRY,-21.572166666666668,-52.592666666666666
MASCA,-25.031166666666667,-49.899166666666666
MASMA,-4.4831666666666665,-59.283833333333334
MASON,-7.555833333333333,-65.22116666666666
MATEL,-25.224333333333334,-53.882333333333335
MATKA,-21.268833333333333,-49.315666666666665
MATMO,-20.5365,-49.02016666666667
MATRA,-1.9853333333333332,-52.11383333333333
MAVIK,-20.528333333333332,-45.1065
MAXIM,-20.744333333333334,-50.989333333333335
MAZAR,-6.960166666666667,-64.54183333333333
MEBLU,-18.688333333333333,-45.29983333333333
MEDAL,-0.8328333333333333,-31.0865
MEDIA,-20.9075,-43.54683333333333
MEDIT,-11.128166666666667,-36.2365
MEDLE,-4.816333333333334,-65.31566666666667
MELEM,-9.163333333333334,-21.688666666666666
MENDS,-22.578333333333333,-47.219833333333334
MEVIL,-20.363166666666668,-51.25033333333333
MEVOS,-10.401666666666667,-50.49966666666667
MEXAR,-0.27066666666666667,-50.49
MICAL,-0.2521666666666667,-51.57066666666667
MILED,-20.180833333333332,-40.99783333333333
MILIX,-15.333333333333334,-48.7775
MILTA,-17.135666666666665,-41.50816666666667
MILTO,-17.462833333333332,-45.06133333333333
MIMIR,-20.807666666666666,-40.67483333333333
MIMUM,-6.52,-62.431333333333335
MINCE,-22.817166666666665,-48.385
MINIB,-2.3158333333333334,-67.0045
MINOT,-24.153666666666666,-49.6395
MINUG,-4.629166666666666,-59.6075
MOLRA,-18.425,-43.7205
MOLTI,-16.388,-47.24283333333333
MOLVA,-21.9555,-45.77
MOMDA,-21.2055,-45.2055
MONIC,-1.7345000000000002,-63.23416666666667
MOPDA,-19.6635,-44.79783333333334
MOPIM,-7.607166666666666,-48.39516666666667
MORDO,-22.009666666666668,-48.51733333333333
MORGA,-18.613666666666667,-42.18783333333333
MORLU,-24.367,-49.147
MORMA,-11.038,-53.636
MOSNA,-15.077666666666667,-51.5735
MOTLU,-21.4355,-48.105666666666664
MOTOB,-23.368666666666666,-43.99283333333333
MOTOR,-3.105,-61.00783333333333
MOVER,-27.291166666666665,-50.11866666666667
MOXOB,-14.313833333333333,-51.96966666666667
MRC10,-22.844125,-42.99174722222222
MRC15,-23.03240277777778,-43.1531
MRC27,-23.08111111111111,-43.3515
MUCUS,-21.0265,-54.652833333333334
MUDAB,-12.731166666666667,-62.27183333333333
MUGRO,-25.004444444444445,-54.135555555555555
MUKAK,-20.329666666666668,-48.733666666666664
MULIP,-2.4981666666666666,-67.20283333333333
MULUV,-8.382666666666667,-53.639
MUMBO,-21.887333333333334,-48.2825
MUMBU,-11.4675,-53.4205
MUMRI,-16.6215,-48.54683333333333
MUMSA,-6.6898333333333335,-54.566833333333335
MUNIS,-18.3995,-49.81283333333333
MUNOL,-17.942833333333333,-43.468833333333336
MUPAV,-16.402166666666666,-47.596
MUPEG,-8.258833333333333,-63.596333333333334
MUPET,-15.867166666666666,-51.160666666666664
MUPIR,-5.592833333333333,-56.4335
MURAL,-5.002833333333333,-59.90683333333333
MUSA,-16.39765,-47.59835555555556
MUSO,-22.8571,-43.4654
NABAL,-13.572666666666667,-58.933166666666665
NABOL,-10.561166666666667,-53.196
NACAR,-18.1105,-40.658833333333334
NACIO,-20.811,-44.923
NACRE,-29.91583333333333,-51.927
NADAR,-28.1995,-50.1935
NADIR,-2.6575,-43.913833333333336
NAFIL,-26.763666666666666,-49.635
NAFTA,-3.7221666666666664,-65.7085
NALGA,-23.863,-46.41
NAMBI,1.2883333333333333,-30.136
NANAR,-14.682833333333333,-48.651833333333336
NANDA,-6.448166666666666,-58.1345
NANDU,-28.550166666666666,-50.00866666666667
NANIK,6.341666666666667,-33.172333333333334
NARDO,-25.99116666666667,-50.1875
NAROB,,
NASAL,-8.635833333333334,-57.775666666666666
NATIO,-12.9535,-47.85583333333334
NAXIT,0.022333333333333334,-59.284
NAXIV,-16.426833333333335,-50.866166666666665
NAXOT,-1.7498333333333334,-47.92066666666667
NAXUM,-4.930166666666667,-56.775333333333336
NEBAL,-17.440833333333334,-50.327666666666666
NEBAN,-4.801833333333334,-53.648
NEBUS,-17.034833333333335,-46.755
NECTO,-13.321833333333334,-45.608333333333334
NEFAR,-17.807166666666667,-50.83716666666667
NEFAS,-15.198333333333334,-44.81433333333333
NEFRO,-8.440333333333333,-41.051833333333335
NEGAR,-13.892166666666666,-45.469833333333334
NEGON,-3.2591666666666668,-44.23283333333333
NEGRA,-6.260666666666666,-69.2005
NEGRO,-19.3255,-57.04
NEGUS,-24.506,-46.9685
NEKET,-16.300166666666666,-55.92366666666667
NELIT,-8.0845,-64.13316666666667
NELOS,-6.3315,-52.897166666666664
NELSO,-10.754333333333333,-45.509166666666665
NEMEU,-21.196,-51.304833333333335
NEMOL,-6.1875,-30.868666666666666
NEROK,-24.27466666666667,-46.74583333333333
NERVO,-22.709833333333332,-49.87166666666667
NETOS,-23.430666666666667,-49.8715
NEUMA,-7.717833333333333,-36.030833333333334
NEURA,-0.9363333333333334,-30.914166666666667
NIBGA,-24.078833333333332,-47.239666666666665
NICAR,-11.816666666666666,-37.610166666666665
NIDLA,-2.5281666666666665,-61.34133333333333
NIGRA,-21.061333333333334,-49.094
NIGVA,-11.209166666666667,-65.305
NILON,-16.261666666666667,-52.07333333333333
NILSU,-20.91,-48.93516666666667
NIMBO,-14.713833333333334,-44.33283333333333
NINDI,-19.513333333333332,-45.76833333333333
NINKA,-6.956333333333333,-56.559
NINSA,-19.009833333333333,-43.71783333333333
NIPLE,-20.8175,-53.6705
NISTI,-19.062333333333335,-43.602
NITLU,-20.509166666666665,-44.064
NITMI,-17.154,-43.85483333333333
NOBEL,-28.824166666666667,-52.084833333333336
NOBRE,-4.800666666666666,-42.21183333333333
NOGUR,-23.287166666666668,-45.98883333333333
NOISE,1.3945,-29.70916666666667
NOIVA,-21.861666666666668,-52.974
NORA,-12.543833333333334,-38.5345
NOVOI,-9.807333333333334,-48.211166666666664
NUPAR,-2.5511666666666666,-55.472
NUTRI,-20.477166666666665,-51.33533333333333
NUXAR,-21.897166666666667,-52.224
OBAC,-3.4898333333333333,-60.615833333333335
OBDEM,-4.781666666666666,-53.544
OBDOL,-17.994166666666665,-43.3705
OBEBA,-6.941166666666667,-62.71383333333333
OBGAR,-18.513666666666666,-43.54783333333334
OBGEL,-6.385,-39.4835
OBGER,-16.255,-43.763333333333335
OBKUT,3.4305,-32.61833333333333
OBLIG,-18.752,-50.06766666666667
OCADO,-20.5605,-50.861666666666665
OCASO,-28.7805,-50.424166666666665
OCELO,-15.218166666666667,-46.118
OCTIL,-7.610666666666667,-41.4905
OFITO,-13.6445,-40.7065
OGLAM,-8.330333333333334,-64.44333333333333
OGPER,-5.517666666666667,-34.705333333333336
OGRUN,-32.062,-53.84283333333333
OGTUR,-14.075833333333334,-58.26266666666667
OLEAR,-14.472166666666666,-44.398833333333336
ONSEK,-10.8745,-28.908666666666665
OPABA,-6.6585,-38.47716666666667
OPERA,-30.94783333333333,-20.0
OPINE,-21.759333333333334,-51.464666666666666
OPLEX,-18.956,-44.05583333333333
OPLIK,-15.477333333333334,-49.822833333333335
OPLOK,-20.041666666666668,-48.337
OPORA,-15.093833333333333,-50.02283333333333
OPRAM,-22.956166666666668,-46.4375
OPRUX,-14.0405,-50.56816666666667
OPSUS,-7.116666666666666,-37.59916666666667
OPURI,-21.4165,-41.112833333333334
ORAGO,-10.314666666666668,-36.56316666666667
ORARO,2.2471666666666668,-30.922833333333333
ORATE,-15.110833333333334,-46.64383333333333
ORATO,-30.323,-51.83583333333333
ORAVU,-8.907333333333334,-51.61266666666667
ORBAD,-4.161833333333333,-44.223
ORDEA,-22.962833333333332,-49.119166666666665
ORIGO,-22.030666666666665,-50.009
OROKA,-22.976666666666667,-47.885666666666665
OSAMU,-25.946833333333334,-48.02133333333333
OSATU,-8.903,-64.54
OSELI,-21.303166666666666,-52.240833333333335
OSORA,-5.716166666666666,-72.94266666666667
OSTRA,-29.347666666666665,-55.547333333333334
OTAGA,-21.366666666666667,-43.9215
OTELO,-11.747333333333334,-45.98766666666667
OTONI,2.666333333333333,-52.5005
OTRAR,-8.199166666666667,-47.9575
PABOV,-21.8825,-48.61266666666667
PACAI,-2.4671666666666665,-50.66266666666667
PACAS,-13.971666666666666,-44.114333333333335
PACHO,-5.659666666666666,-42.515
PADAK,-10.663,-53.82366666666667
PADIB,-16.259166666666665,-47.4425
PADIL,-4.670333333333334,-52.974333333333334
PAGUE,-18.248833333333334,-48.412
PAGUS,-13.704,-60.276833333333336
PAJAM,-28.105166666666666,-48.96383333333333
PAJEM,-16.241833333333332,-48.59883333333333
PAKEM,-7.796333333333333,-61.22416666666667
PALIO,-7.689666666666667,-68.687
PALMO,-14.289166666666667,-45.913333333333334
PANAS,-21.467166666666667,-41.538833333333336
PANDI,-13.771166666666666,-47.3995
PANDO,-5.7065,-43.021
PANOL,-8.6605,-70.52833333333334
PAPEL,-4.485333333333333,-43.157666666666664
PAPES,-14.491333333333333,-49.94883333333333
PARDO,-12.271666666666667,-59.08433333333333
PAROL,-14.1735,-47.1735
PARSE,-22.7875,-48.23733333333333
PASTE,-20.323833333333333,-48.762166666666666
PAUTA,-30.684,-52.589666666666666
PCX02,-22.47811388888889,-42.94538333333333
PCX14,-22.71922222222222,-43.110013888888886
PCX23,-22.870405555555557,-42.97040555555556
PCX29,-22.716769444444445,-42.94768055555556
PCX38,-22.578905555555554,-42.789002777777775
PCX51,-22.498025,-42.992488888888886
PCX53,-22.589075,-42.769219444444445
PCX94,-22.60886111111111,-42.742866666666664
PCX95,-22.479575,-42.949825
PCX97,-22.568672222222222,-42.821041666666666
PCX99,-22.512302777777776,-43.01620555555556
PEDAL,-14.85,-46.79183333333334
PELTA,-14.819666666666667,-47.1705
PENSO,-28.046333333333333,-50.822
PENTE,-18.964666666666666,-44.000166666666665
PEPER,-3.1061666666666667,-41.7735
PEQUI,-19.047833333333333,-49.8245
PERAU,-21.9895,-48.900166666666664
PERES,-23.0935,-45.14783333333333
PERLA,-14.649,-44.1065
PERNA,-26.471333333333334,-50.333666666666666
PERSA,-6.072333333333333,-63.534166666666664
PERUM,-20.935833333333335,-43.53616666666667
PESCA,-19.331833333333332,-44.595666666666666
PETRI,-24.8025,-46.987833333333334
PIANO,-14.555,-46.958666666666666
PICOM,3.4093333333333335,-60.317166666666665
PILOT,-22.167166666666667,-35.00033333333333
PIMBA,-25.698666666666668,-49.11683333333333
PINUP,-7.514833333333334,-63.0965
PIPAL,-25.524166666666666,-50.04666666666667
PIRES,-2.6845,-48.156333333333336
PITON,-19.586166666666667,-42.08866666666667
PIXUA,-22.474333333333334,-52.2105
PLOTO,-6.8415,-62.20816666666666
POJAR,-10.275333333333334,-51.31916666666667
POLAN,-11.828166666666666,-50.886
POLEN,-4.173,-60.389
POLVO,-18.5895,-38.52066666666666
PONCA,-26.912333333333333,-48.745
PONEI,-20.255,-51.17
PONGO,-21.793833333333332,-52.165333333333336
PONI,-7.597333333333333,-35.52616666666667
PONTE,-23.970666666666666,-47.781333333333336
PORGA,-18.679333333333332,-38.24283333333333
PORMI,-15.2055,-48.0625
PORTE,-22.449166666666667,-48.579166666666666
PORVA,-22.57133333333333,-48.093666666666664
POSBI,-17.333,-44.625
POSKA,-5.1065,-72.812
POSMA,-18.054666666666666,-44.43383333333333
POTNI,-21.1315,-49.171166666666664
POTRI,-20.21366666666667,-47.9
POTRO,-8.808333333333334,-35.42916666666667
POVOX,,
PRAGA,-24.8125,-54.014
PRAXE,-4.776833333333333,-38.52316666666667
PREGO,-23.301833333333335,-47.275333333333336
PRIMA,-3.7925,-67.32316666666667
PRONO,-13.933166666666667,-44.537
PROSA,-16.378,-55.39033333333333
PROST,-4.441333333333334,-38.513333333333335
PROVE,-16.827833333333334,-46.568333333333335
PRUMO,-17.408,-46.099833333333336
PUERA,-1.0213333333333334,-58.13583333333333
PUGOR,-20.3265,-47.19133333333333
PUGOV,-20.609833333333334,-44.50816666666667
PUGSU,1.7763333333333333,-35.6035
PUGUN,0.229,-30.311666666666667
PUGVA,-18.307333333333332,-43.947
PUIDO,-12.107333333333333,-41.432
PUNEN,-1.4498333333333333,-49.141
PUREU,-6.2363333333333335,-39.86333333333333
QUARU,-17.326166666666666,-43.144666666666666
QUILT,-20.806666666666665,-48.354166666666664
R1369,-1.3880833333333333,-48.484969444444445
R1501,-15.8635,-47.92758333333333
R1502,-15.861666666666666,-47.89775
R1506,-22.812438888888888,-43.2636
R1507,-22.79225,-43.217533333333336
R1509,-22.801933333333334,-43.255116666666666
R2380,-25.589747222222222,-54.49534444444444
R2381,-12.911344444444444,-38.33606666666667
R2923,-3.0385833333333334,-60.06188888888889
RABAN,-24.289,-50.46966666666667
RAIRA,-15.63,-39.09916666666667
RAKUD,3.409,-29.184
RALYT,-19.09883333333333,-43.54516666666667
RAMOS,-23.019166666666667,-50.4775
RAPAT,-12.678166666666666,-56.108333333333334
RATEP,-5.696,-35.88316666666667
RAVEL,-22.596666666666668,-46.93
RAXEN,-29.565833333333334,-54.460166666666666
REALY,-18.405333333333335,-57.3775
REBAL,-2.0458333333333334,-48.58716666666667
REBOK,-20.240166666666667,-44.79
REC07,-8.033469444444444,-34.79490555555556
REC15,-8.252891666666667,-34.806377777777776
REC16,-8.272047222222222,-34.82848611111111
REC17,-8.287086111111112,-34.85360277777778
REC23,-8.28303611111111,-35.00879722222222
REC33,-7.993038888888889,-34.84077777777778
REC55,-8.277016666666666,-35.018855555555554
REC59,-8.270308333333332,-35.028463888888886
REC60,-8.004616666666667,-34.82386944444445
REC81,-8.222805555555556,-35.071375
REC92,-8.193827777777777,-35.085233333333335
REDOC,-22.903,-51.6695
REDON,-10.8195,-61.909166666666664
REFIT,-22.277333333333335,-52.457166666666666
REGIS,-3.059,-28.890666666666668
REINA,-18.438,-45.571333333333335
RELOT,-6.681333333333333,-58.926833333333335
REMIX,-21.55366666666667,-51.48533333333334
RENAN,-22.261166666666668,-50.058
REPET,-22.120333333333335,-43.867666666666665
REPIL,-3.333833333333333,-60.456833333333336
RESIN,-2.229833333333333,-53.60933333333333
RESUS,-13.6755,-44.117666666666665
RETER,-21.076,-54.9695
RETOL,-15.851666666666667,-43.71633333333333
RICAR,-6.722333333333333,-47.17183333333333
RIDAL,-2.9863333333333335,-55.18333333333333
RIFO,-23.225872222222222,-42.364275
RINOS,-6.6146666666666665,-72.22483333333334
RIOH,-21.766833333333334,-43.89066666666667
RITMO,-5.707,-64.995
RIVAL,-30.505,-53.396166666666666
RIXOM,-3.6056666666666666,-45.078833333333336
ROCHO,-22.8115,-46.055
RODES,-6.502,-35.55866666666667
ROFIC,0.6351666666666667,-51.01166666666666
ROGIN,-0.184,-57.31066666666667
ROLIK,-2.4226666666666667,-60.3905
RONAL,-10.9665,-50.24916666666667
RONCA,-5.7065,-43.021166666666666
RONEN,-8.922833333333333,-60.825
RONIL,-12.178,-54.698
RORAX,-21.471666666666668,-49.931666666666665
ROSER,-17.319333333333333,-56.87283333333333
ROTAM,-1.681,-49.07566666666666
ROUSE,-3.6310000000000002,-66.28216666666667
RUBEN,-9.712833333333334,-35.495666666666665
RUBIC,-16.409333333333333,-42.67883333333333
RUMBA,-7.122333333333334,-35.77283333333333
RUSTE,-12.257666666666667,-48.24133333333333
RUTLE,-21.076833333333333,-48.12433333333333
SAFOK,-15.347,-47.594833333333334
SAFUC,-6.9030000000000005,-35.1055
SAGAZ,-16.985500000000002,-41.77016666666667
SAKSI,0.8436666666666667,-34.0405
SALPU,0.44316666666666665,-31.877333333333333
SALSA,-4.657,-63.069
SALTU,-18.94,-43.03216666666667
SALVI,-18.907166666666665,-43.336666666666666
SAMAR,-14.713,-53.1195
SAMTA,-21.083666666666666,-48.074333333333335
SAMTI,0.383,-30.5415
SANPA,-20.334,-44.718666666666664
SARSU,-19.048,-47.67583333333333
SARTA,-21.6495,-48.347833333333334
SARTE,-22.52166666666667,-46.2215
SARTU,-19.7365,-47.6135
SASBU,-20.158333333333335,-41.208333333333336
SASTI,-20.116333333333333,-41.59883333333333
SAVIO,-2.4078333333333335,-44.881166666666665
SCR05,-22.906541666666666,-43.65031388888889
SCR11,-22.819488888888888,-43.587358333333334
SELBO,-22.735500000000002,-46.462833333333336
SELDO,-19.690333333333335,-44.67483333333333
SERGI,-25.227666666666668,-49.44316666666667
SERIM,-3.1241666666666665,-20.4075
SERRA,-22.6205,-49.69833333333333
SEVIL,-7.040666666666667,-35.840666666666664
SIAPA,-8.378,-35.5545
SIDIR,-5.695333333333333,-31.835166666666666
SIDOL,-19.0685,-44.34316666666667
SIDOM,-23.067666666666668,-47.715833333333336
SIDUM,-9.9475,-61.082166666666666
SIGAK,-21.875166666666665,-49.194833333333335
SIGAT,-22.2895,-46.51383333333333
SIGEL,-19.934166666666666,-43.2485
SIGIR,-18.2465,-44.06433333333333
SIGIX,-7.185333333333333,-71.999
SIGOK,-17.623333333333335,-44.072
SILIC,-11.1775,-65.36716666666666
SIMON,-9.339166666666667,-61.576
SINOL,1.504,-51.303333333333335
SIOGA,-20.543666666666667,-53.964666666666666
SIPAK,-9.7555,-59.38583333333333
SIPOX,-2.3701666666666665,-60.18866666666667
SIRIA,-16.879833333333334,-54.884166666666665
SIROS,2.4713333333333334,-54.692166666666665
SISET,-13.1275,-13.0525
SOBID,-2.0856666666666666,-55.391
SOBOL,-14.5945,-47.948166666666665
SOLDO,-10.176,-46.361666666666665
SONA,-25.360555555555557,-53.80888888888889
SORAI,-20.767,-44.95166666666667
SOTO,-12.241833333333334,-38.237
SPINO,-13.858,-41.407333333333334
SPRIN,-4.599666666666667,-69.79383333333334
STONE,-5.120833333333334,-62.46033333333333
SULCO,-23.89966666666667,-45.949
SVD07,-12.931777777777778,-38.437980555555555
SVD11,-12.923536111111112,-38.151561111111114
SVD12,-12.924419444444444,-38.525305555555555
SVD16,-12.961680555555555,-38.588541666666664
SVD23,-12.705633333333333,-38.318263888888886
SVD24,-12.73911111111111,-38.318775
SVD26,-12.987983333333334,-38.47043055555555
SVD27,-12.923980555555556,-38.387230555555554
SVD29,-12.909775,-38.491952777777776
SVD30,-12.842202777777779,-38.58635833333334
SVD41,-13.062894444444444,-38.44989722222222
SVD42,-13.036833333333334,-38.42845833333333
SVD54,-12.737730555555556,-38.21029722222222
SVD56,-12.76586111111111,-38.228791666666666
SVD81,-12.941652777777778,-38.488191666666665
SVD91,-12.843361111111111,-38.16330555555555
TAGO,-13.893166666666668,-38.51233333333333
TAMAR,-1.3043333333333333,-49.13933333333333
TAPUR,-0.5418333333333333,-65.06133333333334
TAROP,-9.032,-54.632666666666665
TASA,-12.946138888888889,-38.46897222222222
TASIL,4.005,-29.99
TAYLO,-24.7985,-53.91166666666667
TEDAS,-23.878833333333333,-54.57566666666666
TELEX,-20.422833333333333,-44.650166666666664
TELIR,-11.293,-61.4225
TELMA,-12.863666666666667,-46.530166666666666
TELOS,-9.2585,-56.384166666666665
TEMEV,-22.8925,-46.03395555555556
TEMID,-6.313666666666666,-71.098
TEMIT,-17.0855,-44.06783333333333
TEMOR,-7.713166666666667,-72.54716666666667
TEMOV,-16.327833333333334,-44.08716666666667
TENEL,-15.3705,-56.7365
TENEM,-20.55366666666667,-48.028
TENIK,-20.543666666666667,-47.856
TENUG,-4.691,-69.43266666666666
TENUT,-21.686833333333333,-46.827666666666666
TEPEM,-2.5618333333333334,-59.655166666666666
TEPIM,-2.6845,-57.034166666666664
TEREB,-9.9505,-49.50383333333333
TERES,-12.475666666666667,-51.36816666666667
TEXAS,-23.0935,-46.17183333333333
TIROL,-21.435666666666666,-44.2505
TITA,-13.841166666666666,-38.6965
TOBIM,-7.4455,-35.50383333333333
TOBUX,-2.508166666666667,-55.47866666666667
TOGLA,-25.250555555555554,-54.29138888888889
TOGON,-20.480333333333334,-43.707
TOKIM,-21.9245,-44.19266666666667
TOMAS,-11.338833333333334,-38.123
TOMBO,-17.525666666666666,-54.22666666666667
TORON,-30.4465,-51.749833333333335
TORVA,-25.924166666666668,-49.939166666666665
TOSAR,-17.650666666666666,-55.5245
TRIGO,-23.741333333333333,-45.900666666666666
TRIVI,-20.031833333333335,-44.562666666666665
TROVA,-11.372166666666667,-40.198166666666665
TUBO,-22.912666666666667,-44.333
TULIO,-31.539833333333334,-54.500166666666665
TURAB,-12.433166666666667,-26.750333333333334
TUVAM,-27.163833333333333,-48.215833333333336
UBRUT,-5.3985,-33.319
UBSIM,-12.941666666666666,-61.843666666666664
UBSUT,-18.54,-48.173
UCROK,-3.9131666666666667,-44.60616666666667
UDIDI,-13.043333333333333,-62.623333333333335
UDIGA,-3.5128333333333335,-24.144833333333334
UDILO,-2.9621666666666666,-59.462666666666664
UDOGA,-29.621333333333332,-25.0
UGAGA,0.8116666666666668,-65.7
UGAXO,-11.912833333333333,-63.913833333333336
UGELO,-32.678333333333335,-53.14666666666667
UGEMU,-6.5895,-58.30616666666667
UGINA,-14.609666666666667,-58.373666666666665
UGUTO,-8.036333333333333,-50.530166666666666
UKARI,-8.831333333333333,-35.363
UKEDI,6.588333333333333,-37.07666666666667
UKERO,-12.693166666666666,-56.43866666666667
UNIDO,-19.211166666666667,-45.95033333333333
URADI,-15.854386111111111,-47.799191666666665
UREVI,-14.179166666666667,-58.4005
URUGU,-7.6795,-47.858333333333334
USABA,-23.529666666666667,-45.05083333333334
UTKIS,-4.012166666666666,-44.4535
UTPAM,-3.5326666666666666,-59.6765
UTRON,-21.406333333333333,-51.93116666666667
UVBIL,-11.616,-55.04266666666667
UZINA,-21.9445,-52.871
VACAR,-7.665333333333333,-36.16866666666667
VADAD,-7.020666666666667,-24.624833333333335
VAGAN,3.819166666666667,-63.08383333333333
VAKUS,-3.5765000000000002,-59.72966666666667
VALDE,-1.3944444444444444,-48.491730555555556
VALDI,-18.063333333333333,-47.47533333333333
VAMIL,-9.408333333333333,-44.16566666666667
VANIA,-15.856,-56.77183333333333
VAPOL,-23.103166666666667,-52.953833333333336
VAPUL,-21.9745,-51.81583333333333
VARSO,-14.323166666666667,-48.1165
VATAP,-12.9605,-39.00183333333333
VENUS,-24.689166666666665,-53.12383333333333
VERBO,-25.528333333333332,-49.656333333333336
VERDE,-8.113,-69.48683333333334
VERME,-20.887666666666668,-46.786
VIANA,-12.9605,-45.69583333333333
VIBOT,-5.960666666666667,-57.468833333333336
VILUX,-10.475666666666667,-67.53933333333333
VISTA,-19.562,-44.314
VODIK,-2.6301666666666668,-54.183
VODSA,-15.6055,-31.938166666666667
VUDAM,-12.4395,-56.10816666666667
VUKEB,-4.930166666666667,-69.67716666666666
VUKER,-3.779,-44.81216666666667
VUKUS,-25.913333333333334,-47.55866666666667
VURKI,-19.159833333333335,-44.467
VURUM,-3.6155,-59.788833333333336
XAREO,-26.137,-46.57483333333333
XINGU,-11.460166666666666,-54.02916666666667
XOLOK,-2.617166666666667,-56.42616666666667
XUXUM,-8.743166666666667,-51.408166666666666
ZAMBI,-13.1105,-41.04083333333333
ZANA,-22.3905,-42.1655
ZANET,-21.157166666666665,-46.922333333333334
ZELAN,-10.804333333333334,-50.129666666666665
ZIPAR,-9.236,-36.69283333333333
ZORRO,1.8633333333333333,-67.20183333333334
ZORZA,-11.003,-44.148
ZURCO,-2.671,-43.578833333333336
ACARI,1.9571666666666667,-56.489
ALARD,-16.238833333333332,-52.207
ALDOS,-26.230666666666668,-54.68866666666667
ALÉM,-22.089166666666667,-40.905166666666666
AMIR,,
ANDO,-22.353833333333334,-40.841833333333334
ARUSI,,
ARUXA,-3.4823333333333335,-69.795
ARVOP,-22.267,-56.615833333333335
AVOS,-22.136166666666668,-41.61933333333333
BERTE,,
BITUR,-24.931333333333335,-54.92483333333333
BOLIR,-24.881,-54.527166666666666
BRACO,1.7445,-69.85733333333333
CARVE,2.6993333333333336,-35.116
CEROL,,
CLOVE,1.0951666666666666,-29.860833333333332
COLT,-22.171666666666667,-40.97383333333333
CRUDE,1.7375,-33.54966666666667
CUARA,-30.369666666666667,-56.44983333333333
DADRI,-23.826833333333333,-55.6295
DICK,,
DOBDA,4.732166666666666,-59.92783333333333
EGELU,-23.062166666666666,-56.11116666666667
EIRA,-21.940666666666665,-40.884
ELANA,-0.9181666666666667,-67.65466666666667
EPODE,1.3225,-31.412333333333333
ERVEL,-15.500166666666667,-60.21816666666667
ESDIM,-0.2613333333333333,-64.23383333333334
GAMOT,-30.9445,-55.49366666666667
GAVEX,-19.443666666666665,-46.065
GAXAS,-25.402833333333334,-54.51133333333333
GEDSI,,
GEMAS,-24.345,-54.31333333333333
GUARD,-16.0945,-53.221666666666664
ISALA,-31.676166666666667,-54.446333333333335
ISANI,4.249666666666666,-61.592166666666664
ISARA,-10.773,-67.6335
ITGIV,-32.93333333333333,-10.0
JAIL,-22.105833333333333,-41.23566666666667
JURA,,
KAKI,,
KALAD,-23.718833333333333,-55.48833333333334
LADER,-26.1425,-54.098333333333336
LIGE,,
LUCIA,-26.582666666666668,-54.83283333333333
MEDI,-22.182166666666667,-40.62466666666667
MENA,-22.0695,-40.53966666666667
MEOM,-22.0455,-40.89533333333333
MORLA,-18.425,-43.7205
NABLA,-19.91433333333333,-42.167833333333334
NINA,,
OBIL,,
ONIX,-22.5905,-40.92433333333334
OPLIV,-22.583333333333332,-46.27133333333333
OTUM,,
PABON,-2.7083333333333335,-70.01333333333334
PAKON,4.481166666666667,-61.30083333333334
PANOK,-15.162666666666667,-47.446
PATIN,,
RAVE,-21.9335,-40.872
REBER,3.1946666666666665,-52.3005
REMEK,-20.633,-58.113
SELVA,-9.522,-72.18566666666666
SIDAK,-19.639166666666668,-58.20783333333333
SIGOB,-8.471166666666667,-73.33833333333334
SIGOT,-18.934833333333334,-43.488
TAMA,-22.671833333333332,-41.0395
TIME,-21.922333333333334,-40.84433333333333
UBKAB,-16.315,-58.6085
UGURA,-32.605,-53.34
VUMPI,1.99,-63.94833333333333
VUPAT,-7.25,-49.55983333333333
